simWorkspace/Stream2Axi4WriteOnlyMasterInterfaceAddFifo/test.vcd
$version Generated by VerilatedVcd $end
$date Wed Dec 29 22:39:33 2021
 $end
$timescale   1ns $end

 $scope module TOP $end
  $var wire  1 "! aclk $end
  $var wire  1 z aresetn $end
  $var wire  8 | burstLen [7:0] $end
  $var wire 32 j m_axi_awaddr [31:0] $end
  $var wire  2 n m_axi_awburst [1:0] $end
  $var wire  4 o m_axi_awcache [3:0] $end
  $var wire  8 l m_axi_awlen [7:0] $end
  $var wire  3 q m_axi_awprot [2:0] $end
  $var wire  4 p m_axi_awqos [3:0] $end
  $var wire  1 i m_axi_awready $end
  $var wire  4 k m_axi_awregion [3:0] $end
  $var wire  3 m m_axi_awsize [2:0] $end
  $var wire  1 h m_axi_awvalid $end
  $var wire  1 x m_axi_bready $end
  $var wire  2 y m_axi_bresp [1:0] $end
  $var wire  1 w m_axi_bvalid $end
  $var wire 32 t m_axi_wdata [31:0] $end
  $var wire  1 v m_axi_wlast $end
  $var wire  1 s m_axi_wready $end
  $var wire  4 u m_axi_wstrb [3:0] $end
  $var wire  1 r m_axi_wvalid $end
  $var wire 32 } offset [31:0] $end
  $var wire 32 g s_axis_payload [31:0] $end
  $var wire  1 f s_axis_ready $end
  $var wire  1 e s_axis_valid $end
  $var wire  1 { start $end
  $var wire  1 ~ transInterrupt $end
  $scope module Stream2Axi4WriteOnlyMasterInterfaceAddFifo $end
   $var wire  1 "! aclk $end
   $var wire  1 z aresetn $end
   $var wire 32 } axi4Interconnection_m_axi_awaddr [31:0] $end
   $var wire  2 ") axi4Interconnection_m_axi_awburst [1:0] $end
   $var wire  4 "' axi4Interconnection_m_axi_awcache [3:0] $end
   $var wire  8 S axi4Interconnection_m_axi_awlen [7:0] $end
   $var wire  3 "* axi4Interconnection_m_axi_awprot [2:0] $end
   $var wire  4 "' axi4Interconnection_m_axi_awqos [3:0] $end
   $var wire  4 "' axi4Interconnection_m_axi_awregion [3:0] $end
   $var wire  3 "( axi4Interconnection_m_axi_awsize [2:0] $end
   $var wire  1 R axi4Interconnection_m_axi_awvalid $end
   $var wire  1 T axi4Interconnection_m_axi_bready $end
   $var wire 32 C axi4Interconnection_m_axi_wdata [31:0] $end
   $var wire  1 / axi4Interconnection_m_axi_wlast $end
   $var wire  4 "+ axi4Interconnection_m_axi_wstrb [3:0] $end
   $var wire  1 B axi4Interconnection_m_axi_wvalid $end
   $var wire  1 A axi4Interconnection_s_axis_ready $end
   $var wire  1 N axi4Interconnection_transInterrupt $end
   $var wire  8 | burstLen [7:0] $end
   $var wire  9 3 fifoInstance_io_availability [8:0] $end
   $var wire  9 2 fifoInstance_io_occupancy [8:0] $end
   $var wire 32 O fifoInstance_io_pop_payload [31:0] $end
   $var wire  1 1 fifoInstance_io_pop_valid $end
   $var wire  1 0 fifoInstance_io_push_ready $end
   $var wire 32 j m_axi_awaddr [31:0] $end
   $var wire  2 n m_axi_awburst [1:0] $end
   $var wire  4 o m_axi_awcache [3:0] $end
   $var wire  8 l m_axi_awlen [7:0] $end
   $var wire  3 q m_axi_awprot [2:0] $end
   $var wire  4 p m_axi_awqos [3:0] $end
   $var wire  1 i m_axi_awready $end
   $var wire  4 k m_axi_awregion [3:0] $end
   $var wire  3 m m_axi_awsize [2:0] $end
   $var wire  1 h m_axi_awvalid $end
   $var wire  1 x m_axi_bready $end
   $var wire  2 y m_axi_bresp [1:0] $end
   $var wire  1 w m_axi_bvalid $end
   $var wire 32 t m_axi_wdata [31:0] $end
   $var wire  1 v m_axi_wlast $end
   $var wire  1 s m_axi_wready $end
   $var wire  4 u m_axi_wstrb [3:0] $end
   $var wire  1 r m_axi_wvalid $end
   $var wire 32 } offset [31:0] $end
   $var wire 32 g s_axis_payload [31:0] $end
   $var wire  1 f s_axis_ready $end
   $var wire  1 e s_axis_valid $end
   $var wire  1 { start $end
   $var wire  1 ~ transInterrupt $end
   $scope module axi4Interconnection $end
    $var wire  1 "! aclk $end
    $var wire  1 z aresetn $end
    $var wire  1 R axi4Interface_controlAwValidSignal $end
    $var wire  1 T axi4Interface_controlBReady $end
    $var wire  1 "% axi4Interface_full_aw_fire $end
    $var wire  1 "" axi4Interface_full_b_fire $end
    $var wire  1 "" axi4Interface_full_b_fire_1 $end
    $var wire  1 "" axi4Interface_full_b_fire_2 $end
    $var wire  1 "" axi4Interface_full_b_fire_3 $end
    $var wire  1 "" axi4Interface_full_b_fire_4 $end
    $var wire  1 "& axi4Interface_full_w_fire $end
    $var wire  1 N axi4Interface_isBurstComplete $end
    $var wire  1 V axi4Interface_isTransferAfterReset $end
    $var wire  1 W axi4Interface_lastBurstComplete $end
    $var wire  1 . axi4Interface_resetStartSendSignal $end
    $var wire 32 ", axi4Interface_transferDataType [31:0] $end
    $var wire  8 | burstLen [7:0] $end
    $var wire  8 U burstLengthReg [7:0] $end
    $var wire 32 } m_axi_awaddr [31:0] $end
    $var wire  2 ") m_axi_awburst [1:0] $end
    $var wire  4 "' m_axi_awcache [3:0] $end
    $var wire  8 S m_axi_awlen [7:0] $end
    $var wire  3 "* m_axi_awprot [2:0] $end
    $var wire  4 "' m_axi_awqos [3:0] $end
    $var wire  1 i m_axi_awready $end
    $var wire  4 "' m_axi_awregion [3:0] $end
    $var wire  3 "( m_axi_awsize [2:0] $end
    $var wire  1 R m_axi_awvalid $end
    $var wire  1 T m_axi_bready $end
    $var wire  2 y m_axi_bresp [1:0] $end
    $var wire  1 w m_axi_bvalid $end
    $var wire 32 C m_axi_wdata [31:0] $end
    $var wire  1 / m_axi_wlast $end
    $var wire  1 Q m_axi_wlast_regNext $end
    $var wire  1 s m_axi_wready $end
    $var wire  4 "+ m_axi_wstrb [3:0] $end
    $var wire  1 B m_axi_wvalid $end
    $var wire 32 } offset [31:0] $end
    $var wire 32 O s_axis_payload [31:0] $end
    $var wire  1 A s_axis_ready $end
    $var wire  1 1 s_axis_valid $end
    $var wire  1 { start $end
    $var wire  1 d startSendSignal $end
    $var wire  9 7 streamFifo_2_io_availability [8:0] $end
    $var wire  9 6 streamFifo_2_io_occupancy [8:0] $end
    $var wire 32 P streamFifo_2_io_pop_payload [31:0] $end
    $var wire  1 # streamFifo_2_io_pop_ready $end
    $var wire  1 5 streamFifo_2_io_pop_valid $end
    $var wire  1 > streamFifo_2_io_push_fire $end
    $var wire 32 E streamFifo_2_io_push_payload [31:0] $end
    $var wire  1 4 streamFifo_2_io_push_ready $end
    $var wire  1 D streamFifo_2_io_push_valid $end
    $var wire  1 N transInterrupt $end
    $var wire  1 "# when_Axi4WriteOnlyMaster_l122 $end
    $var wire  1 "$ when_Axi4WriteOnlyMaster_l125 $end
    $var wire  1 G when_Axi4WriteOnlyMaster_l159 $end
    $var wire  1 F when_Axi4WriteOnlyMaster_l96 $end
    $scope module streamFifo_2 $end
     $var wire  1 "! aclk $end
     $var wire  1 z aresetn $end
     $var wire  9 7 io_availability [8:0] $end
     $var wire  1 "- io_flush $end
     $var wire  9 6 io_occupancy [8:0] $end
     $var wire 32 P io_pop_payload [31:0] $end
     $var wire  1 # io_pop_ready $end
     $var wire  1 5 io_pop_valid $end
     $var wire 32 E io_push_payload [31:0] $end
     $var wire  1 4 io_push_ready $end
     $var wire  1 D io_push_valid $end
     $var wire  1 9 logic_empty $end
     $var wire  1 : logic_full $end
     $var wire  8 Z logic_popPtr_value [7:0] $end
     $var wire  8 % logic_popPtr_valueNext [7:0] $end
     $var wire  1 "- logic_popPtr_willClear $end
     $var wire  1 $ logic_popPtr_willIncrement $end
     $var wire  1 * logic_popPtr_willOverflow $end
     $var wire  1 [ logic_popPtr_willOverflowIfInc $end
     $var wire  1 & logic_popping $end
     $var wire  8 ] logic_ptrDif [7:0] $end
     $var wire  1 8 logic_ptrMatch $end
     $var wire  8 X logic_pushPtr_value [7:0] $end
     $var wire  8 I logic_pushPtr_valueNext [7:0] $end
     $var wire  1 "- logic_pushPtr_willClear $end
     $var wire  1 H logic_pushPtr_willIncrement $end
     $var wire  1 ? logic_pushPtr_willOverflow $end
     $var wire  1 Y logic_pushPtr_willOverflowIfInc $end
     $var wire  1 J logic_pushing $end
     $var wire  1 \ logic_risingOccupancy $end
     $var wire  1 , when_Stream_l946 $end
    $upscope $end
   $upscope $end
   $scope module fifoInstance $end
    $var wire  1 "! aclk $end
    $var wire  1 z aresetn $end
    $var wire  9 3 io_availability [8:0] $end
    $var wire  1 "- io_flush $end
    $var wire  9 2 io_occupancy [8:0] $end
    $var wire 32 O io_pop_payload [31:0] $end
    $var wire  1 A io_pop_ready $end
    $var wire  1 1 io_pop_valid $end
    $var wire 32 g io_push_payload [31:0] $end
    $var wire  1 0 io_push_ready $end
    $var wire  1 e io_push_valid $end
    $var wire  1 < logic_empty $end
    $var wire  1 = logic_full $end
    $var wire  8 ` logic_popPtr_value [7:0] $end
    $var wire  8 L logic_popPtr_valueNext [7:0] $end
    $var wire  1 "- logic_popPtr_willClear $end
    $var wire  1 K logic_popPtr_willIncrement $end
    $var wire  1 @ logic_popPtr_willOverflow $end
    $var wire  1 a logic_popPtr_willOverflowIfInc $end
    $var wire  1 M logic_popping $end
    $var wire  8 c logic_ptrDif [7:0] $end
    $var wire  1 ; logic_ptrMatch $end
    $var wire  8 ^ logic_pushPtr_value [7:0] $end
    $var wire  8 ( logic_pushPtr_valueNext [7:0] $end
    $var wire  1 "- logic_pushPtr_willClear $end
    $var wire  1 ' logic_pushPtr_willIncrement $end
    $var wire  1 + logic_pushPtr_willOverflow $end
    $var wire  1 _ logic_pushPtr_willOverflowIfInc $end
    $var wire  1 ) logic_pushing $end
    $var wire  1 b logic_risingOccupancy $end
    $var wire  1 - when_Stream_l946 $end
   $upscope $end
  $upscope $end
 $upscope $end
$enddefinitions $end


#0
0#
0$
b00000000 %
0&
0'
b00000000 (
0)
0*
0+
0,
0-
0.
0/
10
01
b000000000 2
b100000000 3
14
05
b000000000 6
b100000000 7
18
19
0:
1;
1<
0=
0>
0?
0@
0A
0B
b10001010000110111111101000101010 C
0D
b01111001010010101100011010011111 E
0F
0G
0H
b00000000 I
0J
0K
b00000000 L
0M
0N
b01111001010010101100011010011111 O
b10001010000110111111101000101010 P
0Q
0R
b11111110 S
0T
b11111111 U
1V
0W
b00000000 X
0Y
b00000000 Z
0[
0\
b00000000 ]
b00000000 ^
0_
b00000000 `
0a
0b
b00000000 c
0d
0e
1f
b00000000000000000000000000100000 g
0h
0i
b00000000000000000000000000000000 j
b0000 k
b11111110 l
b010 m
b01 n
b0000 o
b0000 p
b000 q
0r
0s
b10001010000110111111101000101010 t
b1111 u
0v
0w
0x
b00 y
0z
0{
b10000000 |
b00000000000000000000000000000000 }
0~
0"!
0""
1"#
0"$
0"%
0"&
b0000 "'
b010 "(
b01 ")
b000 "*
b1111 "+
b10001111101011101001110111110100 ",
0"-
#160
1z
#170
b10011011000100111100100110101001 C
b01001000000011011111101111110011 E
b01001000000011011111101111110011 O
b10011011000100111100100110101001 P
b01111111 S
b10000000 U
0V
1W
b01111111 l
b10011011000100111100100110101001 t
1"!
0"#
#175
0"!
#180
1"!
#185
0"!
#190
1A
1F
1G
1d
1{
1"!
1"$
#195
1#
b00000000000000000000000001111110 g
1i
1s
0{
0"!
#200
0#
1R
0W
b00000000000000000000000010000010 g
1h
0i
0s
1"!
#205
0"!
#210
1'
b00000001 (
1)
1-
1e
b00000000000000000000000000110000 g
1"!
#215
0"!
#220
1#
0'
0)
0-
b000000001 2
b011111111 3
0;
0<
b00000001 ^
1b
b00000001 c
0e
b00000000000000000000000001000011 g
1i
1s
1"!
1"%
#225
0"!
#230
0#
1'
b00000010 (
1)
1,
11
1>
1D
b00000000000000000000000000110000 E
1H
b00000001 I
1J
1K
b00000001 L
1M
b00000000000000000000000000110000 O
0R
1e
b00000000000000000000000001111000 g
0h
0i
0s
1"!
0"%
#235
0"!
#240
0'
0)
0,
01
b000000001 6
b011111111 7
08
09
0>
0D
b11110100011111110001000100000000 E
0H
0J
0K
0M
b11110100011111110001000100000000 O
b00000001 X
1\
b00000001 ]
b00000010 ^
b00000001 `
0e
b00000000000000000000000010001111 g
1"!
#245
0"!
#250
1#
1$
b00000001 %
1&
1-
11
15
1>
1B
b00000000000000000000000000110000 C
1D
b00000000000000000000000001111000 E
1H
b00000010 I
1J
1K
b00000010 L
1M
b00000000000000000000000001111000 O
b00000000000000000000000000110000 P
b00000000000000000000000000011111 g
1i
1r
1s
b00000000000000000000000000110000 t
1"!
1"&
#255
0"!
#260
0$
0&
0-
01
b000000000 2
b100000000 3
05
1;
1<
0>
0B
b00101000100010001001101100001010 C
0D
b01110110110101000111001101000000 E
0H
0J
0K
0M
b01110110110101000111001101000000 O
b00101000100010001001101100001010 P
1T
b00000010 X
b00000001 Z
b00000010 `
0b
b00000000 c
b00000000000000000000000010010011 g
0r
b00101000100010001001101100001010 t
1x
1"!
0"&
#265
0"!
#270
1$
b00000010 %
1&
1,
15
1B
b00000000000000000000000001111000 C
b00000000000000000000000001111000 P
b00000000000000000000000010101100 g
1r
b00000000000000000000000001111000 t
1"!
1"&
#275
0"!
#280
0$
0&
0,
05
b000000000 6
b100000000 7
18
19
0B
b01101111010011110011010000101101 C
b01101111010011110011010000101101 P
b00000010 Z
0\
b00000000 ]
b00000000000000000000000000110000 g
0r
b01101111010011110011010000101101 t
1"!
0"&
#285
0"!
#290
0#
1'
b00000011 (
1)
1-
1e
b00000000000000000000000001000000 g
0i
0s
1"!
#295
0"!
#300
b00000100 (
b000000001 2
b011111111 3
0;
0<
b00000011 ^
1b
b00000001 c
b00000000000000000000000011000001 g
1"!
#305
0"!
#310
1#
0'
0)
1,
11
b000000010 2
b011111110 3
1>
1D
b00000000000000000000000001000000 E
1H
b00000011 I
1J
1K
b00000011 L
1M
b00000000000000000000000001000000 O
b00000100 ^
b00000010 c
0e
b00000000000000000000000000111011 g
1i
1s
1"!
#315
0"!
#320
b000000001 2
b011111111 3
b000000001 6
b011111111 7
08
09
b00000000000000000000000011000001 E
b00000100 I
b00000100 L
b00000000000000000000000011000001 O
b00000011 X
1\
b00000001 ]
b00000011 `
0b
b00000001 c
b00000000000000000000000001100001 g
1"!
#325
0"!
#330
1$
b00000011 %
1&
0-
01
b000000000 2
b100000000 3
15
b000000010 6
b011111110 7
1;
1<
0>
1B
b00000000000000000000000001000000 C
0D
b10000101000000100000000001011110 E
0H
0J
0K
0M
b10000101000000100000000001011110 O
b00000000000000000000000001000000 P
b00000100 X
b00000010 ]
b00000100 `
b00000000 c
b00000000000000000000000001111111 g
1r
b00000000000000000000000001000000 t
1"!
1"&
#335
0"!
#340
0#
0$
0&
1'
b00000101 (
1)
0,
1-
b000000001 6
b011111111 7
b00000000000000000000000011000001 C
b00000000000000000000000011000001 P
b00000011 Z
0\
b00000001 ]
1e
b00000000000000000000000000011100 g
0i
0s
b00000000000000000000000011000001 t
1"!
0"&
#345
0"!
#350
1#
1$
b00000100 %
1&
0'
0)
1,
0-
b000000001 2
b011111111 3
0;
0<
b00000101 ^
1b
b00000001 c
0e
b00000000000000000000000001111101 g
1i
1s
1"!
1"&
#355
0"!
#360
0#
0$
0&
1-
11
05
b000000000 6
b100000000 7
18
19
1>
0B
b01100101000010100101110000011000 C
1D
b00000000000000000000000000011100 E
1H
b00000101 I
1J
1K
b00000101 L
1M
b00000000000000000000000000011100 O
b01100101000010100101110000011000 P
b00000100 Z
b00000000 ]
b00000000000000000000000001010111 g
0i
0r
0s
b01100101000010100101110000011000 t
1"!
0"&
#365
0"!
#370
1#
1'
b00000110 (
1)
0,
01
b000000000 2
b100000000 3
b000000001 6
b011111111 7
08
09
1;
1<
0>
0D
b01010001110011001110010110010111 E
0H
0J
0K
0M
b01010001110011001110010110010111 O
b00000101 X
1\
b00000001 ]
b00000101 `
0b
b00000000 c
1e
b00000000000000000000000000000111 g
1i
1s
1"!
#375
0"!
#380
1$
b00000101 %
1&
0'
0)
1,
0-
b000000001 2
b011111111 3
15
0;
0<
1B
b00000000000000000000000000011100 C
b00000000000000000000000000011100 P
b00000110 ^
1b
b00000001 c
0e
b00000000000000000000000001011100 g
1r
b00000000000000000000000000011100 t
1"!
1"&
#385
0"!
#390
0#
0$
0&
1-
11
05
b000000000 6
b100000000 7
18
19
1>
0B
b01000110100101011010111001100011 C
1D
b00000000000000000000000000000111 E
1H
b00000110 I
1J
1K
b00000110 L
1M
b00000000000000000000000000000111 O
b01000110100101011010111001100011 P
b00000101 Z
0\
b00000000 ]
b00000000000000000000000010010100 g
0i
0r
0s
b01000110100101011010111001100011 t
1"!
0"&
#395
0"!
#400
1'
b00000111 (
1)
0,
01
b000000000 2
b100000000 3
b000000001 6
b011111111 7
08
09
1;
1<
0>
0D
b11101001110110000111111110010101 E
0H
0J
0K
0M
b11101001110110000111111110010101 O
b00000110 X
1\
b00000001 ]
b00000110 `
0b
b00000000 c
1e
b00000000000000000000000000110110 g
1"!
#405
0"!
#410
1#
1$
b00000110 %
1&
0'
0)
1,
0-
b000000001 2
b011111111 3
15
0;
0<
1B
b00000000000000000000000000000111 C
b00000000000000000000000000000111 P
b00000111 ^
1b
b00000001 c
0e
b00000000000000000000000010100001 g
1i
1r
1s
b00000000000000000000000000000111 t
1"!
1"&
#415
0"!
#420
0#
0$
0&
1'
b00001000 (
1)
11
05
b000000000 6
b100000000 7
18
19
1>
0B
b01101000111100000010010110110011 C
1D
b00000000000000000000000000110110 E
1H
b00000111 I
1J
1K
b00000111 L
1M
b00000000000000000000000000110110 O
b01101000111100000010010110110011 P
b00000110 Z
0\
b00000000 ]
1e
b00000000000000000000000011110010 g
0i
0r
0s
b01101000111100000010010110110011 t
1"!
0"&
#425
0"!
#430
1#
0'
0)
0,
01
b000000001 6
b011111111 7
08
09
0>
0D
b00000111001110100000010110011000 E
0H
0J
0K
0M
b00000111001110100000010110011000 O
b00000111 X
1\
b00000001 ]
b00001000 ^
b00000111 `
0e
b00000000000000000000000010011010 g
1i
1s
1"!
#435
0"!
#440
1$
b00000111 %
1&
1'
b00001001 (
1)
11
15
1>
1B
b00000000000000000000000000110110 C
1D
b00000000000000000000000011110010 E
1H
b00001000 I
1J
1K
b00001000 L
1M
b00000000000000000000000011110010 O
b00000000000000000000000000110110 P
1e
b00000000000000000000000000111001 g
1r
b00000000000000000000000000110110 t
1"!
1"&
#445
0"!
#450
0#
0$
0&
0'
0)
01
05
0>
0B
b00011001011111101011110111101110 C
0D
b11100000111000010101001101010000 E
0H
0J
0K
0M
b11100000111000010101001101010000 O
b00011001011111101011110111101110 P
b00001000 X
b00000111 Z
b00001001 ^
b00001000 `
0e
b00000000000000000000000010000000 g
0i
0r
0s
b00011001011111101011110111101110 t
1"!
0"&
#455
0"!
#460
1#
1$
b00001000 %
1&
1-
11
15
1>
1B
b00000000000000000000000011110010 C
1D
b00000000000000000000000000111001 E
1H
b00001001 I
1J
1K
b00001001 L
1M
b00000000000000000000000000111001 O
b00000000000000000000000011110010 P
b00000000000000000000000001001011 g
1i
1r
1s
b00000000000000000000000011110010 t
1"!
1"&
#465
0"!
#470
0#
0$
0&
1'
b00001010 (
1)
01
b000000000 2
b100000000 3
05
1;
1<
0>
0B
b01001000101011100000011101001001 C
0D
b00110110111100011110000000110101 E
0H
0J
0K
0M
b00110110111100011110000000110101 O
b01001000101011100000011101001001 P
b00001001 X
b00001000 Z
b00001001 `
0b
b00000000 c
1e
b00000000000000000000000010000101 g
0i
0r
0s
b01001000101011100000011101001001 t
1"!
0"&
#475
0"!
#480
1#
1$
b00001001 %
1&
0'
0)
1,
0-
b000000001 2
b011111111 3
15
0;
0<
1B
b00000000000000000000000000111001 C
b00000000000000000000000000111001 P
b00001010 ^
1b
b00000001 c
0e
b00000000000000000000000001001110 g
1i
1r
1s
b00000000000000000000000000111001 t
1"!
1"&
#485
0"!
#490
0$
0&
1-
11
05
b000000000 6
b100000000 7
18
19
1>
0B
b00111001111100110010100001001001 C
1D
b00000000000000000000000010000101 E
1H
b00001010 I
1J
1K
b00001010 L
1M
b00000000000000000000000010000101 O
b00111001111100110010100001001001 P
b00001001 Z
0\
b00000000 ]
b00000000000000000000000000010000 g
0r
b00111001111100110010100001001001 t
1"!
0"&
#495
0"!
#500
0,
0-
01
b000000000 2
b100000000 3
b000000001 6
b011111111 7
08
09
1;
1<
0>
0D
b11001110000101001001000100001100 E
0H
0J
0K
0M
b11001110000101001001000100001100 O
b00001010 X
1\
b00000001 ]
b00001010 `
0b
b00000000 c
b00000000000000000000000010111110 g
1"!
#505
0"!
#510
1$
b00001010 %
1&
1'
b00001011 (
1)
1,
1-
15
1B
b00000000000000000000000010000101 C
b00000000000000000000000010000101 P
1e
b00000000000000000000000010110010 g
1r
b00000000000000000000000010000101 t
1"!
1"&
#515
0"!
#520
0#
0$
0&
0'
0)
0,
0-
b000000001 2
b011111111 3
05
b000000000 6
b100000000 7
18
19
0;
0<
0B
b10011011101100011101001000111101 C
b10011011101100011101001000111101 P
b00001010 Z
0\
b00000000 ]
b00001011 ^
1b
b00000001 c
0e
b00000000000000000000000000001010 g
0i
0r
0s
b10011011101100011101001000111101 t
1"!
0"&
#525
0"!
#530
1'
b00001100 (
1)
1,
11
1>
1D
b00000000000000000000000010110010 E
1H
b00001011 I
1J
1K
b00001011 L
1M
b00000000000000000000000010110010 O
1e
b00000000000000000000000011001010 g
1"!
#535
0"!
#540
1#
b00001101 (
0,
1-
01
b000000001 6
b011111111 7
08
09
0>
0D
b11101101101110101110110001010101 E
0H
0J
0K
0M
b11101101101110101110110001010101 O
b00001011 X
1\
b00000001 ]
b00001100 ^
b00001011 `
b00000000000000000000000001001001 g
1i
1s
1"!
#545
0"!
#550
0#
b00001110 (
1,
0-
11
b000000010 2
b011111110 3
15
1>
1B
b00000000000000000000000010110010 C
1D
b00000000000000000000000011001010 E
1H
b00001100 I
1J
1K
b00001100 L
1M
b00000000000000000000000011001010 O
b00000000000000000000000010110010 P
b00001101 ^
b00000010 c
b00000000000000000000000011110111 g
0i
1r
0s
b00000000000000000000000010110010 t
1"!
#555
0"!
#560
b00001111 (
b000000010 6
b011111110 7
b00000000000000000000000001001001 E
b00001101 I
b00001101 L
b00000000000000000000000001001001 O
b00001100 X
b00000010 ]
b00001110 ^
b00001100 `
b00000000000000000000000000001001 g
1"!
#565
0"!
#570
0'
0)
1-
b000000011 6
b011111101 7
b00000000000000000000000011110111 E
b00001110 I
b00001110 L
b00000000000000000000000011110111 O
b00001101 X
b00000011 ]
b00001111 ^
b00001101 `
0e
b00000000000000000000000011111011 g
1"!
#575
0"!
#580
1'
b00010000 (
1)
0-
b000000001 2
b011111111 3
b000000100 6
b011111100 7
b00000000000000000000000000001001 E
b00001111 I
b00001111 L
b00000000000000000000000000001001 O
b00001110 X
b00000100 ]
b00001110 `
0b
b00000001 c
1e
b00000000000000000000000000101100 g
1"!
#585
0"!
#590
b00010001 (
0,
1-
01
b000000101 6
b011111011 7
0>
0D
b01111010100110011010001110100011 E
0H
0J
0K
0M
b01111010100110011010001110100011 O
b00001111 X
b00000101 ]
b00010000 ^
b00001111 `
b00000000000000000000000010000111 g
1"!
#595
0"!
#600
1#
1$
b00001011 %
1&
b00010010 (
0-
11
b000000010 2
b011111110 3
1>
1D
b00000000000000000000000000101100 E
1H
b00010000 I
1J
1K
b00010000 L
1M
b00000000000000000000000000101100 O
b00010001 ^
1b
b00000010 c
b00000000000000000000000001101101 g
1i
1s
1"!
1"&
#605
0"!
#610
b00001100 %
b00010011 (
b00000000000000000000000011001010 C
b00000000000000000000000010000111 E
b00010001 I
b00010001 L
b00000000000000000000000010000111 O
b00000000000000000000000011001010 P
b00010000 X
b00001011 Z
b00010010 ^
b00010000 `
b00000000000000000000000001010101 g
b00000000000000000000000011001010 t
1"!
#615
0"!
#620
0#
0$
0&
0'
0)
1,
1-
b00000000000000000000000001001001 C
b00000000000000000000000001101101 E
b00010010 I
b00010010 L
b00000000000000000000000001101101 O
b00000000000000000000000001001001 P
b00010001 X
b00001100 Z
b00010011 ^
b00010001 `
0e
b00000000000000000000000000001011 g
0i
0s
b00000000000000000000000001001001 t
1"!
0"&
#625
0"!
#630
1'
b00010100 (
1)
0-
b000000001 2
b011111111 3
b000000110 6
b011111010 7
b00000000000000000000000001010101 E
b00010011 I
b00010011 L
b00000000000000000000000001010101 O
b00010010 X
b00000110 ]
b00010010 `
0b
b00000001 c
1e
b00000000000000000000000000101111 g
1"!
#635
0"!
#640
1#
1$
b00001101 %
1&
0'
0)
01
b000000111 6
b011111001 7
0>
0D
b11111110110000001100000001001110 E
0H
0J
0K
0M
b11111110110000001100000001001110 O
b00010011 X
b00000111 ]
b00010100 ^
b00010011 `
0e
b00000000000000000000000000001010 g
1i
1s
1"!
1"&
#645
0"!
#650
b00001110 %
0,
1-
11
b000000110 6
b011111010 7
1>
b00000000000000000000000011110111 C
1D
b00000000000000000000000000101111 E
1H
b00010100 I
1J
1K
b00010100 L
1M
b00000000000000000000000000101111 O
b00000000000000000000000011110111 P
b00001101 Z
0\
b00000110 ]
b00000000000000000000000011100110 g
b00000000000000000000000011110111 t
1"!
#655
0"!
#660
b00001111 %
1,
0-
01
b000000000 2
b100000000 3
1;
1<
0>
b00000000000000000000000000001001 C
0D
b10110001110011011111011010000110 E
0H
0J
0K
0M
b10110001110011011111011010000110 O
b00000000000000000000000000001001 P
b00010100 X
b00001110 Z
b00010100 `
b00000000 c
b00000000000000000000000001000110 g
b00000000000000000000000000001001 t
1"!
#665
0"!
#670
b00010000 %
b000000101 6
b011111011 7
b00000000000000000000000000101100 C
b00000000000000000000000000101100 P
b00001111 Z
b00000101 ]
b00000000000000000000000011110011 g
b00000000000000000000000000101100 t
1"!
#675
0"!
#680
b00010001 %
1'
b00010101 (
1)
1-
b000000100 6
b011111100 7
b00000000000000000000000010000111 C
b00000000000000000000000010000111 P
b00010000 Z
b00000100 ]
1e
b00000000000000000000000000101010 g
b00000000000000000000000010000111 t
1"!
#685
0"!
#690
0#
0$
0&
0'
0)
0,
0-
b000000001 2
b011111111 3
b000000011 6
b011111101 7
0;
0<
b00000000000000000000000001101101 C
b00000000000000000000000001101101 P
b00010001 Z
b00000011 ]
b00010101 ^
1b
b00000001 c
0e
b00000000000000000000000011111100 g
0i
0s
b00000000000000000000000001101101 t
1"!
0"&
#695
0"!
#700
1#
1$
b00010010 %
1&
1-
11
1>
1D
b00000000000000000000000000101010 E
1H
b00010101 I
1J
1K
b00010101 L
1M
b00000000000000000000000000101010 O
b00000000000000000000000011100100 g
1i
1s
1"!
1"&
#705
0"!
#710
b00010011 %
1'
b00010110 (
1)
1,
01
b000000000 2
b100000000 3
1;
1<
0>
b00000000000000000000000001010101 C
0D
b10101011001001111000110010101100 E
0H
0J
0K
0M
b10101011001001111000110010101100 O
b00000000000000000000000001010101 P
b00010101 X
b00010010 Z
b00010101 `
0b
b00000000 c
1e
b00000000000000000000000000001100 g
b00000000000000000000000001010101 t
1"!
#715
0"!
#720
b00010100 %
b00010111 (
b000000001 2
b011111111 3
b000000010 6
b011111110 7
0;
0<
b00000000000000000000000000101111 C
b00000000000000000000000000101111 P
b00010011 Z
b00000010 ]
b00010110 ^
1b
b00000001 c
b00000000000000000000000011101001 g
b00000000000000000000000000101111 t
1"!
#725
0"!
#730
0#
0$
0&
0'
0)
11
b000000010 2
b011111110 3
b000000001 6
b011111111 7
1>
b00000000000000000000000000101010 C
1D
b00000000000000000000000000001100 E
1H
b00010110 I
1J
1K
b00010110 L
1M
b00000000000000000000000000001100 O
b00000000000000000000000000101010 P
b00010100 Z
b00000001 ]
b00010111 ^
b00000010 c
0e
b00000000000000000000000011100001 g
0i
0s
b00000000000000000000000000101010 t
1"!
0"&
#735
0"!
#740
1'
b00011000 (
1)
0-
b000000001 2
b011111111 3
b000000010 6
b011111110 7
b00000000000000000000000011101001 E
b00010111 I
b00010111 L
b00000000000000000000000011101001 O
b00010110 X
1\
b00000010 ]
b00010110 `
0b
b00000001 c
1e
b00000000000000000000000000111111 g
1"!
#745
0"!
#750
b00011001 (
0,
1-
01
b000000011 6
b011111101 7
0>
0D
b10001010101100100100111000100110 E
0H
0J
0K
0M
b10001010101100100100111000100110 O
b00010111 X
b00000011 ]
b00011000 ^
b00010111 `
b00000000000000000000000001001101 g
1"!
#755
0"!
#760
1#
1$
b00010101 %
1&
b00011010 (
0-
11
b000000010 2
b011111110 3
1>
1D
b00000000000000000000000000111111 E
1H
b00011000 I
1J
1K
b00011000 L
1M
b00000000000000000000000000111111 O
b00011001 ^
1b
b00000010 c
b00000000000000000000000011001011 g
1i
1s
1"!
1"&
#765
0"!
#770
b00010110 %
0'
0)
1-
b00000000000000000000000000001100 C
b00000000000000000000000001001101 E
b00011001 I
b00011001 L
b00000000000000000000000001001101 O
b00000000000000000000000000001100 P
b00011000 X
b00010101 Z
b00011010 ^
b00011000 `
0e
b00000000000000000000000001110110 g
b00000000000000000000000000001100 t
1"!
#775
0"!
#780
b00010111 %
1'
b00011011 (
1)
0-
b000000001 2
b011111111 3
b00000000000000000000000011101001 C
b00000000000000000000000011001011 E
b00011010 I
b00011010 L
b00000000000000000000000011001011 O
b00000000000000000000000011101001 P
b00011001 X
b00010110 Z
b00011001 `
0b
b00000001 c
1e
b00000000000000000000000010100111 g
b00000000000000000000000011101001 t
1"!
#785
0"!
#790
b00011000 %
0'
0)
1,
01
0>
b00000000000000000000000000111111 C
0D
b01010000101000001001111110111000 E
0H
0J
0K
0M
b01010000101000001001111110111000 O
b00000000000000000000000000111111 P
b00011010 X
b00010111 Z
b00011011 ^
b00011010 `
0e
b00000000000000000000000011110101 g
b00000000000000000000000000111111 t
1"!
#795
0"!
