simWorkspace/Stream2Axi4WriteOnlyMasterInterfaceAddFifo/test.vcd
$version Generated by VerilatedVcd $end
$date Tue Dec 21 23:14:43 2021
 $end
$timescale   1ns $end

 $scope module TOP $end
  $var wire  1 } aclk $end
  $var wire  1 x aresetn $end
  $var wire  8 z burstLen [7:0] $end
  $var wire 32 h m_axi_awaddr [31:0] $end
  $var wire  2 l m_axi_awburst [1:0] $end
  $var wire  4 m m_axi_awcache [3:0] $end
  $var wire  8 j m_axi_awlen [7:0] $end
  $var wire  3 o m_axi_awprot [2:0] $end
  $var wire  4 n m_axi_awqos [3:0] $end
  $var wire  1 g m_axi_awready $end
  $var wire  4 i m_axi_awregion [3:0] $end
  $var wire  3 k m_axi_awsize [2:0] $end
  $var wire  1 f m_axi_awvalid $end
  $var wire  1 v m_axi_bready $end
  $var wire  2 w m_axi_bresp [1:0] $end
  $var wire  1 u m_axi_bvalid $end
  $var wire 32 r m_axi_wdata [31:0] $end
  $var wire  1 t m_axi_wlast $end
  $var wire  1 q m_axi_wready $end
  $var wire  4 s m_axi_wstrb [3:0] $end
  $var wire  1 p m_axi_wvalid $end
  $var wire 32 { offset [31:0] $end
  $var wire 32 e s_axis_payload [31:0] $end
  $var wire  1 d s_axis_ready $end
  $var wire  1 c s_axis_valid $end
  $var wire  1 y start $end
  $var wire  1 | transInterrupt $end
  $scope module Stream2Axi4WriteOnlyMasterInterfaceAddFifo $end
   $var wire  1 } aclk $end
   $var wire  1 x aresetn $end
   $var wire 32 { axi4Interconnection_m_axi_awaddr [31:0] $end
   $var wire  2 "( axi4Interconnection_m_axi_awburst [1:0] $end
   $var wire  4 "& axi4Interconnection_m_axi_awcache [3:0] $end
   $var wire  8 ~ axi4Interconnection_m_axi_awlen [7:0] $end
   $var wire  3 ") axi4Interconnection_m_axi_awprot [2:0] $end
   $var wire  4 "& axi4Interconnection_m_axi_awqos [3:0] $end
   $var wire  4 "& axi4Interconnection_m_axi_awregion [3:0] $end
   $var wire  3 "' axi4Interconnection_m_axi_awsize [2:0] $end
   $var wire  1 R axi4Interconnection_m_axi_awvalid $end
   $var wire  1 S axi4Interconnection_m_axi_bready $end
   $var wire 32 % axi4Interconnection_m_axi_wdata [31:0] $end
   $var wire  1 & axi4Interconnection_m_axi_wlast $end
   $var wire  4 "* axi4Interconnection_m_axi_wstrb [3:0] $end
   $var wire  1 $ axi4Interconnection_m_axi_wvalid $end
   $var wire  1 # axi4Interconnection_s_axis_ready $end
   $var wire  1 N axi4Interconnection_transInterrupt $end
   $var wire  8 z burstLen [7:0] $end
   $var wire  9 C fifoInstance_io_availability [8:0] $end
   $var wire  9 B fifoInstance_io_occupancy [8:0] $end
   $var wire 32 O fifoInstance_io_pop_payload [31:0] $end
   $var wire  1 A fifoInstance_io_pop_valid $end
   $var wire  1 @ fifoInstance_io_push_ready $end
   $var wire 32 h m_axi_awaddr [31:0] $end
   $var wire  2 l m_axi_awburst [1:0] $end
   $var wire  4 m m_axi_awcache [3:0] $end
   $var wire  8 j m_axi_awlen [7:0] $end
   $var wire  3 o m_axi_awprot [2:0] $end
   $var wire  4 n m_axi_awqos [3:0] $end
   $var wire  1 g m_axi_awready $end
   $var wire  4 i m_axi_awregion [3:0] $end
   $var wire  3 k m_axi_awsize [2:0] $end
   $var wire  1 f m_axi_awvalid $end
   $var wire  1 v m_axi_bready $end
   $var wire  2 w m_axi_bresp [1:0] $end
   $var wire  1 u m_axi_bvalid $end
   $var wire 32 r m_axi_wdata [31:0] $end
   $var wire  1 t m_axi_wlast $end
   $var wire  1 q m_axi_wready $end
   $var wire  4 s m_axi_wstrb [3:0] $end
   $var wire  1 p m_axi_wvalid $end
   $var wire 32 { offset [31:0] $end
   $var wire 32 e s_axis_payload [31:0] $end
   $var wire  1 d s_axis_ready $end
   $var wire  1 c s_axis_valid $end
   $var wire  1 y start $end
   $var wire  1 | transInterrupt $end
   $scope module axi4Interconnection $end
    $var wire  1 } aclk $end
    $var wire  1 x aresetn $end
    $var wire  1 R axi4Interface_controlAwValidSignal $end
    $var wire  1 S axi4Interface_controlBReady $end
    $var wire  1 "$ axi4Interface_full_aw_fire $end
    $var wire  1 "! axi4Interface_full_b_fire $end
    $var wire  1 "! axi4Interface_full_b_fire_1 $end
    $var wire  1 "! axi4Interface_full_b_fire_2 $end
    $var wire  1 "! axi4Interface_full_b_fire_3 $end
    $var wire  1 "! axi4Interface_full_b_fire_4 $end
    $var wire  1 "% axi4Interface_full_w_fire $end
    $var wire  1 N axi4Interface_isBurstComplete $end
    $var wire  1 T axi4Interface_isTransferAfterReset $end
    $var wire  1 U axi4Interface_lastBurstComplete $end
    $var wire  1 : axi4Interface_resetStartSendSignal $end
    $var wire 32 "+ axi4Interface_transferDataType [31:0] $end
    $var wire  8 z burstLen [7:0] $end
    $var wire 32 { m_axi_awaddr [31:0] $end
    $var wire  2 "( m_axi_awburst [1:0] $end
    $var wire  4 "& m_axi_awcache [3:0] $end
    $var wire  8 ~ m_axi_awlen [7:0] $end
    $var wire  3 ") m_axi_awprot [2:0] $end
    $var wire  4 "& m_axi_awqos [3:0] $end
    $var wire  1 g m_axi_awready $end
    $var wire  4 "& m_axi_awregion [3:0] $end
    $var wire  3 "' m_axi_awsize [2:0] $end
    $var wire  1 R m_axi_awvalid $end
    $var wire  1 S m_axi_bready $end
    $var wire  2 w m_axi_bresp [1:0] $end
    $var wire  1 u m_axi_bvalid $end
    $var wire 32 % m_axi_wdata [31:0] $end
    $var wire  1 & m_axi_wlast $end
    $var wire  1 Q m_axi_wlast_regNext $end
    $var wire  1 q m_axi_wready $end
    $var wire  4 "* m_axi_wstrb [3:0] $end
    $var wire  1 $ m_axi_wvalid $end
    $var wire 32 { offset [31:0] $end
    $var wire 32 O s_axis_payload [31:0] $end
    $var wire  1 # s_axis_ready $end
    $var wire  1 A s_axis_valid $end
    $var wire  1 y start $end
    $var wire  1 b startSendSignal $end
    $var wire  9 G streamFifo_2_io_availability [8:0] $end
    $var wire  9 F streamFifo_2_io_occupancy [8:0] $end
    $var wire 32 P streamFifo_2_io_pop_payload [31:0] $end
    $var wire  1 ) streamFifo_2_io_pop_ready $end
    $var wire  1 E streamFifo_2_io_pop_valid $end
    $var wire  1 ; streamFifo_2_io_push_fire $end
    $var wire 32 ( streamFifo_2_io_push_payload [31:0] $end
    $var wire  1 D streamFifo_2_io_push_ready $end
    $var wire  1 ' streamFifo_2_io_push_valid $end
    $var wire  1 N transInterrupt $end
    $var wire  1 "" when_Axi4WriteOnlyMaster_l115 $end
    $var wire  1 "# when_Axi4WriteOnlyMaster_l118 $end
    $var wire  1 + when_Axi4WriteOnlyMaster_l152 $end
    $var wire  1 * when_Axi4WriteOnlyMaster_l89 $end
    $scope module streamFifo_2 $end
     $var wire  1 } aclk $end
     $var wire  1 x aresetn $end
     $var wire  9 G io_availability [8:0] $end
     $var wire  1 ", io_flush $end
     $var wire  9 F io_occupancy [8:0] $end
     $var wire 32 P io_pop_payload [31:0] $end
     $var wire  1 ) io_pop_ready $end
     $var wire  1 E io_pop_valid $end
     $var wire 32 ( io_push_payload [31:0] $end
     $var wire  1 D io_push_ready $end
     $var wire  1 ' io_push_valid $end
     $var wire  1 I logic_empty $end
     $var wire  1 J logic_full $end
     $var wire  8 X logic_popPtr_value [7:0] $end
     $var wire  8 / logic_popPtr_valueNext [7:0] $end
     $var wire  1 ", logic_popPtr_willClear $end
     $var wire  1 . logic_popPtr_willIncrement $end
     $var wire  1 = logic_popPtr_willOverflow $end
     $var wire  1 Y logic_popPtr_willOverflowIfInc $end
     $var wire  1 1 logic_popping $end
     $var wire  8 [ logic_ptrDif [7:0] $end
     $var wire  1 H logic_ptrMatch $end
     $var wire  8 V logic_pushPtr_value [7:0] $end
     $var wire  8 - logic_pushPtr_valueNext [7:0] $end
     $var wire  1 ", logic_pushPtr_willClear $end
     $var wire  1 , logic_pushPtr_willIncrement $end
     $var wire  1 < logic_pushPtr_willOverflow $end
     $var wire  1 W logic_pushPtr_willOverflowIfInc $end
     $var wire  1 0 logic_pushing $end
     $var wire  1 Z logic_risingOccupancy $end
     $var wire  1 2 when_Stream_l933 $end
    $upscope $end
   $upscope $end
   $scope module fifoInstance $end
    $var wire  1 } aclk $end
    $var wire  1 x aresetn $end
    $var wire  9 C io_availability [8:0] $end
    $var wire  1 ", io_flush $end
    $var wire  9 B io_occupancy [8:0] $end
    $var wire 32 O io_pop_payload [31:0] $end
    $var wire  1 # io_pop_ready $end
    $var wire  1 A io_pop_valid $end
    $var wire 32 e io_push_payload [31:0] $end
    $var wire  1 @ io_push_ready $end
    $var wire  1 c io_push_valid $end
    $var wire  1 L logic_empty $end
    $var wire  1 M logic_full $end
    $var wire  8 ^ logic_popPtr_value [7:0] $end
    $var wire  8 6 logic_popPtr_valueNext [7:0] $end
    $var wire  1 ", logic_popPtr_willClear $end
    $var wire  1 5 logic_popPtr_willIncrement $end
    $var wire  1 ? logic_popPtr_willOverflow $end
    $var wire  1 _ logic_popPtr_willOverflowIfInc $end
    $var wire  1 8 logic_popping $end
    $var wire  8 a logic_ptrDif [7:0] $end
    $var wire  1 K logic_ptrMatch $end
    $var wire  8 \ logic_pushPtr_value [7:0] $end
    $var wire  8 4 logic_pushPtr_valueNext [7:0] $end
    $var wire  1 ", logic_pushPtr_willClear $end
    $var wire  1 3 logic_pushPtr_willIncrement $end
    $var wire  1 > logic_pushPtr_willOverflow $end
    $var wire  1 ] logic_pushPtr_willOverflowIfInc $end
    $var wire  1 7 logic_pushing $end
    $var wire  1 ` logic_risingOccupancy $end
    $var wire  1 9 when_Stream_l933 $end
   $upscope $end
  $upscope $end
 $upscope $end
$enddefinitions $end


#0
0#
0$
b10111101111000100111011111000101 %
0&
0'
b10000000010101100000010011011110 (
0)
0*
0+
0,
b00000000 -
0.
b00000000 /
00
01
02
03
b00000000 4
05
b00000000 6
07
08
09
0:
0;
0<
0=
0>
0?
1@
0A
b000000000 B
b100000000 C
1D
0E
b000000000 F
b100000000 G
1H
1I
0J
1K
1L
0M
1N
b10000000010101100000010011011110 O
b10111101111000100111011111000101 P
0Q
0R
0S
1T
0U
b00000000 V
0W
b00000000 X
0Y
0Z
b00000000 [
b00000000 \
0]
b00000000 ^
0_
0`
b00000000 a
0b
0c
1d
b00000000000000000000000000100000 e
0f
0g
b11010001101001011101111001110110 h
b0000 i
b01101000 j
b010 k
b01 l
b0000 m
b0000 n
b000 o
0p
0q
b10111101111000100111011111000101 r
b1111 s
0t
0u
0v
b00 w
0x
1y
b01101001 z
b11010001101001011101111001110110 {
1|
0}
b01101000 ~
0"!
1""
0"#
0"$
0"%
b0000 "&
b010 "'
b01 "(
b000 ")
b1111 "*
b00100010101100110001110010111110 "+
0",
#160
1x
#170
b01010010101011011110010011101110 %
b11000010101010100001011001001100 (
0N
b11000010101010100001011001001100 O
b01010010101011011110010011101110 P
0T
1U
b00000000000000000000000011101010 e
1g
b00000000000000000000000000000000 h
b01111111 j
1q
b01010010101011011110010011101110 r
b10000000 z
b00000000000000000000000000000000 {
0|
1}
b01111111 ~
0""
#175
0}
#180
13
b00000001 4
17
19
1c
b00000000000000000000000001011110 e
0g
0q
0y
1}
#185
0}
#190
1#
1*
1+
b00000010 4
b000000001 B
b011111111 C
0K
0L
b00000001 \
1`
b00000001 a
1b
b00000000000000000000000010101001 e
1y
1}
1"#
#195
0}
#200
1'
b00000000000000000000000001011110 (
1)
1,
b00000001 -
10
12
03
15
b00000001 6
07
18
1;
1A
b000000010 B
b011111110 C
b00000000000000000000000001011110 O
1R
0U
b00000010 \
b00000010 a
0c
b00000000000000000000000010101000 e
1f
1g
1q
0y
1}
1"$
#205
0}
#210
b00000000000000000000000010101001 (
b00000010 -
13
b00000011 4
b00000010 6
17
09
b000000001 B
b011111111 C
b000000001 F
b011111111 G
0H
0I
b00000000000000000000000010101001 O
0R
b00000001 V
1Z
b00000001 [
b00000001 ^
0`
b00000001 a
1c
b00000000000000000000000000001100 e
0f
1y
1}
0"$
#215
0}
#220
1$
b00000000000000000000000001011110 %
0'
b01101011110010101000101110111001 (
0)
0,
00
02
03
05
07
08
0;
0A
1E
b000000010 F
b011111110 G
b01101011110010101000101110111001 O
b00000000000000000000000001011110 P
b00000010 V
b00000010 [
b00000011 \
b00000010 ^
0c
b00000000000000000000000000000001 e
0g
1p
0q
b00000000000000000000000001011110 r
0y
1}
#225
0}
#230
1'
b00000000000000000000000000001100 (
1,
b00000011 -
10
12
13
b00000100 4
15
b00000011 6
17
18
1;
1A
b00000000000000000000000000001100 O
1S
1c
b00000000000000000000000001100101 e
1v
1}
#235
0}
#240
0'
b00010110001101000000100001010110 (
0,
00
02
03
05
07
08
0;
0A
b000000011 F
b011111101 G
b00010110001101000000100001010110 O
b00000011 V
b00000011 [
b00000100 \
b00000011 ^
0c
b00000000000000000000000000100000 e
1y
1}
#245
0}
#250
1'
b00000000000000000000000001100101 (
1,
b00000100 -
10
12
15
b00000100 6
18
19
1;
1A
b00000000000000000000000001100101 O
b00000000000000000000000000111000 e
0y
1}
#255
0}
#260
0'
b11100101001010100011100000110100 (
0,
00
02
05
08
09
0;
0A
b000000000 B
b100000000 C
b000000100 F
b011111100 G
1K
1L
b11100101001010100011100000110100 O
b00000100 V
b00000100 [
b00000100 ^
b00000000 a
b00000000000000000000000000111010 e
1}
#265
0}
#270
13
b00000101 4
17
19
1c
b00000000000000000000000011001010 e
1y
1}
#275
0}
#280
1)
1.
b00000001 /
11
12
b00000110 4
b000000001 B
b011111111 C
0K
0L
b00000101 \
1`
b00000001 a
b00000000000000000000000001111000 e
1g
1q
0y
1}
1"%
#285
0}
#290
b00000000000000000000000010101001 %
1'
b00000000000000000000000011001010 (
1,
b00000101 -
b00000010 /
10
02
03
15
b00000101 6
07
18
1;
1A
b000000010 B
b011111110 C
b000000011 F
b011111101 G
b00000000000000000000000011001010 O
b00000000000000000000000010101001 P
b00000001 X
0Z
b00000011 [
b00000110 \
b00000010 a
0c
b00000000000000000000000011000011 e
b00000000000000000000000010101001 r
1y
1}
#295
0}
#300
b00000000000000000000000000001100 %
b00000000000000000000000001111000 (
b00000110 -
b00000011 /
13
b00000111 4
b00000110 6
17
09
b000000001 B
b011111111 C
b00000000000000000000000001111000 O
b00000000000000000000000000001100 P
b00000101 V
b00000010 X
b00000101 ^
0`
b00000001 a
1c
b00000000000000000000000011110111 e
b00000000000000000000000000001100 r
1}
#305
0}
#310
b00000000000000000000000001100101 %
0'
b10111010010110100110111000000001 (
0,
b00000100 /
00
12
b00001000 4
05
08
19
0;
0A
b10111010010110100110111000000001 O
b00000000000000000000000001100101 P
b00000110 V
b00000011 X
b00000111 \
b00000110 ^
b00000000000000000000000011111110 e
b00000000000000000000000001100101 r
0y
1}
#315
0}
#320
b00000000000000000000000011001010 %
1'
b00000000000000000000000011110111 (
1,
b00000111 -
b00000101 /
10
02
03
15
b00000111 6
07
18
1;
1A
b000000010 B
b011111110 C
b000000010 F
b011111110 G
b00000000000000000000000011110111 O
b00000000000000000000000011001010 P
b00000100 X
b00000010 [
b00001000 \
1`
b00000010 a
0c
b00000000000000000000000000011111 e
b00000000000000000000000011001010 r
1}
#325
0}
#330
b00000000000000000000000001111000 %
b00000000000000000000000011111110 (
0)
b00001000 -
0.
01
12
13
b00001001 4
b00001000 6
17
09
b000000001 B
b011111111 C
b00000000000000000000000011111110 O
b00000000000000000000000001111000 P
b00000111 V
b00000101 X
b00000111 ^
0`
b00000001 a
1c
b00000000000000000000000001110101 e
0g
0q
b00000000000000000000000001111000 r
1y
1}
0"%
#335
0}
#340
0'
b01100000111000110011101100011010 (
1)
0,
1.
b00000110 /
00
11
b00001010 4
05
08
19
0;
0A
b000000011 F
b011111101 G
b01100000111000110011101100011010 O
b00001000 V
1Z
b00000011 [
b00001001 \
b00001000 ^
b00000000000000000000000001010100 e
1g
1q
1}
1"%
#345
0}
#350
b00000000000000000000000011110111 %
1'
b00000000000000000000000001110101 (
1,
b00001001 -
b00000111 /
10
02
b00001011 4
15
b00001001 6
18
09
1;
1A
b000000010 B
b011111110 C
b000000010 F
b011111110 G
b00000000000000000000000001110101 O
b00000000000000000000000011110111 P
b00000110 X
0Z
b00000010 [
b00001010 \
1`
b00000010 a
b00000000000000000000000000010100 e
b00000000000000000000000011110111 r
0y
1}
#355
0}
#360
b00000000000000000000000011111110 %
b00000000000000000000000001010100 (
0)
b00001010 -
0.
01
12
03
b00001010 6
07
19
b00000000000000000000000001010100 O
b00000000000000000000000011111110 P
b00001001 V
b00000111 X
b00001011 \
b00001001 ^
0c
b00000000000000000000000011111011 e
0g
0q
b00000000000000000000000011111110 r
1}
0"%
#365
0}
#370
b00000000000000000000000000010100 (
b00001011 -
13
b00001100 4
b00001011 6
17
09
b000000001 B
b011111111 C
b000000011 F
b011111101 G
b00000000000000000000000000010100 O
b00001010 V
1Z
b00000011 [
b00001010 ^
0`
b00000001 a
1c
b00000000000000000000000001101101 e
1}
#375
0}
#380
0'
b00111011000010001001011010000010 (
1)
0,
1.
b00001000 /
00
11
03
05
07
08
0;
0A
b000000100 F
b011111100 G
b00111011000010001001011010000010 O
b00001011 V
b00000100 [
b00001100 \
b00001011 ^
0c
b00000000000000000000000001001000 e
1g
1q
1y
1}
1"%
#385
0}
#390
b00000000000000000000000001110101 %
1'
b00000000000000000000000001101101 (
1,
b00001100 -
b00001001 /
10
02
15
b00001100 6
18
19
1;
1A
b000000011 F
b011111101 G
b00000000000000000000000001101101 O
b00000000000000000000000001110101 P
b00001000 X
0Z
b00000011 [
b00000000000000000000000010000010 e
b00000000000000000000000001110101 r
0y
1}
#395
0}
#400
b00000000000000000000000001010100 %
0'
b11011100101010011100000010000111 (
0)
0,
0.
00
01
13
b00001101 4
05
17
08
0;
0A
b000000000 B
b100000000 C
1K
1L
b11011100101010011100000010000111 O
b00000000000000000000000001010100 P
b00001100 V
b00001001 X
b00001100 ^
b00000000 a
1c
b00000000000000000000000010010101 e
0g
0q
b00000000000000000000000001010100 r
1y
1}
0"%
#405
0}
#410
1)
1.
b00001010 /
11
12
03
07
09
b000000001 B
b011111111 C
0K
0L
b00001101 \
1`
b00000001 a
0c
b00000000000000000000000001010000 e
1g
1q
0y
1}
1"%
#415
0}
#420
b00000000000000000000000000010100 %
1'
b00000000000000000000000010010101 (
1,
b00001101 -
b00001011 /
10
02
15
b00001101 6
18
19
1;
1A
b000000010 F
b011111110 G
b00000000000000000000000010010101 O
b00000000000000000000000000010100 P
b00001010 X
b00000010 [
b00000000000000000000000011011000 e
b00000000000000000000000000010100 r
1y
1}
#425
0}
#430
b00000000000000000000000001101101 %
0'
b01011110010100111100001010111001 (
0)
0,
0.
00
01
13
b00001110 4
05
17
08
0;
0A
b000000000 B
b100000000 C
1K
1L
b01011110010100111100001010111001 O
b00000000000000000000000001101101 P
b00001101 V
b00001011 X
b00001101 ^
0`
b00000000 a
1c
b00000000000000000000000000111000 e
0g
0q
b00000000000000000000000001101101 r
0y
1}
0"%
#435
0}
#440
1)
1.
b00001100 /
11
12
b00001111 4
b000000001 B
b011111111 C
0K
0L
b00001110 \
1`
b00000001 a
b00000000000000000000000001001011 e
1g
1q
1}
1"%
#445
0}
#450
b00000000000000000000000010010101 %
1'
b00000000000000000000000000111000 (
1,
b00001110 -
b00001101 /
10
02
03
15
b00001110 6
07
18
1;
1A
b000000010 B
b011111110 C
b000000001 F
b011111111 G
b00000000000000000000000000111000 O
b00000000000000000000000010010101 P
b00001100 X
b00000001 [
b00001111 \
b00000010 a
0c
b00000000000000000000000001011010 e
b00000000000000000000000010010101 r
1}
#455
0}
#460
0$
b00011101010000010111110100011101 %
b00000000000000000000000001001011 (
b00001111 -
0.
01
12
b00001111 6
b000000001 B
b011111111 C
0E
b00000000000000000000000001001011 O
b00011101010000010111110100011101 P
b00001110 V
b00001101 X
b00001110 ^
0`
b00000001 a
b00000000000000000000000010100111 e
0p
b00011101010000010111110100011101 r
1}
0"%
#465
0}
#470
1$
b00000000000000000000000000111000 %
0'
b00101001110000010101101000001110 (
0)
0,
00
02
13
b00010000 4
05
17
08
0;
0A
b000000000 B
b100000000 C
1E
b000000010 F
b011111110 G
1K
1L
b00101001110000010101101000001110 O
b00000000000000000000000000111000 P
b00001111 V
1Z
b00000010 [
b00001111 ^
b00000000 a
1c
b00000000000000000000000010001111 e
0g
1p
0q
b00000000000000000000000000111000 r
1y
1}
#475
0}
#480
1)
1.
b00001110 /
11
12
03
07
09
b000000001 B
b011111111 C
0K
0L
b00010000 \
1`
b00000001 a
0c
b00000000000000000000000011111111 e
1g
1q
0y
1}
1"%
#485
0}
#490
b00000000000000000000000001001011 %
1'
b00000000000000000000000010001111 (
1,
b00010000 -
b00001111 /
10
02
13
b00010001 4
15
b00010000 6
17
18
1;
1A
b000000001 F
b011111111 G
b00000000000000000000000010001111 O
b00000000000000000000000001001011 P
b00001110 X
0Z
b00000001 [
1c
b00000000000000000000000000000100 e
b00000000000000000000000001001011 r
1}
#495
0}
#500
0$
b10110000110010100111111000111000 %
0'
b10110011110010000011110010000100 (
0,
0.
00
01
b00010010 4
05
08
19
0;
0A
0E
b10110011110010000011110010000100 O
b10110000110010100111111000111000 P
b00010000 V
b00001111 X
b00010001 \
b00010000 ^
b00000000000000000000000011110011 e
0p
b10110000110010100111111000111000 r
1y
1}
0"%
#505
0}
#510
1$
b00000000000000000000000010001111 %
1'
b00000000000000000000000000000100 (
0)
1,
b00010001 -
10
12
b00010011 4
15
b00010001 6
18
09
1;
1A
b000000010 B
b011111110 C
1E
b00000000000000000000000000000100 O
b00000000000000000000000010001111 P
b00010010 \
b00000010 a
b00000000000000000000000001101101 e
0g
1p
0q
b00000000000000000000000010001111 r
0y
1}
#515
0}
#520
b00000000000000000000000011110011 (
1)
b00010010 -
1.
b00010000 /
11
02
03
b00010010 6
07
19
b000000010 F
b011111110 G
b00000000000000000000000011110011 O
b00010001 V
1Z
b00000010 [
b00010011 \
b00010001 ^
0c
b00000000000000000000000011110111 e
1g
1q
1y
1}
1"%
#525
0}
#530
b00000000000000000000000000000100 %
b00000000000000000000000001101101 (
0)
b00010011 -
0.
01
12
13
b00010100 4
b00010011 6
17
09
b000000001 B
b011111111 C
b00000000000000000000000001101101 O
b00000000000000000000000000000100 P
b00010010 V
b00010000 X
b00010010 ^
0`
b00000001 a
1c
b00000000000000000000000001001101 e
0g
0q
b00000000000000000000000000000100 r
0y
1}
0"%
#535
0}
#540
0'
b00110110111010011010111010110111 (
1)
0,
1.
b00010001 /
00
11
b00010101 4
05
08
19
0;
0A
b000000011 F
b011111101 G
b00110110111010011010111010110111 O
b00010011 V
b00000011 [
b00010100 \
b00010011 ^
b00000000000000000000000001010100 e
1g
1q
1y
1}
1"%
#545
0}
#550
b00000000000000000000000011110011 %
1'
b00000000000000000000000001001101 (
1,
b00010100 -
b00010010 /
10
02
b00010110 4
15
b00010100 6
18
09
1;
1A
b000000010 B
b011111110 C
b000000010 F
b011111110 G
b00000000000000000000000001001101 O
b00000000000000000000000011110011 P
b00010001 X
0Z
b00000010 [
b00010101 \
1`
b00000010 a
b00000000000000000000000001000011 e
b00000000000000000000000011110011 r
1}
#555
0}
#560
b00000000000000000000000001101101 %
b00000000000000000000000001010100 (
b00010101 -
b00010011 /
03
b00010101 6
07
19
b00000000000000000000000001010100 O
b00000000000000000000000001101101 P
b00010100 V
b00010010 X
b00010110 \
b00010100 ^
0c
b00000000000000000000000011101000 e
b00000000000000000000000001101101 r
0y
1}
#565
0}
#570
b00000000000000000000000001001101 %
b00000000000000000000000001000011 (
0)
b00010110 -
0.
01
12
13
b00010111 4
b00010110 6
17
09
b000000001 B
b011111111 C
b00000000000000000000000001000011 O
b00000000000000000000000001001101 P
b00010101 V
b00010011 X
b00010101 ^
0`
b00000001 a
1c
b00000000000000000000000011101011 e
0g
0q
b00000000000000000000000001001101 r
1}
0"%
#575
0}
#580
0'
b00010100001101000000011111010110 (
1)
0,
1.
b00010100 /
00
11
03
05
07
08
0;
0A
b000000011 F
b011111101 G
b00010100001101000000011111010110 O
b00010110 V
1Z
b00000011 [
b00010111 \
b00010110 ^
0c
b00000000000000000000000011011110 e
1g
1q
1}
1"%
#585
0}
#590
b00000000000000000000000001010100 %
1'
b00000000000000000000000011101011 (
0)
1,
b00010111 -
0.
10
01
15
b00010111 6
18
19
1;
1A
b000000010 F
b011111110 G
b00000000000000000000000011101011 O
b00000000000000000000000001010100 P
b00010100 X
0Z
b00000010 [
b00000000000000000000000011010100 e
0g
0q
b00000000000000000000000001010100 r
1y
1}
0"%
#595
0}
#600
0'
b00011000111100011001000101100011 (
0,
00
02
05
08
09
0;
0A
b000000000 B
b100000000 C
b000000011 F
b011111101 G
1K
1L
b00011000111100011001000101100011 O
b00010111 V
1Z
b00000011 [
b00010111 ^
b00000000 a
b00000000000000000000000001010111 e
0y
1}
#605
0}
#610
13
b00011000 4
17
19
1c
b00000000000000000000000011100110 e
1y
1}
#615
0}
#620
b00011001 4
b000000001 B
b011111111 C
0K
0L
b00011000 \
1`
b00000001 a
b00000000000000000000000001100101 e
0y
1}
#625
0}
#630
1'
b00000000000000000000000011100110 (
1,
b00011000 -
10
12
b00011010 4
15
b00011000 6
18
09
1;
1A
b000000010 B
b011111110 C
b00000000000000000000000011100110 O
b00011001 \
b00000010 a
b00000000000000000000000011010101 e
1y
1}
#635
0}
#640
b00000000000000000000000001100101 (
1)
b00011001 -
1.
b00010101 /
11
02
03
b00011001 6
07
19
b000000100 F
b011111100 G
b00000000000000000000000001100101 O
b00011000 V
b00000100 [
b00011010 \
b00011000 ^
0c
1g
1q
1}
1"%
#645
0}
#650
b00000000000000000000000001000011 %
b00000000000000000000000011010101 (
0)
b00011010 -
0.
01
12
b00011010 6
b000000001 B
b011111111 C
b00000000000000000000000011010101 O
b00000000000000000000000001000011 P
b00011001 V
b00010101 X
b00011001 ^
0`
b00000001 a
b00000000000000000000000001100101 e
0g
0q
b00000000000000000000000001000011 r
0y
1}
0"%
#655
0}
#660
0'
b10100101100111010000101011011111 (
0,
00
02
13
b00011011 4
05
17
08
0;
0A
b000000000 B
b100000000 C
b000000101 F
b011111011 G
1K
1L
b10100101100111010000101011011111 O
b00011010 V
b00000101 [
b00011010 ^
b00000000 a
1c
b00000000000000000000000000010001 e
1}
#665
0}
#670
1)
1.
b00010110 /
11
12
b00011100 4
b000000001 B
b011111111 C
0K
0L
b00011011 \
1`
b00000001 a
b00000000000000000000000011100100 e
1g
1q
1y
1}
1"%
#675
0}
#680
b00000000000000000000000011101011 %
1'
b00000000000000000000000000010001 (
0)
1,
b00011011 -
0.
10
01
03
15
b00011011 6
07
18
1;
1A
b000000010 B
b011111110 C
b000000100 F
b011111100 G
b00000000000000000000000000010001 O
b00000000000000000000000011101011 P
b00010110 X
0Z
b00000100 [
b00011100 \
b00000010 a
0c
b00000000000000000000000010110011 e
0g
0q
b00000000000000000000000011101011 r
0y
1}
0"%
#685
0}
#690
b00000000000000000000000011100100 (
1)
b00011100 -
1.
b00010111 /
11
02
13
b00011101 4
b00011100 6
17
09
b000000001 B
b011111111 C
b000000101 F
b011111011 G
b00000000000000000000000011100100 O
b00011011 V
1Z
b00000101 [
b00011011 ^
0`
b00000001 a
1c
b00000000000000000000000010101101 e
1g
1q
1}
1"%
#695
0}
#700
b00000000000000000000000011100110 %
0'
b11010001101100110011100100101101 (
0,
b00011000 /
00
12
03
05
07
08
0;
0A
b11010001101100110011100100101101 O
b00000000000000000000000011100110 P
b00011100 V
b00010111 X
b00011101 \
b00011100 ^
0c
b00000000000000000000000010000010 e
b00000000000000000000000011100110 r
1y
1}
#705
0}
#710
b00000000000000000000000001100101 %
1'
b00000000000000000000000010101101 (
0)
1,
b00011101 -
0.
10
01
13
b00011110 4
15
b00011101 6
17
18
1;
1A
b000000100 F
b011111100 G
b00000000000000000000000010101101 O
b00000000000000000000000001100101 P
b00011000 X
0Z
b00000100 [
1c
b00000000000000000000000001101000 e
0g
0q
b00000000000000000000000001100101 r
1}
0"%
#715
0}
#720
0'
b01001100111110000111000110111010 (
0,
00
02
b00011111 4
05
08
19
0;
0A
b000000101 F
b011111011 G
b01001100111110000111000110111010 O
b00011101 V
1Z
b00000101 [
b00011110 \
b00011101 ^
b00000000000000000000000001000001 e
0y
1}
#725
0}
#730
1'
b00000000000000000000000001101000 (
1,
b00011110 -
10
12
03
15
b00011110 6
07
18
1;
1A
b000000010 B
b011111110 C
b00000000000000000000000001101000 O
b00011111 \
1`
b00000010 a
0c
b00000000000000000000000010100000 e
1}
#735
0}
#740
b00000000000000000000000001000001 (
1)
b00011111 -
1.
b00011001 /
11
02
13
b00100000 4
b00011111 6
17
09
b000000001 B
b011111111 C
b000000110 F
b011111010 G
b00000000000000000000000001000001 O
b00011110 V
b00000110 [
b00011110 ^
0`
b00000001 a
1c
b00000000000000000000000000100100 e
1g
1q
1}
1"%
#745
0}
#750
b00000000000000000000000011010101 %
0'
b01100001010001010110101101100010 (
0,
b00011010 /
00
12
03
05
07
08
0;
0A
b01100001010001010110101101100010 O
b00000000000000000000000011010101 P
b00011111 V
b00011001 X
b00100000 \
b00011111 ^
0c
b00000000000000000000000001001010 e
b00000000000000000000000011010101 r
1y
1}
#755
0}
#760
b00000000000000000000000000010001 %
1'
b00000000000000000000000000100100 (
0)
1,
b00100000 -
0.
10
01
13
b00100001 4
15
b00100000 6
17
18
1;
1A
b000000101 F
b011111011 G
b00000000000000000000000000100100 O
b00000000000000000000000000010001 P
b00011010 X
0Z
b00000101 [
1c
b00000000000000000000000010101111 e
0g
0q
b00000000000000000000000000010001 r
0y
1}
0"%
#765
0}
