simWorkspace/Stream2Axi4WriteOnlyMasterInterfaceAddFifo/test.vcd
$version Generated by VerilatedVcd $end
$date Thu Dec 30 17:09:41 2021
 $end
$timescale   1ns $end

 $scope module TOP $end
  $var wire  1 "! aclk $end
  $var wire  1 z aresetn $end
  $var wire  8 | burstLen [7:0] $end
  $var wire 32 j m_axi_awaddr [31:0] $end
  $var wire  2 n m_axi_awburst [1:0] $end
  $var wire  4 o m_axi_awcache [3:0] $end
  $var wire  8 l m_axi_awlen [7:0] $end
  $var wire  3 q m_axi_awprot [2:0] $end
  $var wire  4 p m_axi_awqos [3:0] $end
  $var wire  1 i m_axi_awready $end
  $var wire  4 k m_axi_awregion [3:0] $end
  $var wire  3 m m_axi_awsize [2:0] $end
  $var wire  1 h m_axi_awvalid $end
  $var wire  1 x m_axi_bready $end
  $var wire  2 y m_axi_bresp [1:0] $end
  $var wire  1 w m_axi_bvalid $end
  $var wire 32 t m_axi_wdata [31:0] $end
  $var wire  1 v m_axi_wlast $end
  $var wire  1 s m_axi_wready $end
  $var wire  4 u m_axi_wstrb [3:0] $end
  $var wire  1 r m_axi_wvalid $end
  $var wire 32 } offset [31:0] $end
  $var wire 32 g s_axis_payload [31:0] $end
  $var wire  1 f s_axis_ready $end
  $var wire  1 e s_axis_valid $end
  $var wire  1 { start $end
  $var wire  1 ~ transInterrupt $end
  $scope module Stream2Axi4WriteOnlyMasterInterfaceAddFifo $end
   $var wire  1 "! aclk $end
   $var wire  1 z aresetn $end
   $var wire 32 S axi4Interconnection_m_axi_awaddr [31:0] $end
   $var wire  2 "( axi4Interconnection_m_axi_awburst [1:0] $end
   $var wire  4 "& axi4Interconnection_m_axi_awcache [3:0] $end
   $var wire  8 T axi4Interconnection_m_axi_awlen [7:0] $end
   $var wire  3 ") axi4Interconnection_m_axi_awprot [2:0] $end
   $var wire  4 "& axi4Interconnection_m_axi_awqos [3:0] $end
   $var wire  4 "& axi4Interconnection_m_axi_awregion [3:0] $end
   $var wire  3 "' axi4Interconnection_m_axi_awsize [2:0] $end
   $var wire  1 R axi4Interconnection_m_axi_awvalid $end
   $var wire  1 U axi4Interconnection_m_axi_bready $end
   $var wire 32 C axi4Interconnection_m_axi_wdata [31:0] $end
   $var wire  1 $ axi4Interconnection_m_axi_wlast $end
   $var wire  4 "* axi4Interconnection_m_axi_wstrb [3:0] $end
   $var wire  1 B axi4Interconnection_m_axi_wvalid $end
   $var wire  1 A axi4Interconnection_s_axis_ready $end
   $var wire  1 N axi4Interconnection_transInterrupt $end
   $var wire  8 | burstLen [7:0] $end
   $var wire  9 ( fifoInstance_io_availability [8:0] $end
   $var wire  9 ' fifoInstance_io_occupancy [8:0] $end
   $var wire 32 O fifoInstance_io_pop_payload [31:0] $end
   $var wire  1 & fifoInstance_io_pop_valid $end
   $var wire  1 % fifoInstance_io_push_ready $end
   $var wire 32 j m_axi_awaddr [31:0] $end
   $var wire  2 n m_axi_awburst [1:0] $end
   $var wire  4 o m_axi_awcache [3:0] $end
   $var wire  8 l m_axi_awlen [7:0] $end
   $var wire  3 q m_axi_awprot [2:0] $end
   $var wire  4 p m_axi_awqos [3:0] $end
   $var wire  1 i m_axi_awready $end
   $var wire  4 k m_axi_awregion [3:0] $end
   $var wire  3 m m_axi_awsize [2:0] $end
   $var wire  1 h m_axi_awvalid $end
   $var wire  1 x m_axi_bready $end
   $var wire  2 y m_axi_bresp [1:0] $end
   $var wire  1 w m_axi_bvalid $end
   $var wire 32 t m_axi_wdata [31:0] $end
   $var wire  1 v m_axi_wlast $end
   $var wire  1 s m_axi_wready $end
   $var wire  4 u m_axi_wstrb [3:0] $end
   $var wire  1 r m_axi_wvalid $end
   $var wire 32 } offset [31:0] $end
   $var wire 32 g s_axis_payload [31:0] $end
   $var wire  1 f s_axis_ready $end
   $var wire  1 e s_axis_valid $end
   $var wire  1 { start $end
   $var wire  1 ~ transInterrupt $end
   $scope module axi4Interconnection $end
    $var wire  1 "! aclk $end
    $var wire  1 z aresetn $end
    $var wire  1 R axi4Interface_controlAwValidSignal $end
    $var wire  1 U axi4Interface_controlBReady $end
    $var wire  1 "$ axi4Interface_full_aw_fire $end
    $var wire  1 "" axi4Interface_full_b_fire $end
    $var wire  1 "" axi4Interface_full_b_fire_1 $end
    $var wire  1 "" axi4Interface_full_b_fire_2 $end
    $var wire  1 "" axi4Interface_full_b_fire_3 $end
    $var wire  1 "" axi4Interface_full_b_fire_4 $end
    $var wire  1 "% axi4Interface_full_w_fire $end
    $var wire  1 N axi4Interface_isBurstComplete $end
    $var wire  1 W axi4Interface_newBurst $end
    $var wire  1 # axi4Interface_resetStartSendSignal $end
    $var wire 32 "+ axi4Interface_transferDataType [31:0] $end
    $var wire  8 | burstLen [7:0] $end
    $var wire  8 V burstLengthReg [7:0] $end
    $var wire 32 S m_axi_awaddr [31:0] $end
    $var wire  2 "( m_axi_awburst [1:0] $end
    $var wire  4 "& m_axi_awcache [3:0] $end
    $var wire  8 T m_axi_awlen [7:0] $end
    $var wire  3 ") m_axi_awprot [2:0] $end
    $var wire  4 "& m_axi_awqos [3:0] $end
    $var wire  1 i m_axi_awready $end
    $var wire  4 "& m_axi_awregion [3:0] $end
    $var wire  3 "' m_axi_awsize [2:0] $end
    $var wire  1 R m_axi_awvalid $end
    $var wire  1 U m_axi_bready $end
    $var wire  2 y m_axi_bresp [1:0] $end
    $var wire  1 w m_axi_bvalid $end
    $var wire 32 C m_axi_wdata [31:0] $end
    $var wire  1 $ m_axi_wlast $end
    $var wire  1 Q m_axi_wlast_regNext $end
    $var wire  1 s m_axi_wready $end
    $var wire  4 "* m_axi_wstrb [3:0] $end
    $var wire  1 B m_axi_wvalid $end
    $var wire 32 } offset [31:0] $end
    $var wire 32 O s_axis_payload [31:0] $end
    $var wire  1 A s_axis_ready $end
    $var wire  1 & s_axis_valid $end
    $var wire  1 { start $end
    $var wire 32 S startOffsetReg [31:0] $end
    $var wire  1 d startSendSignal $end
    $var wire  9 , streamFifo_2_io_availability [8:0] $end
    $var wire  9 + streamFifo_2_io_occupancy [8:0] $end
    $var wire 32 P streamFifo_2_io_pop_payload [31:0] $end
    $var wire  1 8 streamFifo_2_io_pop_ready $end
    $var wire  1 * streamFifo_2_io_pop_valid $end
    $var wire  1 5 streamFifo_2_io_push_fire $end
    $var wire 32 E streamFifo_2_io_push_payload [31:0] $end
    $var wire  1 ) streamFifo_2_io_push_ready $end
    $var wire  1 D streamFifo_2_io_push_valid $end
    $var wire  1 N transInterrupt $end
    $var wire  1 "# when_Axi4WriteOnlyMaster_l123 $end
    $var wire  1 G when_Axi4WriteOnlyMaster_l160 $end
    $var wire  1 F when_Axi4WriteOnlyMaster_l97 $end
    $scope module streamFifo_2 $end
     $var wire  1 "! aclk $end
     $var wire  1 z aresetn $end
     $var wire  9 , io_availability [8:0] $end
     $var wire  1 ", io_flush $end
     $var wire  9 + io_occupancy [8:0] $end
     $var wire 32 P io_pop_payload [31:0] $end
     $var wire  1 8 io_pop_ready $end
     $var wire  1 * io_pop_valid $end
     $var wire 32 E io_push_payload [31:0] $end
     $var wire  1 ) io_push_ready $end
     $var wire  1 D io_push_valid $end
     $var wire  1 . logic_empty $end
     $var wire  1 / logic_full $end
     $var wire  8 Z logic_popPtr_value [7:0] $end
     $var wire  8 : logic_popPtr_valueNext [7:0] $end
     $var wire  1 ", logic_popPtr_willClear $end
     $var wire  1 9 logic_popPtr_willIncrement $end
     $var wire  1 3 logic_popPtr_willOverflow $end
     $var wire  1 [ logic_popPtr_willOverflowIfInc $end
     $var wire  1 ; logic_popping $end
     $var wire  8 ] logic_ptrDif [7:0] $end
     $var wire  1 - logic_ptrMatch $end
     $var wire  8 X logic_pushPtr_value [7:0] $end
     $var wire  8 I logic_pushPtr_valueNext [7:0] $end
     $var wire  1 ", logic_pushPtr_willClear $end
     $var wire  1 H logic_pushPtr_willIncrement $end
     $var wire  1 6 logic_pushPtr_willOverflow $end
     $var wire  1 Y logic_pushPtr_willOverflowIfInc $end
     $var wire  1 J logic_pushing $end
     $var wire  1 \ logic_risingOccupancy $end
     $var wire  1 ? when_Stream_l946 $end
    $upscope $end
   $upscope $end
   $scope module fifoInstance $end
    $var wire  1 "! aclk $end
    $var wire  1 z aresetn $end
    $var wire  9 ( io_availability [8:0] $end
    $var wire  1 ", io_flush $end
    $var wire  9 ' io_occupancy [8:0] $end
    $var wire 32 O io_pop_payload [31:0] $end
    $var wire  1 A io_pop_ready $end
    $var wire  1 & io_pop_valid $end
    $var wire 32 g io_push_payload [31:0] $end
    $var wire  1 % io_push_ready $end
    $var wire  1 e io_push_valid $end
    $var wire  1 1 logic_empty $end
    $var wire  1 2 logic_full $end
    $var wire  8 ` logic_popPtr_value [7:0] $end
    $var wire  8 L logic_popPtr_valueNext [7:0] $end
    $var wire  1 ", logic_popPtr_willClear $end
    $var wire  1 K logic_popPtr_willIncrement $end
    $var wire  1 7 logic_popPtr_willOverflow $end
    $var wire  1 a logic_popPtr_willOverflowIfInc $end
    $var wire  1 M logic_popping $end
    $var wire  8 c logic_ptrDif [7:0] $end
    $var wire  1 0 logic_ptrMatch $end
    $var wire  8 ^ logic_pushPtr_value [7:0] $end
    $var wire  8 = logic_pushPtr_valueNext [7:0] $end
    $var wire  1 ", logic_pushPtr_willClear $end
    $var wire  1 < logic_pushPtr_willIncrement $end
    $var wire  1 4 logic_pushPtr_willOverflow $end
    $var wire  1 _ logic_pushPtr_willOverflowIfInc $end
    $var wire  1 > logic_pushing $end
    $var wire  1 b logic_risingOccupancy $end
    $var wire  1 @ when_Stream_l946 $end
   $upscope $end
  $upscope $end
 $upscope $end
$enddefinitions $end


#0
1#
0$
1%
0&
b000000000 '
b100000000 (
1)
0*
b000000000 +
b100000000 ,
1-
1.
0/
10
11
02
03
04
05
06
07
08
09
b00000000 :
0;
0<
b00000000 =
0>
0?
0@
0A
0B
b01011011011001111110001000010000 C
0D
b10000100010110011011000111111001 E
0F
0G
0H
b00000000 I
0J
0K
b00000000 L
0M
0N
b10000100010110011011000111111001 O
b01011011011001111110001000010000 P
1Q
0R
b00000000000000000000000000000000 S
b11111110 T
0U
b11111111 V
1W
b00000000 X
0Y
b00000000 Z
0[
0\
b00000000 ]
b00000000 ^
0_
b00000000 `
0a
0b
b00000000 c
0d
0e
1f
b00000000000000000000000000100000 g
0h
0i
b00000000000000000000000000000000 j
b0000 k
b11111110 l
b010 m
b01 n
b0000 o
b0000 p
b000 q
0r
0s
b01011011011001111110001000010000 t
b1111 u
0v
0w
0x
b00 y
0z
0{
b10000000 |
b00000000000000000000000000000000 }
0~
0"!
0""
0"#
0"$
0"%
b0000 "&
b010 "'
b01 "(
b000 ")
b1111 "*
b01000111100100000100001001111001 "+
0",
#160
1z
#170
0#
b01001000010100001111101000001001 C
b00000111101110010000100100110111 E
b00000111101110010000100100110111 O
b01001000010100001111101000001001 P
0Q
b01111111 T
b10000000 V
b01111111 l
b01001000010100001111101000001001 t
1"!
#175
0"!
#180
1"!
#185
0"!
#190
1A
1F
1G
1d
1{
1"!
1"#
#195
18
1<
b00000001 =
1>
1@
1e
b00000000000000000000000000110011 g
1i
1s
0{
0"!
#200
b000000001 '
b011111111 (
00
01
b00000010 =
1R
b00000001 ^
1b
b00000001 c
b00000000000000000000000010101110 g
1h
1"!
1"$
#205
0"!
#210
1&
b000000010 '
b011111110 (
15
0<
0>
1?
1D
b00000000000000000000000000110011 E
1H
b00000001 I
1J
1K
b00000001 L
1M
b00000000000000000000000000110011 O
0R
0W
b00000010 ^
b00000010 c
0e
b00000000000000000000000010111110 g
0h
1"!
0"$
#215
0"!
#220
b000000001 '
b011111111 (
b000000001 +
b011111111 ,
0-
0.
b00000000000000000000000010101110 E
b00000010 I
b00000010 L
b00000000000000000000000010101110 O
b00000001 X
1\
b00000001 ]
b00000001 `
0b
b00000001 c
b00000000000000000000000011100111 g
1"!
#225
0"!
#230
0&
b000000000 '
b100000000 (
1*
b000000010 +
b011111110 ,
10
11
05
08
0?
0@
1B
b00000000000000000000000000110011 C
0D
b11000001010111111110001001010100 E
0H
0J
0K
0M
b11000001010111111110001001010100 O
b00000000000000000000000000110011 P
b00000010 X
b00000010 ]
b00000010 `
b00000000 c
b00000000000000000000000011010000 g
0i
1r
0s
b00000000000000000000000000110011 t
1"!
#235
0"!
#240
18
19
b00000001 :
1;
1<
b00000011 =
1>
1?
1@
1U
1e
b00000000000000000000000011000000 g
1i
1s
1x
1"!
1"%
#245
0"!
#250
b000000001 '
b011111111 (
b000000001 +
b011111111 ,
00
01
b00000010 :
b00000100 =
b00000000000000000000000010101110 C
b00000000000000000000000010101110 P
b00000001 Z
0\
b00000001 ]
b00000011 ^
1b
b00000001 c
b00000000000000000000000000101000 g
b00000000000000000000000010101110 t
1"!
#255
0"!
#260
1&
b000000010 '
b011111110 (
0*
b000000000 +
b100000000 ,
1-
1.
15
09
0;
0<
0>
0B
b00000100001100011011000011100110 C
1D
b00000000000000000000000011000000 E
1H
b00000011 I
1J
1K
b00000011 L
1M
b00000000000000000000000011000000 O
b00000100001100011011000011100110 P
b00000010 Z
b00000000 ]
b00000100 ^
b00000010 c
0e
b00000000000000000000000011000001 g
0r
b00000100001100011011000011100110 t
1"!
0"%
#265
0"!
#270
b000000001 '
b011111111 (
b000000001 +
b011111111 ,
0-
0.
08
1<
b00000101 =
1>
0@
b00000000000000000000000000101000 E
b00000100 I
b00000100 L
b00000000000000000000000000101000 O
b00000011 X
1\
b00000001 ]
b00000011 `
0b
b00000001 c
1e
b00000000000000000000000001101101 g
0i
0s
1"!
#275
0"!
#280
0&
1*
b000000010 +
b011111110 ,
05
18
19
b00000011 :
1;
b00000110 =
1@
1B
b00000000000000000000000011000000 C
0D
b11110010011110000111110101111111 E
0H
0J
0K
0M
b11110010011110000111110101111111 O
b00000000000000000000000011000000 P
b00000100 X
b00000010 ]
b00000101 ^
b00000100 `
b00000000000000000000000001000010 g
1i
1r
1s
b00000000000000000000000011000000 t
1"!
1"%
#285
0"!
#290
1&
b000000010 '
b011111110 (
b000000001 +
b011111111 ,
15
b00000100 :
0<
0>
0?
b00000000000000000000000000101000 C
1D
b00000000000000000000000001101101 E
1H
b00000101 I
1J
1K
b00000101 L
1M
b00000000000000000000000001101101 O
b00000000000000000000000000101000 P
b00000011 Z
0\
b00000001 ]
b00000110 ^
1b
b00000010 c
0e
b00000000000000000000000000101011 g
b00000000000000000000000000101000 t
1"!
#295
0"!
#300
b000000001 '
b011111111 (
0*
08
09
0;
1<
b00000111 =
1>
1?
0@
0B
b11000001001001111111111011111110 C
b00000000000000000000000001000010 E
b00000110 I
b00000110 L
b00000000000000000000000001000010 O
b11000001001001111111111011111110 P
b00000101 X
b00000100 Z
b00000101 `
0b
b00000001 c
1e
b00000000000000000000000001011000 g
0i
0r
0s
b11000001001001111111111011111110 t
1"!
0"%
#305
0"!
#310
0&
1*
b000000010 +
b011111110 ,
05
18
19
b00000101 :
1;
0<
0>
1B
b00000000000000000000000001101101 C
0D
b00000011001011011101110011111100 E
0H
0J
0K
0M
b00000011001011011101110011111100 O
b00000000000000000000000001101101 P
b00000110 X
1\
b00000010 ]
b00000111 ^
b00000110 `
0e
b00000000000000000000000010111101 g
1i
1r
1s
b00000000000000000000000001101101 t
1"!
1"%
#315
0"!
#320
1&
b000000001 +
b011111111 ,
15
08
09
0;
1@
b00000000000000000000000001000010 C
1D
b00000000000000000000000001011000 E
1H
b00000111 I
1J
1K
b00000111 L
1M
b00000000000000000000000001011000 O
b00000000000000000000000001000010 P
b00000101 Z
0\
b00000001 ]
b00000000000000000000000001111101 g
0i
0s
b00000000000000000000000001000010 t
1"!
0"%
#325
0"!
#330
0&
b000000000 '
b100000000 (
b000000010 +
b011111110 ,
10
11
05
18
19
b00000110 :
1;
0@
0D
b01010111000000111110010011001110 E
0H
0J
0K
0M
b01010111000000111110010011001110 O
b00000111 X
1\
b00000010 ]
b00000111 `
b00000000 c
b00000000000000000000000011010011 g
1i
1s
1"!
1"%
#335
0"!
#340
b000000001 +
b011111111 ,
b00000111 :
1<
b00001000 =
1>
1@
b00000000000000000000000001011000 C
b00000000000000000000000001011000 P
b00000110 Z
0\
b00000001 ]
1e
b00000000000000000000000001000100 g
b00000000000000000000000001011000 t
1"!
#345
0"!
#350
b000000001 '
b011111111 (
0*
b000000000 +
b100000000 ,
1-
1.
00
01
09
0;
b00001001 =
0?
0B
b01111010101101011010011110110011 C
b01111010101101011010011110110011 P
b00000111 Z
b00000000 ]
b00001000 ^
1b
b00000001 c
b00000000000000000000000001100110 g
0r
b01111010101101011010011110110011 t
1"!
0"%
#355
0"!
#360
1&
b000000010 '
b011111110 (
15
08
b00001010 =
1?
0@
1D
b00000000000000000000000001000100 E
1H
b00001000 I
1J
1K
b00001000 L
1M
b00000000000000000000000001000100 O
b00001001 ^
b00000010 c
b00000000000000000000000010101001 g
0i
0s
1"!
#365
0"!
#370
b000000001 +
b011111111 ,
0-
0.
0<
0>
1@
b00000000000000000000000001100110 E
b00001001 I
b00001001 L
b00000000000000000000000001100110 O
b00001000 X
1\
b00000001 ]
b00001010 ^
b00001000 `
0e
b00000000000000000000000011110001 g
1"!
#375
0"!
#380
b000000001 '
b011111111 (
1*
b000000010 +
b011111110 ,
1<
b00001011 =
1>
0@
1B
b00000000000000000000000001000100 C
b00000000000000000000000010101001 E
b00001010 I
b00001010 L
b00000000000000000000000010101001 O
b00000000000000000000000001000100 P
b00001001 X
b00000010 ]
b00001001 `
0b
b00000001 c
1e
b00000000000000000000000001110011 g
1r
b00000000000000000000000001000100 t
1"!
#385
0"!
#390
0&
b000000011 +
b011111101 ,
05
0<
0>
0?
0D
b00101100111001111010111110101001 E
0H
0J
0K
0M
b00101100111001111010111110101001 O
b00001010 X
b00000011 ]
b00001011 ^
b00001010 `
0e
b00000000000000000000000011101000 g
1"!
#395
0"!
#400
1&
15
1<
b00001100 =
1>
1?
1D
b00000000000000000000000001110011 E
1H
b00001011 I
1J
1K
b00001011 L
1M
b00000000000000000000000001110011 O
1e
b00000000000000000000000010100011 g
1"!
#405
0"!
#410
0&
b000000100 +
b011111100 ,
05
18
19
b00001000 :
1;
b00001101 =
1@
0D
b10100011111011110011010011010101 E
0H
0J
0K
0M
b10100011111011110011010011010101 O
b00001011 X
b00000100 ]
b00001100 ^
b00001011 `
b00000000000000000000000001101100 g
1i
1s
1"!
1"%
#415
0"!
#420
1&
b000000010 '
b011111110 (
b000000011 +
b011111101 ,
15
b00001001 :
b00001110 =
0?
0@
b00000000000000000000000001100110 C
1D
b00000000000000000000000010100011 E
1H
b00001100 I
1J
1K
b00001100 L
1M
b00000000000000000000000010100011 O
b00000000000000000000000001100110 P
b00001000 Z
0\
b00000011 ]
b00001101 ^
1b
b00000010 c
b00000000000000000000000011011111 g
b00000000000000000000000001100110 t
1"!
#425
0"!
#430
b00001010 :
b00001111 =
b00000000000000000000000010101001 C
b00000000000000000000000001101100 E
b00001101 I
b00001101 L
b00000000000000000000000001101100 O
b00000000000000000000000010101001 P
b00001100 X
b00001001 Z
b00001110 ^
b00001100 `
b00000000000000000000000001010010 g
b00000000000000000000000010101001 t
1"!
#435
0"!
#440
08
09
0;
b00010000 =
1?
b00000000000000000000000001110011 C
b00000000000000000000000011011111 E
b00001110 I
b00001110 L
b00000000000000000000000011011111 O
b00000000000000000000000001110011 P
b00001101 X
b00001010 Z
b00001111 ^
b00001101 `
b00000000000000000000000000010110 g
0i
0s
b00000000000000000000000001110011 t
1"!
0"%
#445
0"!
#450
b000000100 +
b011111100 ,
18
19
b00001011 :
1;
b00010001 =
0?
b00000000000000000000000001010010 E
b00001111 I
b00001111 L
b00000000000000000000000001010010 O
b00001110 X
1\
b00000100 ]
b00010000 ^
b00001110 `
b00000000000000000000000011010100 g
1i
1s
1"!
1"%
#455
0"!
#460
b00001100 :
0<
0>
1@
b00000000000000000000000010100011 C
b00000000000000000000000000010110 E
b00010000 I
b00010000 L
b00000000000000000000000000010110 O
b00000000000000000000000010100011 P
b00001111 X
b00001011 Z
b00010001 ^
b00001111 `
0e
b00000000000000000000000011010111 g
b00000000000000000000000010100011 t
1"!
#465
0"!
#470
b000000001 '
b011111111 (
08
09
0;
1<
b00010010 =
1>
1?
0@
b00000000000000000000000001101100 C
b00000000000000000000000011010100 E
b00010001 I
b00010001 L
b00000000000000000000000011010100 O
b00000000000000000000000001101100 P
b00010000 X
b00001100 Z
b00010000 `
0b
b00000001 c
1e
b00000000000000000000000010001110 g
0i
0s
b00000000000000000000000001101100 t
1"!
0"%
#475
0"!
#480
0&
b000000101 +
b011111011 ,
05
b00010011 =
0?
1@
0D
b10010100000000001110110000000110 E
0H
0J
0K
0M
b10010100000000001110110000000110 O
b00010001 X
b00000101 ]
b00010010 ^
b00010001 `
b00000000000000000000000001100111 g
1"!
#485
0"!
#490
1&
b000000010 '
b011111110 (
15
b00010100 =
1?
0@
1D
b00000000000000000000000010001110 E
1H
b00010010 I
1J
1K
b00010010 L
1M
b00000000000000000000000010001110 O
b00010011 ^
1b
b00000010 c
b00000000000000000000000010000101 g
1"!
#495
0"!
#500
b000000110 +
b011111010 ,
0<
0>
1@
b00000000000000000000000001100111 E
b00010011 I
b00010011 L
b00000000000000000000000001100111 O
b00010010 X
b00000110 ]
b00010100 ^
b00010010 `
0e
b00000000000000000000000001110101 g
1"!
#505
0"!
#510
b000000001 '
b011111111 (
b000000111 +
b011111001 ,
18
19
b00001101 :
1;
0?
b00000000000000000000000010000101 E
b00010100 I
b00010100 L
b00000000000000000000000010000101 O
b00010011 X
b00000111 ]
b00010011 `
0b
b00000001 c
b00000000000000000000000010101001 g
1i
1s
1"!
1"%
#515
0"!
#520
0&
b000000000 '
b100000000 (
10
11
05
b00001110 :
1?
0@
b00000000000000000000000011011111 C
0D
b10001100010101111100101010101011 E
0H
0J
0K
0M
b10001100010101111100101010101011 O
b00000000000000000000000011011111 P
b00010100 X
b00001101 Z
b00010100 `
b00000000 c
b00000000000000000000000001000101 g
b00000000000000000000000011011111 t
1"!
#525
0"!
#530
b000000110 +
b011111010 ,
b00001111 :
b00000000000000000000000001010010 C
b00000000000000000000000001010010 P
b00001110 Z
0\
b00000110 ]
b00000000000000000000000000010100 g
b00000000000000000000000001010010 t
1"!
#535
0"!
#540
b000000101 +
b011111011 ,
08
09
0;
0?
b00000000000000000000000000010110 C
b00000000000000000000000000010110 P
b00001111 Z
b00000101 ]
b00000000000000000000000011010101 g
0i
0s
b00000000000000000000000000010110 t
1"!
0"%
#545
0"!
#550
1<
b00010101 =
1>
1@
1e
b00000000000000000000000011101101 g
1"!
#555
0"!
#560
b000000001 '
b011111111 (
00
01
18
19
b00010000 :
1;
0<
0>
1?
0@
b00010101 ^
1b
b00000001 c
0e
b00000000000000000000000011100011 g
1i
1s
1"!
1"%
#565
0"!
#570
1&
b000000100 +
b011111100 ,
15
08
09
0;
1@
b00000000000000000000000011010100 C
1D
b00000000000000000000000011101101 E
1H
b00010101 I
1J
1K
b00010101 L
1M
b00000000000000000000000011101101 O
b00000000000000000000000011010100 P
b00010000 Z
b00000100 ]
b00000000000000000000000011100010 g
0i
0s
b00000000000000000000000011010100 t
1"!
0"%
#575
0"!
#580
0&
b000000000 '
b100000000 (
b000000101 +
b011111011 ,
10
11
05
18
19
b00010001 :
1;
1<
b00010110 =
1>
0D
b01110111010111011101001101110110 E
0H
0J
0K
0M
b01110111010111011101001101110110 O
b00010101 X
1\
b00000101 ]
b00010101 `
0b
b00000000 c
1e
b00000000000000000000000011001011 g
1i
1s
1"!
1"%
#585
0"!
#590
b000000001 '
b011111111 (
b000000100 +
b011111100 ,
00
01
b00010010 :
b00010111 =
b00000000000000000000000010001110 C
b00000000000000000000000010001110 P
b00010001 Z
0\
b00000100 ]
b00010110 ^
1b
b00000001 c
b00000000000000000000000010111101 g
b00000000000000000000000010001110 t
1"!
#595
0"!
#600
1&
b000000010 '
b011111110 (
b000000011 +
b011111101 ,
15
b00010011 :
b00011000 =
0?
0@
b00000000000000000000000001100111 C
1D
b00000000000000000000000011001011 E
1H
b00010110 I
1J
1K
b00010110 L
1M
b00000000000000000000000011001011 O
b00000000000000000000000001100111 P
b00010010 Z
b00000011 ]
b00010111 ^
b00000010 c
b00000000000000000000000010101011 g
b00000000000000000000000001100111 t
1"!
#605
0"!
#610
08
09
0;
0<
0>
1?
1@
b00000000000000000000000010000101 C
b00000000000000000000000010111101 E
b00010111 I
b00010111 L
b00000000000000000000000010111101 O
b00000000000000000000000010000101 P
b00010110 X
b00010011 Z
b00011000 ^
b00010110 `
0e
b00000000000000000000000000100001 g
0i
0s
b00000000000000000000000010000101 t
1"!
0"%
#615
0"!
#620
b000000001 '
b011111111 (
b000000100 +
b011111100 ,
1<
b00011001 =
1>
0@
b00000000000000000000000010101011 E
b00011000 I
b00011000 L
b00000000000000000000000010101011 O
b00010111 X
1\
b00000100 ]
b00010111 `
0b
b00000001 c
1e
b00000000000000000000000001001011 g
1"!
#625
0"!
#630
0&
b000000101 +
b011111011 ,
05
b00011010 =
0?
1@
0D
b00110111011111001001011110010011 E
0H
0J
0K
0M
b00110111011111001001011110010011 O
b00011000 X
b00000101 ]
b00011001 ^
b00011000 `
b00000000000000000000000001100110 g
1"!
#635
0"!
#640
1&
b000000010 '
b011111110 (
15
0<
0>
1?
1D
b00000000000000000000000001001011 E
1H
b00011001 I
1J
1K
b00011001 L
1M
b00000000000000000000000001001011 O
b00011010 ^
1b
b00000010 c
0e
b00000000000000000000000000011010 g
1"!
#645
0"!
#650
b000000001 '
b011111111 (
b000000110 +
b011111010 ,
18
19
b00010100 :
1;
1<
b00011011 =
1>
0?
0@
b00000000000000000000000001100110 E
b00011010 I
b00011010 L
b00000000000000000000000001100110 O
b00011001 X
b00000110 ]
b00011001 `
0b
b00000001 c
1e
b00000000000000000000000000110110 g
1i
1s
1"!
1"%
#655
0"!
#660
0&
05
b00010101 :
b00011100 =
1?
1@
b00000000000000000000000011101101 C
0D
b11001111001011110000011110111010 E
0H
0J
0K
0M
b11001111001011110000011110111010 O
b00000000000000000000000011101101 P
b00011010 X
b00010100 Z
b00011011 ^
b00011010 `
b00000000000000000000000010001111 g
b00000000000000000000000011101101 t
1"!
#665
0"!
#670
1&
b000000010 '
b011111110 (
b000000101 +
b011111011 ,
15
b00010110 :
b00011101 =
0?
0@
b00000000000000000000000011001011 C
1D
b00000000000000000000000000110110 E
1H
b00011011 I
1J
1K
b00011011 L
1M
b00000000000000000000000000110110 O
b00000000000000000000000011001011 P
b00010101 Z
0\
b00000101 ]
b00011100 ^
1b
b00000010 c
b00000000000000000000000010101100 g
b00000000000000000000000011001011 t
1"!
#675
0"!
#680
08
09
0;
0<
0>
1?
1@
b00000000000000000000000010111101 C
b00000000000000000000000010001111 E
b00011100 I
b00011100 L
b00000000000000000000000010001111 O
b00000000000000000000000010111101 P
b00011011 X
b00010110 Z
b00011101 ^
b00011011 `
0e
b00000000000000000000000000000001 g
0i
0s
b00000000000000000000000010111101 t
1"!
0"%
#685
0"!
#690
b000000001 '
b011111111 (
b000000110 +
b011111010 ,
18
19
b00010111 :
1;
1<
b00011110 =
1>
0?
0@
b00000000000000000000000010101100 E
b00011101 I
b00011101 L
b00000000000000000000000010101100 O
b00011100 X
1\
b00000110 ]
b00011100 `
0b
b00000001 c
1e
b00000000000000000000000000001010 g
1i
1s
1"!
1"%
#695
0"!
#700
0&
05
08
09
0;
b00011111 =
1@
b00000000000000000000000010101011 C
0D
b11111000100111010011111110111101 E
0H
0J
0K
0M
b11111000100111010011111110111101 O
b00000000000000000000000010101011 P
b00011101 X
b00010111 Z
b00011110 ^
b00011101 `
b00000000000000000000000000110111 g
0i
0s
b00000000000000000000000010101011 t
1"!
0"%
#705
0"!
#710
1&
b000000010 '
b011111110 (
15
0<
0>
1?
1D
b00000000000000000000000000001010 E
1H
b00011110 I
1J
1K
b00011110 L
1M
b00000000000000000000000000001010 O
b00011111 ^
1b
b00000010 c
0e
b00000000000000000000000011011010 g
1"!
#715
0"!
#720
b000000001 '
b011111111 (
b000000111 +
b011111001 ,
18
19
b00011000 :
1;
1<
b00100000 =
1>
0?
0@
b00000000000000000000000000110111 E
b00011111 I
b00011111 L
b00000000000000000000000000110111 O
b00011110 X
b00000111 ]
b00011110 `
0b
b00000001 c
1e
b00000000000000000000000001001100 g
1i
1s
1"!
1"%
#725
0"!
#730
0&
05
08
09
0;
b00100001 =
1@
b00000000000000000000000001001011 C
0D
b01100101001000100011011010010101 E
0H
0J
0K
0M
b01100101001000100011011010010101 O
b00000000000000000000000001001011 P
b00011111 X
b00011000 Z
b00100000 ^
b00011111 `
b00000000000000000000000010001111 g
0i
0s
b00000000000000000000000001001011 t
1"!
0"%
#735
0"!
#740
1&
b000000010 '
b011111110 (
15
18
19
b00011001 :
1;
b00100010 =
0@
1D
b00000000000000000000000001001100 E
1H
b00100000 I
1J
1K
b00100000 L
1M
b00000000000000000000000001001100 O
b00100001 ^
1b
b00000010 c
b00000000000000000000000001001000 g
1i
1s
1"!
1"%
#745
0"!
#750
b00011010 :
b00100011 =
b00000000000000000000000001100110 C
b00000000000000000000000010001111 E
b00100001 I
b00100001 L
b00000000000000000000000010001111 O
b00000000000000000000000001100110 P
b00100000 X
b00011001 Z
b00100010 ^
b00100000 `
b00000000000000000000000010110011 g
b00000000000000000000000001100110 t
1"!
#755
0"!
#760
08
09
0;
0<
0>
1?
1@
b00000000000000000000000000110110 C
b00000000000000000000000001001000 E
b00100010 I
b00100010 L
b00000000000000000000000001001000 O
b00000000000000000000000000110110 P
b00100001 X
b00011010 Z
b00100011 ^
b00100001 `
0e
b00000000000000000000000000111000 g
0i
0s
b00000000000000000000000000110110 t
1"!
0"%
#765
0"!
