simWorkspace/Stream2Axi4WriteOnlyMasterInterfaceAddFifo/test.vcd
$version Generated by VerilatedVcd $end
$date 2022年01月27日 星期四 19时29分50秒 $end
$timescale 1ps $end

 $scope module TOP $end
  $var wire  1 #! aclk $end
  $var wire  1 z aresetn $end
  $var wire  8 | burstLen [7:0] $end
  $var wire 32 j m_axi_awaddr [31:0] $end
  $var wire  2 n m_axi_awburst [1:0] $end
  $var wire  4 o m_axi_awcache [3:0] $end
  $var wire  8 l m_axi_awlen [7:0] $end
  $var wire  3 q m_axi_awprot [2:0] $end
  $var wire  4 p m_axi_awqos [3:0] $end
  $var wire  1 i m_axi_awready $end
  $var wire  4 k m_axi_awregion [3:0] $end
  $var wire  3 m m_axi_awsize [2:0] $end
  $var wire  1 h m_axi_awvalid $end
  $var wire  1 x m_axi_bready $end
  $var wire  2 y m_axi_bresp [1:0] $end
  $var wire  1 w m_axi_bvalid $end
  $var wire 32 t m_axi_wdata [31:0] $end
  $var wire  1 v m_axi_wlast $end
  $var wire  1 s m_axi_wready $end
  $var wire  4 u m_axi_wstrb [3:0] $end
  $var wire  1 r m_axi_wvalid $end
  $var wire 32 ~ offset [31:0] $end
  $var wire  8 !! pathNumb [7:0] $end
  $var wire 32 g s_axis_payload [31:0] $end
  $var wire  1 f s_axis_ready $end
  $var wire  1 e s_axis_valid $end
  $var wire  1 { start $end
  $var wire 32 } startAddr [31:0] $end
  $var wire  1 "! transInterrupt $end
  $scope module Stream2Axi4WriteOnlyMasterInterfaceAddFifo $end
   $var wire  1 #! aclk $end
   $var wire  1 z aresetn $end
   $var wire 32 * axi4Interconnection_m_axi_awaddr [31:0] $end
   $var wire  2 3! axi4Interconnection_m_axi_awburst [1:0] $end
   $var wire  4 1! axi4Interconnection_m_axi_awcache [3:0] $end
   $var wire  8 + axi4Interconnection_m_axi_awlen [7:0] $end
   $var wire  3 4! axi4Interconnection_m_axi_awprot [2:0] $end
   $var wire  4 1! axi4Interconnection_m_axi_awqos [3:0] $end
   $var wire  4 1! axi4Interconnection_m_axi_awregion [3:0] $end
   $var wire  3 2! axi4Interconnection_m_axi_awsize [2:0] $end
   $var wire  1 ) axi4Interconnection_m_axi_awvalid $end
   $var wire  1 - axi4Interconnection_m_axi_bready $end
   $var wire 32 W axi4Interconnection_m_axi_wdata [31:0] $end
   $var wire  1 , axi4Interconnection_m_axi_wlast $end
   $var wire  4 5! axi4Interconnection_m_axi_wstrb [3:0] $end
   $var wire  1 V axi4Interconnection_m_axi_wvalid $end
   $var wire  1 X axi4Interconnection_s_axis_ready $end
   $var wire  1 # axi4Interconnection_transInterrupt $end
   $var wire  8 | burstLen [7:0] $end
   $var wire  9 0 fifoInstance_io_availability [8:0] $end
   $var wire  9 / fifoInstance_io_occupancy [8:0] $end
   $var wire 32 $ fifoInstance_io_pop_payload [31:0] $end
   $var wire  1 . fifoInstance_io_pop_valid $end
   $var wire  1 ( fifoInstance_io_push_ready $end
   $var wire 32 * m_axi_awaddr [31:0] $end
   $var wire  2 3! m_axi_awburst [1:0] $end
   $var wire  4 1! m_axi_awcache [3:0] $end
   $var wire  8 + m_axi_awlen [7:0] $end
   $var wire  3 4! m_axi_awprot [2:0] $end
   $var wire  4 1! m_axi_awqos [3:0] $end
   $var wire  1 i m_axi_awready $end
   $var wire  4 1! m_axi_awregion [3:0] $end
   $var wire  3 2! m_axi_awsize [2:0] $end
   $var wire  1 ) m_axi_awvalid $end
   $var wire  1 - m_axi_bready $end
   $var wire  2 y m_axi_bresp [1:0] $end
   $var wire  1 w m_axi_bvalid $end
   $var wire 32 W m_axi_wdata [31:0] $end
   $var wire  1 , m_axi_wlast $end
   $var wire  1 s m_axi_wready $end
   $var wire  4 5! m_axi_wstrb [3:0] $end
   $var wire  1 V m_axi_wvalid $end
   $var wire 32 ~ offset [31:0] $end
   $var wire  8 !! pathNumb [7:0] $end
   $var wire 32 g s_axis_payload [31:0] $end
   $var wire  1 ( s_axis_ready $end
   $var wire  1 e s_axis_valid $end
   $var wire  1 { start $end
   $var wire 32 } startAddr [31:0] $end
   $var wire  1 # transInterrupt $end
   $scope module axi4Interconnection $end
    $var wire  1 #! aclk $end
    $var wire  1 z aresetn $end
    $var wire  1 ) axi4Interface_controlAwValidSignal $end
    $var wire  1 - axi4Interface_controlBReady $end
    $var wire 32 * axi4Interface_finalAddressReg [31:0] $end
    $var wire  1 R axi4Interface_full_aw_fire $end
    $var wire  1 *! axi4Interface_full_b_fire $end
    $var wire  1 *! axi4Interface_full_b_fire_1 $end
    $var wire  1 *! axi4Interface_full_b_fire_2 $end
    $var wire  1 *! axi4Interface_full_b_fire_3 $end
    $var wire  1 *! axi4Interface_full_b_fire_4 $end
    $var wire  1 *! axi4Interface_full_b_fire_5 $end
    $var wire  1 *! axi4Interface_full_b_fire_6 $end
    $var wire  1 *! axi4Interface_full_b_fire_7 $end
    $var wire  1 -! axi4Interface_full_w_fire $end
    $var wire  1 # axi4Interface_isBurstComplete $end
    $var wire  1 +! axi4Interface_isInitialIterate $end
    $var wire  1 @ axi4Interface_isRefreshAddr $end
    $var wire  1 ? axi4Interface_newBurst $end
    $var wire  1 '! axi4Interface_resetStartSendSignal $end
    $var wire 32 7! axi4Interface_transferDataType [31:0] $end
    $var wire  8 | burstLen [7:0] $end
    $var wire  8 > burstLengthReg [7:0] $end
    $var wire 32 * m_axi_awaddr [31:0] $end
    $var wire  2 3! m_axi_awburst [1:0] $end
    $var wire  4 1! m_axi_awcache [3:0] $end
    $var wire  8 + m_axi_awlen [7:0] $end
    $var wire  3 4! m_axi_awprot [2:0] $end
    $var wire  4 1! m_axi_awqos [3:0] $end
    $var wire  1 i m_axi_awready $end
    $var wire  4 1! m_axi_awregion [3:0] $end
    $var wire  3 2! m_axi_awsize [2:0] $end
    $var wire  1 ) m_axi_awvalid $end
    $var wire  1 - m_axi_bready $end
    $var wire  2 y m_axi_bresp [1:0] $end
    $var wire  1 w m_axi_bvalid $end
    $var wire 32 W m_axi_wdata [31:0] $end
    $var wire  1 , m_axi_wlast $end
    $var wire  1 & m_axi_wlast_regNext $end
    $var wire  1 s m_axi_wready $end
    $var wire  4 5! m_axi_wstrb [3:0] $end
    $var wire  1 V m_axi_wvalid $end
    $var wire 32 ~ offset [31:0] $end
    $var wire 32 A offsetAddressReg [31:0] $end
    $var wire  8 !! pathNumb [7:0] $end
    $var wire 32 $ s_axis_payload [31:0] $end
    $var wire  1 X s_axis_ready $end
    $var wire  1 . s_axis_valid $end
    $var wire  1 { start $end
    $var wire 32 } startAddr [31:0] $end
    $var wire  1 (! startSendSignal $end
    $var wire  9 = streamFifo_2_io_availability [8:0] $end
    $var wire  9 < streamFifo_2_io_occupancy [8:0] $end
    $var wire 32 ' streamFifo_2_io_pop_m2sPipe_payload [31:0] $end
    $var wire  1 s streamFifo_2_io_pop_m2sPipe_ready $end
    $var wire  1 B streamFifo_2_io_pop_m2sPipe_valid $end
    $var wire 32 % streamFifo_2_io_pop_payload [31:0] $end
    $var wire 32 ' streamFifo_2_io_pop_rData [31:0] $end
    $var wire  1 B streamFifo_2_io_pop_rValid $end
    $var wire  1 P streamFifo_2_io_pop_ready $end
    $var wire  1 ; streamFifo_2_io_pop_valid $end
    $var wire  1 )! streamFifo_2_io_push_fire $end
    $var wire 32 ] streamFifo_2_io_push_payload [31:0] $end
    $var wire  1 : streamFifo_2_io_push_ready $end
    $var wire  1 \ streamFifo_2_io_push_valid $end
    $var wire  1 # transInterrupt $end
    $var wire  1 ^ when_Axi4WriteOnlyMaster_l105 $end
    $var wire  1 Q when_Axi4WriteOnlyMaster_l131 $end
    $var wire  1 ,! when_Axi4WriteOnlyMaster_l152 $end
    $var wire  1 _ when_Axi4WriteOnlyMaster_l159 $end
    $var wire  1 ` when_Axi4WriteOnlyMaster_l164 $end
    $var wire  1 a when_Axi4WriteOnlyMaster_l187 $end
    $var wire  1 C when_Stream_l342 $end
    $scope module streamFifo_2 $end
     $var wire  1 #! aclk $end
     $var wire  1 z aresetn $end
     $var wire  9 = io_availability [8:0] $end
     $var wire  1 6! io_flush $end
     $var wire  9 < io_occupancy [8:0] $end
     $var wire 32 % io_pop_payload [31:0] $end
     $var wire  1 P io_pop_ready $end
     $var wire  1 ; io_pop_valid $end
     $var wire 32 ] io_push_payload [31:0] $end
     $var wire  1 : io_push_ready $end
     $var wire  1 \ io_push_valid $end
     $var wire  1 J logic_empty $end
     $var wire  1 K logic_full $end
     $var wire  8 F logic_popPtr_value [7:0] $end
     $var wire  8 T logic_popPtr_valueNext [7:0] $end
     $var wire  1 6! logic_popPtr_willClear $end
     $var wire  1 S logic_popPtr_willIncrement $end
     $var wire  1 /! logic_popPtr_willOverflow $end
     $var wire  1 G logic_popPtr_willOverflowIfInc $end
     $var wire  1 U logic_popping $end
     $var wire  8 L logic_ptrDif [7:0] $end
     $var wire  1 H logic_ptrMatch $end
     $var wire  8 D logic_pushPtr_value [7:0] $end
     $var wire  8 c logic_pushPtr_valueNext [7:0] $end
     $var wire  1 6! logic_pushPtr_willClear $end
     $var wire  1 b logic_pushPtr_willIncrement $end
     $var wire  1 .! logic_pushPtr_willOverflow $end
     $var wire  1 E logic_pushPtr_willOverflowIfInc $end
     $var wire  1 d logic_pushing $end
     $var wire  1 I logic_risingOccupancy $end
     $var wire  1 0! when_Stream_l946 $end
    $upscope $end
   $upscope $end
   $scope module fifoInstance $end
    $var wire  1 #! aclk $end
    $var wire  1 z aresetn $end
    $var wire  9 0 io_availability [8:0] $end
    $var wire  1 6! io_flush $end
    $var wire  9 / io_occupancy [8:0] $end
    $var wire 32 $ io_pop_payload [31:0] $end
    $var wire  1 X io_pop_ready $end
    $var wire  1 . io_pop_valid $end
    $var wire 32 g io_push_payload [31:0] $end
    $var wire  1 ( io_push_ready $end
    $var wire  1 e io_push_valid $end
    $var wire  1 7 logic_empty $end
    $var wire  1 8 logic_full $end
    $var wire  8 3 logic_popPtr_value [7:0] $end
    $var wire  8 Z logic_popPtr_valueNext [7:0] $end
    $var wire  1 6! logic_popPtr_willClear $end
    $var wire  1 Y logic_popPtr_willIncrement $end
    $var wire  1 %! logic_popPtr_willOverflow $end
    $var wire  1 4 logic_popPtr_willOverflowIfInc $end
    $var wire  1 [ logic_popping $end
    $var wire  8 9 logic_ptrDif [7:0] $end
    $var wire  1 5 logic_ptrMatch $end
    $var wire  8 1 logic_pushPtr_value [7:0] $end
    $var wire  8 N logic_pushPtr_valueNext [7:0] $end
    $var wire  1 6! logic_pushPtr_willClear $end
    $var wire  1 M logic_pushPtr_willIncrement $end
    $var wire  1 $! logic_pushPtr_willOverflow $end
    $var wire  1 2 logic_pushPtr_willOverflowIfInc $end
    $var wire  1 O logic_pushing $end
    $var wire  1 6 logic_risingOccupancy $end
    $var wire  1 &! when_Stream_l946 $end
   $upscope $end
  $upscope $end
 $upscope $end
$enddefinitions $end


#0
0#
b11001000111101000101010000110100 $
b10101011101001101011111110111011 %
0&
b00001111000011000100000110110001 '
1(
0)
b00000000000000000000000000000000 *
b11111110 +
0,
0-
0.
b000000000 /
b100000000 0
b00000000 1
02
b00000000 3
04
15
06
17
08
b00000000 9
1:
0;
b000000000 <
b100000000 =
b11111111 >
1?
1@
b00000000000000000000000000000000 A
0B
1C
b00000000 D
0E
b00000000 F
0G
1H
0I
1J
0K
b00000000 L
0M
b00000000 N
0O
0P
0Q
0R
0S
b00000000 T
0U
0V
b10101011101001101011111110111011 W
0X
0Y
b00000000 Z
0[
0\
b11001000111101000101010000110100 ]
0^
0_
0`
0a
0b
b00000000 c
0d
0e
1f
b00000000000000000000000000100000 g
0h
0i
b00000000000000000000000000000000 j
b0000 k
b11111110 l
b010 m
b01 n
b0000 o
b0000 p
b000 q
0r
0s
b10101011101001101011111110111011 t
b1111 u
0v
0w
0x
b00 y
0z
0{
b10000000 |
b00000000000000000000000000000000 }
b00000000000000000000001000000000 ~
b00100000 !!
0"!
0#!
0$!
0%!
0&!
0'!
0(!
0)!
0*!
1+!
0,!
0-!
0.!
0/!
00!
b0000 1!
b010 2!
b01 3!
b000 4!
b1111 5!
06!
b11001110001111010010010000010011 7!
#160
1z
#170
b11100011101100011101010010100011 $
b10011000011010101000101001011011 %
b01111111 +
b10000000 >
b10011000011010101000101001011011 W
b11100011101100011101010010100011 ]
b01111111 l
b10011000011010101000101001011011 t
1#!
#175
0#!
#180
1#!
#185
0#!
#190
1P
1Q
b00001111000011000100000110110001 W
1X
1^
1_
1a
b00001111000011000100000110110001 t
1{
1#!
1(!
#195
1M
b00000001 N
1O
1e
b00000000000000000000000000101100 g
0{
b00000000000000000000000000000101 }
0#!
1&!
#200
b10011000011010101000101001011011 '
1)
b00000000000000000000000000000101 *
b000000001 /
b011111111 0
b00000001 1
05
16
07
b00000001 9
0@
b00000000000000000000001000000000 A
0M
0O
1R
b10011000011010101000101001011011 W
0_
0e
b00000000000000000000000010101010 g
1h
1i
b00000000000000000000000000000101 j
1s
b10011000011010101000101001011011 t
b00000000000000000000000000000001 }
1#!
0&!
#205
0#!
#210
b00000000000000000000000000101100 $
0)
1.
0?
0R
1Y
b00000001 Z
1[
1\
b00000000000000000000000000101100 ]
1b
b00000001 c
1d
b00000000000000000000000011100101 g
0h
b00000000000000000000000000000100 }
1#!
1&!
1)!
10!
#215
0#!
#220
b11111110000101111100101101111111 $
0.
b000000000 /
b100000000 0
b00000001 3
15
06
17
b00000000 9
b000000001 <
b011111111 =
b00000001 D
0H
1I
0J
b00000001 L
1M
b00000010 N
1O
0Y
0[
0\
b11111110000101111100101101111111 ]
0b
0d
1e
b00000000000000000000000001101111 g
b00000000000000000000000000001000 }
1#!
0)!
00!
#225
0#!
#230
b00000000000000000000000000101100 %
b000000001 /
b011111111 0
b00000010 1
05
16
07
b00000001 9
1;
b00000011 N
1S
b00000001 T
1U
b00000000000000000000000000111011 g
0i
0s
b00000000000000000000000000000101 }
1#!
10!
#235
0#!
#240
b00000000000000000000000001101111 $
b10000000011110011111111001000100 %
b00000000000000000000000000101100 '
1.
b000000010 /
b011111110 0
b00000011 1
b00000010 9
0;
b000000000 <
b100000000 =
1B
0C
b00000001 F
1H
0I
1J
b00000000 L
b00000100 N
0S
0U
1V
b00000000000000000000000000101100 W
1Y
b00000010 Z
1[
1\
b00000000000000000000000001101111 ]
1b
b00000010 c
1d
b00000000000000000000000011101111 g
1i
1r
1s
b00000000000000000000000000101100 t
b00000000000000000000000000001111 }
1#!
0&!
1)!
1-!
#245
0#!
#250
b00000000000000000000000000111011 $
b10000000011110011111111001000100 '
1-
b00000100 1
b00000010 3
b000000001 <
b011111111 =
0B
1C
b00000010 D
0H
1I
0J
b00000001 L
0M
0O
0V
b10000000011110011111111001000100 W
b00000011 Z
b00000000000000000000000000111011 ]
b00000011 c
0e
b00000000000000000000000010100010 g
0i
0r
0s
b10000000011110011111111001000100 t
1x
b00000000000000000000000000000110 }
1#!
1&!
0-!
#255
0#!
#260
b00000000000000000000000011101111 $
b00000000000000000000000001101111 %
b000000001 /
b011111111 0
b00000011 3
06
b00000001 9
1;
b000000010 <
b011111110 =
b00000011 D
b00000010 L
1M
b00000101 N
1O
1S
b00000010 T
1U
b00000100 Z
b00000000000000000000000011101111 ]
b00000100 c
1e
b00000000000000000000000010000101 g
b00000000000000000000000000001100 }
1#!
0&!
00!
#265
0#!
#270
b01101010110000010000001110111110 $
b00000000000000000000000000111011 %
b00000000000000000000000001101111 '
0.
b00000101 1
b00000100 3
1B
0C
b00000100 D
b00000010 F
0M
0O
b00000011 T
1V
b00000000000000000000000001101111 W
0Y
0[
0\
b01101010110000010000001110111110 ]
0b
0d
0e
b00000000000000000000000011010011 g
1i
1r
1s
b00000000000000000000000001101111 t
b00000000000000000000000000000100 }
1#!
0)!
1-!
10!
#275
0#!
#280
b00000000000000000000000010000101 $
b00000000000000000000000011101111 %
b00000000000000000000000000111011 '
1.
b000000001 <
b011111111 =
b00000011 F
0I
b00000001 L
1M
b00000110 N
1O
0P
0S
0U
b00000000000000000000000000111011 W
1Y
b00000101 Z
1[
1\
b00000000000000000000000010000101 ]
1b
b00000101 c
1d
1e
b00000000000000000000000011010100 g
0i
0s
b00000000000000000000000000111011 t
b00000000000000000000000000001000 }
1#!
1)!
0-!
#285
0#!
#290
b11101110110111000011010111000100 $
0.
b00000110 1
b00000101 3
b000000010 <
b011111110 =
b00000101 D
1I
b00000010 L
b00000111 N
1P
1S
b00000100 T
1U
0Y
0[
0\
b11101110110111000011010111000100 ]
0b
0d
b00000000000000000000000011010101 g
1i
1s
b00000000000000000000000000001101 }
1#!
1&!
0)!
1-!
#295
0#!
#300
b00000000000000000000000011010100 $
b00000000000000000000000010000101 %
b00000000000000000000000011101111 '
1.
b000000010 /
b011111110 0
b00000111 1
16
b00000010 9
b000000001 <
b011111111 =
b00000100 F
0I
b00000001 L
b00001000 N
0P
0S
0U
b00000000000000000000000011101111 W
1Y
b00000110 Z
1[
1\
b00000000000000000000000011010100 ]
1b
b00000110 c
1d
b00000000000000000000000001011010 g
0i
0s
b00000000000000000000000011101111 t
b00000000000000000000000000001010 }
1#!
0&!
1)!
0-!
#305
0#!
#310
b00000000000000000000000011010101 $
b00001000 1
b00000110 3
b000000010 <
b011111110 =
b00000110 D
1I
b00000010 L
0M
0O
b00000111 Z
b00000000000000000000000011010101 ]
b00000111 c
0e
b00000000000000000000000011100000 g
b00000000000000000000000000000100 }
1#!
1&!
#315
0#!
#320
b00000000000000000000000001011010 $
b000000001 /
b011111111 0
b00000111 3
06
b00000001 9
b000000011 <
b011111101 =
b00000111 D
b00000011 L
1P
1S
b00000101 T
1U
b00001000 Z
b00000000000000000000000001011010 ]
b00001000 c
b00000000000000000000000000001100 g
1i
1s
b00000000000000000000000000000111 }
1#!
1-!
00!
#325
0#!
#330
b01001111101101000001100110000000 $
b00000000000000000000000011010100 %
b00000000000000000000000010000101 '
0.
b000000000 /
b100000000 0
b00001000 3
15
17
b00000000 9
b00001000 D
b00000101 F
1M
b00001001 N
1O
b00000110 T
b00000000000000000000000010000101 W
0Y
0[
0\
b01001111101101000001100110000000 ]
0b
0d
1e
b00000000000000000000000000000101 g
b00000000000000000000000010000101 t
1#!
0)!
10!
#335
0#!
#340
b00000000000000000000000011010101 %
b00000000000000000000000011010100 '
b000000001 /
b011111111 0
b00001001 1
05
16
07
b00000001 9
b000000010 <
b011111110 =
b00000110 F
0I
b00000010 L
0M
0O
0P
0S
0U
b00000000000000000000000011010100 W
0e
b00000000000000000000000001000001 g
0i
0s
b00000000000000000000000011010100 t
b00000000000000000000000000000011 }
1#!
0&!
0-!
00!
#345
0#!
#350
b00000000000000000000000000000101 $
1.
1Y
b00001001 Z
1[
1\
b00000000000000000000000000000101 ]
1b
b00001001 c
1d
b00000000000000000000000010110001 g
b00000000000000000000000000001110 }
1#!
1&!
1)!
10!
#355
0#!
#360
b10110011101110101101100110111101 $
0.
b000000000 /
b100000000 0
b00001001 3
15
06
17
b00000000 9
b000000011 <
b011111101 =
b00001001 D
1I
b00000011 L
1M
b00001010 N
1O
0Y
0[
0\
b10110011101110101101100110111101 ]
0b
0d
1e
b00000000000000000000000010110111 g
b00000000000000000000000000001011 }
1#!
0)!
00!
#365
0#!
#370
b000000001 /
b011111111 0
b00001010 1
05
16
07
b00000001 9
b00001011 N
b00000000000000000000000001101100 g
b00000000000000000000000000001000 }
1#!
#375
0#!
#380
b00000000000000000000000010110111 $
1.
b000000010 /
b011111110 0
b00001011 1
b00000010 9
b00001100 N
1P
1S
b00000111 T
1U
1Y
b00001010 Z
1[
1\
b00000000000000000000000010110111 ]
1b
b00001010 c
1d
b00000000000000000000000000001100 g
1i
1s
b00000000000000000000000000000111 }
1#!
0&!
1)!
1-!
#385
0#!
#390
b00000000000000000000000001101100 $
b00000000000000000000000001011010 %
b00000000000000000000000011010101 '
b00001100 1
b00001010 3
b00001010 D
b00000111 F
b00001101 N
0P
0S
0U
b00000000000000000000000011010101 W
b00001011 Z
b00000000000000000000000001101100 ]
b00001011 c
b00000000000000000000000011111001 g
0i
0s
b00000000000000000000000011010101 t
b00000000000000000000000000000011 }
1#!
0-!
10!
#395
0#!
#400
b00000000000000000000000000001100 $
b00001101 1
b00001011 3
b000000100 <
b011111100 =
b00001011 D
b00000100 L
0M
0O
b00001100 Z
b00000000000000000000000000001100 ]
b00001100 c
0e
b00000000000000000000000001011010 g
b00000000000000000000000000000010 }
1#!
1&!
#405
0#!
#410
b00000000000000000000000011111001 $
b000000001 /
b011111111 0
b00001100 3
06
b00000001 9
b000000101 <
b011111011 =
b00001100 D
b00000101 L
1P
1S
b00001000 T
1U
b00001101 Z
b00000000000000000000000011111001 ]
b00001101 c
b00000000000000000000000001011011 g
1i
1s
b00000000000000000000000000000111 }
1#!
1-!
00!
#415
0#!
#420
b11100100100111001101001100000110 $
b00000000000000000000000000000101 %
b00000000000000000000000001011010 '
0.
b000000000 /
b100000000 0
b00001101 3
15
17
b00000000 9
b00001101 D
b00001000 F
b00001001 T
b00000000000000000000000001011010 W
0Y
0[
0\
b11100100100111001101001100000110 ]
0b
0d
b00000000000000000000000011101110 g
b00000000000000000000000001011010 t
b00000000000000000000000000000001 }
1#!
0&!
0)!
10!
#425
0#!
#430
b00000000000000000000000010110111 %
b00000000000000000000000000000101 '
b000000100 <
b011111100 =
b00001001 F
0I
b00000100 L
1M
b00001110 N
1O
b00001010 T
b00000000000000000000000000000101 W
1e
b00000000000000000000000010101011 g
b00000000000000000000000000000101 t
1#!
1&!
#435
0#!
#440
b00000000000000000000000001101100 %
b00000000000000000000000010110111 '
b000000001 /
b011111111 0
b00001110 1
05
16
07
b00000001 9
b000000011 <
b011111101 =
b00001010 F
b00000011 L
b00001111 N
0P
0S
0U
b00000000000000000000000010110111 W
b00000000000000000000000001001011 g
0i
0s
b00000000000000000000000010110111 t
b00000000000000000000000000000101 }
1#!
0-!
00!
#445
0#!
#450
b00000000000000000000000010101011 $
1.
b000000010 /
b011111110 0
b00001111 1
b00000010 9
b00010000 N
1Y
b00001110 Z
1[
1\
b00000000000000000000000010101011 ]
1b
b00001110 c
1d
b00000000000000000000000011010111 g
b00000000000000000000000000000100 }
1#!
0&!
1)!
10!
#455
0#!
#460
b00000000000000000000000001001011 $
b00010000 1
b00001110 3
b000000100 <
b011111100 =
b00001110 D
1I
b00000100 L
0M
0O
1P
1S
b00001011 T
1U
b00001111 Z
b00000000000000000000000001001011 ]
b00001111 c
0e
b00000000000000000000000010110010 g
1i
1s
1#!
1&!
1-!
00!
#465
0#!
#470
b00000000000000000000000011010111 $
b00000000000000000000000000001100 %
b00000000000000000000000001101100 '
b000000001 /
b011111111 0
b00001111 3
06
b00000001 9
b00001111 D
b00001011 F
0P
0S
0U
b00000000000000000000000001101100 W
b00010000 Z
b00000000000000000000000011010111 ]
b00010000 c
b00000000000000000000000011000101 g
0i
0s
b00000000000000000000000001101100 t
b00000000000000000000000000001100 }
1#!
0-!
10!
#475
0#!
#480
b00010111000111111010111010011011 $
0.
b000000000 /
b100000000 0
b00010000 3
15
17
b00000000 9
b000000101 <
b011111011 =
b00010000 D
b00000101 L
1P
1S
b00001100 T
1U
0Y
0[
0\
b00010111000111111010111010011011 ]
0b
0d
b00000000000000000000000010000100 g
1i
1s
b00000000000000000000000000000001 }
1#!
0&!
0)!
1-!
#485
0#!
#490
b00000000000000000000000011111001 %
b00000000000000000000000000001100 '
b000000100 <
b011111100 =
b00001100 F
0I
b00000100 L
1M
b00010001 N
1O
b00001101 T
b00000000000000000000000000001100 W
1e
b00000000000000000000000000011101 g
b00000000000000000000000000001100 t
b00000000000000000000000000001011 }
1#!
1&!
#495
0#!
#500
b00000000000000000000000010101011 %
b00000000000000000000000011111001 '
b000000001 /
b011111111 0
b00010001 1
05
16
07
b00000001 9
b000000011 <
b011111101 =
b00001101 F
b00000011 L
0M
0O
b00001110 T
b00000000000000000000000011111001 W
0e
b00000000000000000000000010101000 g
b00000000000000000000000011111001 t
b00000000000000000000000000000010 }
1#!
0&!
#505
0#!
#510
b00000000000000000000000000011101 $
b00000000000000000000000001001011 %
b00000000000000000000000010101011 '
1.
b000000010 <
b011111110 =
b00001110 F
b00000010 L
0P
0S
0U
b00000000000000000000000010101011 W
1Y
b00010001 Z
1[
1\
b00000000000000000000000000011101 ]
1b
b00010001 c
1d
b00000000000000000000000001001101 g
0i
0s
b00000000000000000000000010101011 t
b00000000000000000000000000001011 }
1#!
1&!
1)!
0-!
#515
0#!
#520
b00100111111011100010000000001010 $
0.
b000000000 /
b100000000 0
b00010001 3
15
06
17
b00000000 9
b000000011 <
b011111101 =
b00010001 D
1I
b00000011 L
1M
b00010010 N
1O
0Y
0[
0\
b00100111111011100010000000001010 ]
0b
0d
1e
b00000000000000000000000011101001 g
b00000000000000000000000000000101 }
1#!
0)!
00!
#525
0#!
#530
b000000001 /
b011111111 0
b00010010 1
05
16
07
b00000001 9
0M
0O
0e
b00000000000000000000000011111001 g
b00000000000000000000000000000010 }
1#!
0&!
#535
0#!
#540
b00000000000000000000000011101001 $
1.
1M
b00010011 N
1O
1P
1S
b00001111 T
1U
1Y
b00010010 Z
1[
1\
b00000000000000000000000011101001 ]
1b
b00010010 c
1d
1e
b00000000000000000000000000100001 g
1i
1s
b00000000000000000000000000001000 }
1#!
1)!
1-!
#545
0#!
#550
b11010111001011000011100110010100 $
b00000000000000000000000011010111 %
b00000000000000000000000001001011 '
0.
b00010011 1
b00010010 3
b00010010 D
b00001111 F
b00010100 N
0P
0S
0U
b00000000000000000000000001001011 W
0Y
0[
0\
b11010111001011000011100110010100 ]
0b
0d
b00000000000000000000000000001100 g
0i
0s
b00000000000000000000000001001011 t
b00000000000000000000000000000111 }
1#!
1&!
0)!
0-!
#555
0#!
#560
b00000000000000000000000000100001 $
1.
b000000010 /
b011111110 0
b00010100 1
b00000010 9
0M
0O
1P
1S
b00010000 T
1U
1Y
b00010011 Z
1[
1\
b00000000000000000000000000100001 ]
1b
b00010011 c
1d
0e
b00000000000000000000000001101011 g
1i
1s
b00000000000000000000000000001110 }
1#!
1)!
1-!
#565
0#!
#570
b00000000000000000000000000001100 $
b00000000000000000000000000011101 %
b00000000000000000000000011010111 '
b000000001 /
b011111111 0
b00010011 3
06
b00000001 9
b00010011 D
b00010000 F
1M
b00010101 N
1O
0P
0S
0U
b00000000000000000000000011010111 W
b00010100 Z
b00000000000000000000000000001100 ]
b00010100 c
1e
b00000000000000000000000000100011 g
0i
0s
b00000000000000000000000011010111 t
b00000000000000000000000000001101 }
1#!
0&!
0-!
10!
#575
0#!
#580
b01100110011001011101010011000001 $
0.
b00010101 1
b00010100 3
b000000100 <
b011111100 =
b00010100 D
b00000100 L
0M
0O
1P
1S
b00010001 T
1U
0Y
0[
0\
b01100110011001011101010011000001 ]
0b
0d
0e
b00000000000000000000000001100000 g
1i
1s
b00000000000000000000000000000001 }
1#!
0)!
1-!
#585
0#!
#590
b00000000000000000000000000100011 $
b00000000000000000000000011101001 %
b00000000000000000000000000011101 '
1.
b000000011 <
b011111101 =
b00010001 F
0I
b00000011 L
b00010010 T
b00000000000000000000000000011101 W
1Y
b00010101 Z
1[
1\
b00000000000000000000000000100011 ]
1b
b00010101 c
1d
b00000000000000000000000011100001 g
b00000000000000000000000000011101 t
b00000000000000000000000000000111 }
1#!
1&!
1)!
00!
#595
0#!
#600
b10001001011101010100110001101111 $
b00000000000000000000000000100001 %
b00000000000000000000000011101001 '
0.
b000000000 /
b100000000 0
b00010101 3
15
17
b00000000 9
b00010101 D
b00010010 F
0P
0S
0U
b00000000000000000000000011101001 W
0Y
0[
0\
b10001001011101010100110001101111 ]
0b
0d
b00000000000000000000000010011100 g
0i
0s
b00000000000000000000000011101001 t
b00000000000000000000000000001100 }
1#!
0&!
0)!
0-!
#605
0#!
#610
b00000000000000000000000000000001 g
b00000000000000000000000000001111 }
1#!
#615
0#!
#620
1M
b00010110 N
1O
1e
b00000000000000000000000001001011 g
b00000000000000000000000000001010 }
1#!
1&!
#625
0#!
#630
b000000001 /
b011111111 0
b00010110 1
05
16
07
b00000001 9
0M
0O
1P
1S
b00010011 T
1U
0e
b00000000000000000000000010101001 g
1i
1s
b00000000000000000000000000001100 }
1#!
0&!
1-!
10!
#635
0#!
#640
b00000000000000000000000001001011 $
b00000000000000000000000000001100 %
b00000000000000000000000000100001 '
1.
b000000010 <
b011111110 =
b00010011 F
b00000010 L
0P
0S
0U
b00000000000000000000000000100001 W
1Y
b00010110 Z
1[
1\
b00000000000000000000000001001011 ]
1b
b00010110 c
1d
b00000000000000000000000010011101 g
0i
0s
b00000000000000000000000000100001 t
b00000000000000000000000000000001 }
1#!
1&!
1)!
0-!
#645
0#!
#650
b11101110010011001011011101111100 $
0.
b000000000 /
b100000000 0
b00010110 3
15
06
17
b00000000 9
b000000011 <
b011111101 =
b00010110 D
1I
b00000011 L
0Y
0[
0\
b11101110010011001011011101111100 ]
0b
0d
b00000000000000000000000010010000 g
b00000000000000000000000000000111 }
1#!
0&!
0)!
00!
#655
0#!
#660
b00000000000000000000000001010010 g
b00000000000000000000000000001010 }
1#!
#665
0#!
#670
1P
1S
b00010100 T
1U
b00000000000000000000000000011000 g
1i
1s
b00000000000000000000000000000111 }
1#!
1-!
10!
#675
0#!
#680
b00000000000000000000000000100011 %
b00000000000000000000000000001100 '
b000000010 <
b011111110 =
b00010100 F
0I
b00000010 L
0P
0S
0U
b00000000000000000000000000001100 W
b00000000000000000000000001101110 g
0i
0s
b00000000000000000000000000001100 t
b00000000000000000000000000001001 }
1#!
0-!
00!
#685
0#!
#690
b00000000000000000000000001001001 g
b00000000000000000000000000000010 }
1#!
#695
0#!
