simWorkspace/Stream2Axi4WriteOnlyMasterInterfaceAddFifo/test.vcd
$version Generated by VerilatedVcd $end
$date Wed Dec 22 13:49:31 2021
 $end
$timescale   1ns $end

 $scope module TOP $end
  $var wire  1 } aclk $end
  $var wire  1 x aresetn $end
  $var wire  8 z burstLen [7:0] $end
  $var wire 32 h m_axi_awaddr [31:0] $end
  $var wire  2 l m_axi_awburst [1:0] $end
  $var wire  4 m m_axi_awcache [3:0] $end
  $var wire  8 j m_axi_awlen [7:0] $end
  $var wire  3 o m_axi_awprot [2:0] $end
  $var wire  4 n m_axi_awqos [3:0] $end
  $var wire  1 g m_axi_awready $end
  $var wire  4 i m_axi_awregion [3:0] $end
  $var wire  3 k m_axi_awsize [2:0] $end
  $var wire  1 f m_axi_awvalid $end
  $var wire  1 v m_axi_bready $end
  $var wire  2 w m_axi_bresp [1:0] $end
  $var wire  1 u m_axi_bvalid $end
  $var wire 32 r m_axi_wdata [31:0] $end
  $var wire  1 t m_axi_wlast $end
  $var wire  1 q m_axi_wready $end
  $var wire  4 s m_axi_wstrb [3:0] $end
  $var wire  1 p m_axi_wvalid $end
  $var wire 32 { offset [31:0] $end
  $var wire 32 e s_axis_payload [31:0] $end
  $var wire  1 d s_axis_ready $end
  $var wire  1 c s_axis_valid $end
  $var wire  1 y start $end
  $var wire  1 | transInterrupt $end
  $scope module Stream2Axi4WriteOnlyMasterInterfaceAddFifo $end
   $var wire  1 } aclk $end
   $var wire  1 x aresetn $end
   $var wire 32 { axi4Interconnection_m_axi_awaddr [31:0] $end
   $var wire  2 "( axi4Interconnection_m_axi_awburst [1:0] $end
   $var wire  4 "& axi4Interconnection_m_axi_awcache [3:0] $end
   $var wire  8 ~ axi4Interconnection_m_axi_awlen [7:0] $end
   $var wire  3 ") axi4Interconnection_m_axi_awprot [2:0] $end
   $var wire  4 "& axi4Interconnection_m_axi_awqos [3:0] $end
   $var wire  4 "& axi4Interconnection_m_axi_awregion [3:0] $end
   $var wire  3 "' axi4Interconnection_m_axi_awsize [2:0] $end
   $var wire  1 R axi4Interconnection_m_axi_awvalid $end
   $var wire  1 S axi4Interconnection_m_axi_bready $end
   $var wire 32 % axi4Interconnection_m_axi_wdata [31:0] $end
   $var wire  1 & axi4Interconnection_m_axi_wlast $end
   $var wire  4 "* axi4Interconnection_m_axi_wstrb [3:0] $end
   $var wire  1 $ axi4Interconnection_m_axi_wvalid $end
   $var wire  1 # axi4Interconnection_s_axis_ready $end
   $var wire  1 N axi4Interconnection_transInterrupt $end
   $var wire  8 z burstLen [7:0] $end
   $var wire  9 C fifoInstance_io_availability [8:0] $end
   $var wire  9 B fifoInstance_io_occupancy [8:0] $end
   $var wire 32 O fifoInstance_io_pop_payload [31:0] $end
   $var wire  1 A fifoInstance_io_pop_valid $end
   $var wire  1 @ fifoInstance_io_push_ready $end
   $var wire 32 h m_axi_awaddr [31:0] $end
   $var wire  2 l m_axi_awburst [1:0] $end
   $var wire  4 m m_axi_awcache [3:0] $end
   $var wire  8 j m_axi_awlen [7:0] $end
   $var wire  3 o m_axi_awprot [2:0] $end
   $var wire  4 n m_axi_awqos [3:0] $end
   $var wire  1 g m_axi_awready $end
   $var wire  4 i m_axi_awregion [3:0] $end
   $var wire  3 k m_axi_awsize [2:0] $end
   $var wire  1 f m_axi_awvalid $end
   $var wire  1 v m_axi_bready $end
   $var wire  2 w m_axi_bresp [1:0] $end
   $var wire  1 u m_axi_bvalid $end
   $var wire 32 r m_axi_wdata [31:0] $end
   $var wire  1 t m_axi_wlast $end
   $var wire  1 q m_axi_wready $end
   $var wire  4 s m_axi_wstrb [3:0] $end
   $var wire  1 p m_axi_wvalid $end
   $var wire 32 { offset [31:0] $end
   $var wire 32 e s_axis_payload [31:0] $end
   $var wire  1 d s_axis_ready $end
   $var wire  1 c s_axis_valid $end
   $var wire  1 y start $end
   $var wire  1 | transInterrupt $end
   $scope module axi4Interconnection $end
    $var wire  1 } aclk $end
    $var wire  1 x aresetn $end
    $var wire  1 R axi4Interface_controlAwValidSignal $end
    $var wire  1 S axi4Interface_controlBReady $end
    $var wire  1 "$ axi4Interface_full_aw_fire $end
    $var wire  1 "! axi4Interface_full_b_fire $end
    $var wire  1 "! axi4Interface_full_b_fire_1 $end
    $var wire  1 "! axi4Interface_full_b_fire_2 $end
    $var wire  1 "! axi4Interface_full_b_fire_3 $end
    $var wire  1 "! axi4Interface_full_b_fire_4 $end
    $var wire  1 "% axi4Interface_full_w_fire $end
    $var wire  1 N axi4Interface_isBurstComplete $end
    $var wire  1 T axi4Interface_isTransferAfterReset $end
    $var wire  1 U axi4Interface_lastBurstComplete $end
    $var wire  1 : axi4Interface_resetStartSendSignal $end
    $var wire 32 "+ axi4Interface_transferDataType [31:0] $end
    $var wire  8 z burstLen [7:0] $end
    $var wire 32 { m_axi_awaddr [31:0] $end
    $var wire  2 "( m_axi_awburst [1:0] $end
    $var wire  4 "& m_axi_awcache [3:0] $end
    $var wire  8 ~ m_axi_awlen [7:0] $end
    $var wire  3 ") m_axi_awprot [2:0] $end
    $var wire  4 "& m_axi_awqos [3:0] $end
    $var wire  1 g m_axi_awready $end
    $var wire  4 "& m_axi_awregion [3:0] $end
    $var wire  3 "' m_axi_awsize [2:0] $end
    $var wire  1 R m_axi_awvalid $end
    $var wire  1 S m_axi_bready $end
    $var wire  2 w m_axi_bresp [1:0] $end
    $var wire  1 u m_axi_bvalid $end
    $var wire 32 % m_axi_wdata [31:0] $end
    $var wire  1 & m_axi_wlast $end
    $var wire  1 Q m_axi_wlast_regNext $end
    $var wire  1 q m_axi_wready $end
    $var wire  4 "* m_axi_wstrb [3:0] $end
    $var wire  1 $ m_axi_wvalid $end
    $var wire 32 { offset [31:0] $end
    $var wire 32 O s_axis_payload [31:0] $end
    $var wire  1 # s_axis_ready $end
    $var wire  1 A s_axis_valid $end
    $var wire  1 y start $end
    $var wire  1 b startSendSignal $end
    $var wire  9 G streamFifo_2_io_availability [8:0] $end
    $var wire  9 F streamFifo_2_io_occupancy [8:0] $end
    $var wire 32 P streamFifo_2_io_pop_payload [31:0] $end
    $var wire  1 ) streamFifo_2_io_pop_ready $end
    $var wire  1 E streamFifo_2_io_pop_valid $end
    $var wire  1 ; streamFifo_2_io_push_fire $end
    $var wire 32 ( streamFifo_2_io_push_payload [31:0] $end
    $var wire  1 D streamFifo_2_io_push_ready $end
    $var wire  1 ' streamFifo_2_io_push_valid $end
    $var wire  1 N transInterrupt $end
    $var wire  1 "" when_Axi4WriteOnlyMaster_l115 $end
    $var wire  1 "# when_Axi4WriteOnlyMaster_l118 $end
    $var wire  1 + when_Axi4WriteOnlyMaster_l152 $end
    $var wire  1 * when_Axi4WriteOnlyMaster_l89 $end
    $scope module streamFifo_2 $end
     $var wire  1 } aclk $end
     $var wire  1 x aresetn $end
     $var wire  9 G io_availability [8:0] $end
     $var wire  1 ", io_flush $end
     $var wire  9 F io_occupancy [8:0] $end
     $var wire 32 P io_pop_payload [31:0] $end
     $var wire  1 ) io_pop_ready $end
     $var wire  1 E io_pop_valid $end
     $var wire 32 ( io_push_payload [31:0] $end
     $var wire  1 D io_push_ready $end
     $var wire  1 ' io_push_valid $end
     $var wire  1 I logic_empty $end
     $var wire  1 J logic_full $end
     $var wire  8 X logic_popPtr_value [7:0] $end
     $var wire  8 / logic_popPtr_valueNext [7:0] $end
     $var wire  1 ", logic_popPtr_willClear $end
     $var wire  1 . logic_popPtr_willIncrement $end
     $var wire  1 = logic_popPtr_willOverflow $end
     $var wire  1 Y logic_popPtr_willOverflowIfInc $end
     $var wire  1 1 logic_popping $end
     $var wire  8 [ logic_ptrDif [7:0] $end
     $var wire  1 H logic_ptrMatch $end
     $var wire  8 V logic_pushPtr_value [7:0] $end
     $var wire  8 - logic_pushPtr_valueNext [7:0] $end
     $var wire  1 ", logic_pushPtr_willClear $end
     $var wire  1 , logic_pushPtr_willIncrement $end
     $var wire  1 < logic_pushPtr_willOverflow $end
     $var wire  1 W logic_pushPtr_willOverflowIfInc $end
     $var wire  1 0 logic_pushing $end
     $var wire  1 Z logic_risingOccupancy $end
     $var wire  1 2 when_Stream_l933 $end
    $upscope $end
   $upscope $end
   $scope module fifoInstance $end
    $var wire  1 } aclk $end
    $var wire  1 x aresetn $end
    $var wire  9 C io_availability [8:0] $end
    $var wire  1 ", io_flush $end
    $var wire  9 B io_occupancy [8:0] $end
    $var wire 32 O io_pop_payload [31:0] $end
    $var wire  1 # io_pop_ready $end
    $var wire  1 A io_pop_valid $end
    $var wire 32 e io_push_payload [31:0] $end
    $var wire  1 @ io_push_ready $end
    $var wire  1 c io_push_valid $end
    $var wire  1 L logic_empty $end
    $var wire  1 M logic_full $end
    $var wire  8 ^ logic_popPtr_value [7:0] $end
    $var wire  8 6 logic_popPtr_valueNext [7:0] $end
    $var wire  1 ", logic_popPtr_willClear $end
    $var wire  1 5 logic_popPtr_willIncrement $end
    $var wire  1 ? logic_popPtr_willOverflow $end
    $var wire  1 _ logic_popPtr_willOverflowIfInc $end
    $var wire  1 8 logic_popping $end
    $var wire  8 a logic_ptrDif [7:0] $end
    $var wire  1 K logic_ptrMatch $end
    $var wire  8 \ logic_pushPtr_value [7:0] $end
    $var wire  8 4 logic_pushPtr_valueNext [7:0] $end
    $var wire  1 ", logic_pushPtr_willClear $end
    $var wire  1 3 logic_pushPtr_willIncrement $end
    $var wire  1 > logic_pushPtr_willOverflow $end
    $var wire  1 ] logic_pushPtr_willOverflowIfInc $end
    $var wire  1 7 logic_pushing $end
    $var wire  1 ` logic_risingOccupancy $end
    $var wire  1 9 when_Stream_l933 $end
   $upscope $end
  $upscope $end
 $upscope $end
$enddefinitions $end


#0
0#
0$
b10110101111001111001011010000101 %
0&
0'
b01101011001101100001101011010110 (
0)
0*
0+
0,
b00000000 -
0.
b00000000 /
00
01
02
03
b00000000 4
05
b00000000 6
07
08
09
1:
0;
0<
0=
0>
0?
1@
0A
b000000000 B
b100000000 C
1D
0E
b000000000 F
b100000000 G
1H
1I
0J
1K
1L
0M
1N
b01101011001101100001101011010110 O
b10110101111001111001011010000101 P
1Q
0R
0S
1T
0U
b00000000 V
0W
b00000000 X
0Y
0Z
b00000000 [
b00000000 \
0]
b00000000 ^
0_
0`
b00000000 a
0b
0c
1d
b00000000000000000000000000100000 e
0f
0g
b00000000000000000000000000000000 h
b0000 i
b01111111 j
b010 k
b01 l
b0000 m
b0000 n
b000 o
0p
0q
b10110101111001111001011010000101 r
b1111 s
0t
0u
0v
b00 w
0x
0y
b10000000 z
b00000000000000000000000000000000 {
1|
0}
b01111111 ~
0"!
1""
0"#
0"$
0"%
b0000 "&
b010 "'
b01 "(
b000 ")
b1111 "*
b10001100010111000101110110100110 "+
0",
#160
1x
#170
b01100111011111011001011011100110 %
b01011110010001100111011111111100 (
0:
0N
b01011110010001100111011111111100 O
b01100111011111011001011011100110 P
0Q
0T
1U
b01100111011111011001011011100110 r
0|
1}
0""
#175
0}
#180
1}
#185
0}
#190
1#
1*
1+
1b
1y
1}
1"#
#195
1)
b00000000000000000000000001100111 e
1g
1q
0y
0}
#200
0)
1R
0U
b00000000000000000000000000100000 e
1f
0g
0q
1}
#205
0}
#210
1)
b00000000000000000000000000010000 e
1g
1q
1}
1"$
#215
0}
#220
13
b00000001 4
17
19
0R
1c
b00000000000000000000000011010011 e
0f
1}
0"$
#225
0}
#230
0)
03
07
09
b000000001 B
b011111111 C
0K
0L
b00000001 \
1`
b00000001 a
0c
b00000000000000000000000010110101 e
0g
0q
1}
#235
0}
#240
1'
b00000000000000000000000011010011 (
1,
b00000001 -
10
12
15
b00000001 6
18
19
1;
1A
b00000000000000000000000011010011 O
b00000000000000000000000000010000 e
1}
#245
0}
#250
0'
b11000001010010001100100100010101 (
0,
00
02
05
08
09
0;
0A
b000000000 B
b100000000 C
b000000001 F
b011111111 G
0H
0I
1K
1L
b11000001010010001100100100010101 O
b00000001 V
1Z
b00000001 [
b00000001 ^
0`
b00000000 a
b00000000000000000000000000110111 e
1}
#255
0}
#260
1$
b00000000000000000000000011010011 %
13
b00000010 4
17
19
1E
b00000000000000000000000011010011 P
1c
b00000000000000000000000000111000 e
1p
b00000000000000000000000011010011 r
1}
#265
0}
#270
1)
1.
b00000001 /
11
12
03
07
09
b000000001 B
b011111111 C
0K
0L
1S
b00000010 \
1`
b00000001 a
0c
b00000000000000000000000001100001 e
1g
1q
1v
1}
1"%
#275
0}
#280
0$
b01100101011001110010110111101011 %
1'
b00000000000000000000000000111000 (
0)
1,
b00000010 -
0.
10
01
15
b00000010 6
18
19
1;
1A
0E
b000000000 F
b100000000 G
1H
1I
b00000000000000000000000000111000 O
b01100101011001110010110111101011 P
b00000001 X
0Z
b00000000 [
b00000000000000000000000001110010 e
0g
0p
0q
b01100101011001110010110111101011 r
1}
0"%
#285
0}
#290
0'
b01011011100011001000011111110010 (
0,
00
02
13
b00000011 4
05
17
08
0;
0A
b000000000 B
b100000000 C
b000000001 F
b011111111 G
0H
0I
1K
1L
b01011011100011001000011111110010 O
b00000010 V
1Z
b00000001 [
b00000010 ^
0`
b00000000 a
1c
b00000000000000000000000010110011 e
1}
#295
0}
#300
1$
b00000000000000000000000000111000 %
b00000100 4
b000000001 B
b011111111 C
1E
0K
0L
b00000000000000000000000000111000 P
b00000011 \
1`
b00000001 a
b00000000000000000000000001000111 e
1p
b00000000000000000000000000111000 r
1}
#305
0}
#310
1'
b00000000000000000000000010110011 (
1,
b00000011 -
10
12
03
15
b00000011 6
07
18
1;
1A
b000000010 B
b011111110 C
b00000000000000000000000010110011 O
b00000100 \
b00000010 a
0c
b00000000000000000000000011110000 e
1}
#315
0}
#320
b00000000000000000000000001000111 (
1)
b00000100 -
1.
b00000010 /
11
02
b00000100 6
b000000001 B
b011111111 C
b000000010 F
b011111110 G
b00000000000000000000000001000111 O
b00000011 V
b00000010 [
b00000011 ^
0`
b00000001 a
b00000000000000000000000011001010 e
1g
1q
1}
1"%
#325
0}
#330
b00000000000000000000000010110011 %
0'
b00111000111110111110111101110100 (
0,
b00000011 /
00
12
05
08
09
0;
0A
b000000000 B
b100000000 C
1K
1L
b00111000111110111110111101110100 O
b00000000000000000000000010110011 P
b00000100 V
b00000010 X
b00000100 ^
b00000000 a
b00000000000000000000000010010111 e
b00000000000000000000000010110011 r
1}
#335
0}
#340
b00000000000000000000000001000111 %
0)
0.
01
02
b000000001 F
b011111111 G
b00000000000000000000000001000111 P
b00000011 X
0Z
b00000001 [
b00000000000000000000000011101000 e
0g
0q
b00000000000000000000000001000111 r
1}
0"%
#345
0}
#350
13
b00000101 4
17
19
1c
b00000000000000000000000010111011 e
1}
#355
0}
#360
b00000110 4
b000000001 B
b011111111 C
0K
0L
b00000101 \
1`
b00000001 a
b00000000000000000000000011000000 e
1}
#365
0}
#370
1'
b00000000000000000000000010111011 (
1)
1,
b00000101 -
1.
b00000100 /
10
11
03
15
b00000101 6
07
18
1;
1A
b000000010 B
b011111110 C
b00000000000000000000000010111011 O
b00000110 \
b00000010 a
0c
b00000000000000000000000010100001 e
1g
1q
1}
1"%
#375
0}
#380
0$
b10111011000111100100101000001011 %
b00000000000000000000000011000000 (
0)
b00000110 -
0.
01
12
b00000110 6
b000000001 B
b011111111 C
0E
b00000000000000000000000011000000 O
b10111011000111100100101000001011 P
b00000101 V
b00000100 X
b00000101 ^
0`
b00000001 a
b00000000000000000000000000011010 e
0g
0p
0q
b10111011000111100100101000001011 r
1}
0"%
#385
0}
#390
1$
b00000000000000000000000010111011 %
0'
b10010000100110011000100011001001 (
1)
0,
1.
b00000101 /
00
11
05
08
09
0;
0A
b000000000 B
b100000000 C
1E
b000000010 F
b011111110 G
1K
1L
b10010000100110011000100011001001 O
b00000000000000000000000010111011 P
b00000110 V
1Z
b00000010 [
b00000110 ^
b00000000 a
b00000000000000000000000010101110 e
1g
1p
1q
b00000000000000000000000010111011 r
1}
1"%
#395
0}
#400
b00000000000000000000000011000000 %
b00000110 /
b000000001 F
b011111111 G
b00000000000000000000000011000000 P
b00000101 X
0Z
b00000001 [
b00000000000000000000000010011100 e
b00000000000000000000000011000000 r
1}
#405
0}
#410
0$
b01101110100100001111000110110101 %
0)
0.
01
02
0E
b000000000 F
b100000000 G
1H
1I
b01101110100100001111000110110101 P
b00000110 X
b00000000 [
b00000000000000000000000001011001 e
0g
0p
0q
b01101110100100001111000110110101 r
1}
0"%
#415
0}
#420
1)
13
b00000111 4
17
19
1c
b00000000000000000000000001000111 e
1g
1q
1}
#425
0}
#430
b00001000 4
b000000001 B
b011111111 C
0K
0L
b00000111 \
1`
b00000001 a
b00000000000000000000000000110100 e
1}
#435
0}
#440
1'
b00000000000000000000000001000111 (
0)
1,
b00000111 -
10
12
b00001001 4
15
b00000111 6
18
09
1;
1A
b000000010 B
b011111110 C
b00000000000000000000000001000111 O
b00001000 \
b00000010 a
b00000000000000000000000000110001 e
0g
0q
1}
#445
0}
#450
b00000000000000000000000000110100 (
1)
b00001000 -
b00001010 4
b00001000 6
b000000001 F
b011111111 G
0H
0I
b00000000000000000000000000110100 O
b00000111 V
1Z
b00000001 [
b00001001 \
b00000111 ^
b00000000000000000000000011100010 e
1g
1q
1}
#455
0}
#460
1$
b00000000000000000000000001000111 %
b00000000000000000000000000110001 (
b00001001 -
1.
b00000111 /
11
02
b00001011 4
b00001001 6
1E
b000000010 F
b011111110 G
b00000000000000000000000000110001 O
b00000000000000000000000001000111 P
b00001000 V
b00000010 [
b00001010 \
b00001000 ^
b00000000000000000000000011001000 e
1p
b00000000000000000000000001000111 r
1}
1"%
#465
0}
#470
b00000000000000000000000000110100 %
b00000000000000000000000011100010 (
b00001010 -
b00001000 /
03
b00001010 6
07
19
b00000000000000000000000011100010 O
b00000000000000000000000000110100 P
b00001001 V
b00000111 X
b00001011 \
b00001001 ^
0c
b00000000000000000000000011100011 e
b00000000000000000000000000110100 r
1}
#475
0}
#480
b00000000000000000000000000110001 %
b00000000000000000000000011001000 (
b00001011 -
b00001001 /
13
b00001100 4
b00001011 6
17
09
b000000001 B
b011111111 C
b00000000000000000000000011001000 O
b00000000000000000000000000110001 P
b00001010 V
b00001000 X
b00001010 ^
0`
b00000001 a
1c
b00000000000000000000000000100011 e
b00000000000000000000000000110001 r
1}
#485
0}
#490
b00000000000000000000000011100010 %
0'
b00100010110100011010001011001110 (
0)
0,
0.
00
01
03
05
07
08
0;
0A
b00100010110100011010001011001110 O
b00000000000000000000000011100010 P
b00001011 V
b00001001 X
b00001100 \
b00001011 ^
0c
b00000000000000000000000010011001 e
0g
0q
b00000000000000000000000011100010 r
1}
0"%
#495
0}
#500
1'
b00000000000000000000000000100011 (
1,
b00001100 -
10
12
13
b00001101 4
15
b00001100 6
17
18
1;
1A
b00000000000000000000000000100011 O
1c
b00000000000000000000000001100110 e
1}
#505
0}
#510
0'
b10110110000100101100100011100111 (
0,
00
02
03
05
07
08
0;
0A
b000000011 F
b011111101 G
b10110110000100101100100011100111 O
b00001100 V
b00000011 [
b00001101 \
b00001100 ^
0c
b00000000000000000000000001100111 e
1}
#515
0}
#520
1'
b00000000000000000000000001100110 (
1)
1,
b00001101 -
1.
b00001010 /
10
11
13
b00001110 4
15
b00001101 6
17
18
1;
1A
b00000000000000000000000001100110 O
1c
1g
1q
1}
1"%
#525
0}
#530
b00000000000000000000000011001000 %
0'
b01011001001111101111011101001110 (
0)
0,
0.
00
01
03
05
07
08
0;
0A
b01011001001111101111011101001110 O
b00000000000000000000000011001000 P
b00001101 V
b00001010 X
b00001110 \
b00001101 ^
0c
b00000000000000000000000010011010 e
0g
0q
b00000000000000000000000011001000 r
1}
0"%
#535
0}
#540
1'
b00000000000000000000000001100111 (
1)
1,
b00001110 -
1.
b00001011 /
10
11
15
b00001110 6
18
19
1;
1A
b00000000000000000000000001100111 O
b00000000000000000000000011001110 e
1g
1q
1}
1"%
#545
0}
#550
b00000000000000000000000000100011 %
0'
b11001111100010100011110000001100 (
0)
0,
0.
00
01
05
08
09
0;
0A
b000000000 B
b100000000 C
1K
1L
b11001111100010100011110000001100 O
b00000000000000000000000000100011 P
b00001110 V
b00001011 X
b00001110 ^
b00000000 a
b00000000000000000000000010000111 e
0g
0q
b00000000000000000000000000100011 r
1}
0"%
#555
0}
#560
b00000000000000000000000001000000 e
1}
#565
0}
#570
1)
1.
b00001100 /
11
12
b00000000000000000000000001110101 e
1g
1q
1}
1"%
#575
0}
#580
b00000000000000000000000001100110 %
b00001101 /
13
b00001111 4
17
19
b000000010 F
b011111110 G
b00000000000000000000000001100110 P
b00001100 X
0Z
b00000010 [
1c
b00000000000000000000000011010000 e
b00000000000000000000000001100110 r
1}
#585
0}
#590
b00000000000000000000000001100111 %
b00001110 /
b00010000 4
b000000001 B
b011111111 C
b000000001 F
b011111111 G
0K
0L
b00000000000000000000000001100111 P
b00001101 X
b00000001 [
b00001111 \
1`
b00000001 a
b00000000000000000000000010101101 e
b00000000000000000000000001100111 r
1}
#595
0}
#600
0$
b11001100100101000000101110001111 %
1'
b00000000000000000000000011010000 (
0)
1,
b00001111 -
0.
10
01
03
15
b00001111 6
07
18
1;
1A
b000000010 B
b011111110 C
0E
b000000000 F
b100000000 G
1H
1I
b00000000000000000000000011010000 O
b11001100100101000000101110001111 P
b00001110 X
b00000000 [
b00010000 \
b00000010 a
0c
b00000000000000000000000000010101 e
0g
0p
0q
b11001100100101000000101110001111 r
1}
0"%
#605
0}
#610
b00000000000000000000000010101101 (
1)
b00010000 -
b00010000 6
b000000001 B
b011111111 C
b000000001 F
b011111111 G
0H
0I
b00000000000000000000000010101101 O
b00001111 V
1Z
b00000001 [
b00001111 ^
0`
b00000001 a
b00000000000000000000000010101111 e
1g
1q
1}
#615
0}
#620
1$
b00000000000000000000000011010000 %
0'
b00110000110110011100000001110101 (
0,
1.
b00001111 /
00
11
05
08
09
0;
0A
b000000000 B
b100000000 C
1E
b000000010 F
b011111110 G
1K
1L
b00110000110110011100000001110101 O
b00000000000000000000000011010000 P
b00010000 V
b00000010 [
b00010000 ^
b00000000 a
b00000000000000000000000010100001 e
1p
b00000000000000000000000011010000 r
1}
1"%
#625
0}
#630
b00000000000000000000000010101101 %
b00010000 /
13
b00010001 4
17
19
b000000001 F
b011111111 G
b00000000000000000000000010101101 P
b00001111 X
0Z
b00000001 [
1c
b00000000000000000000000001001100 e
b00000000000000000000000010101101 r
1}
#635
0}
#640
0$
b10010001100011110110101000100001 %
0)
0.
01
02
b00010010 4
b000000001 B
b011111111 C
0E
b000000000 F
b100000000 G
1H
1I
0K
0L
b10010001100011110110101000100001 P
b00010000 X
b00000000 [
b00010001 \
1`
b00000001 a
b00000000000000000000000010100101 e
0g
0p
0q
b10010001100011110110101000100001 r
1}
0"%
#645
0}
#650
1'
b00000000000000000000000001001100 (
1)
1,
b00010001 -
10
12
03
15
b00010001 6
07
18
1;
1A
b000000010 B
b011111110 C
b00000000000000000000000001001100 O
b00010010 \
b00000010 a
0c
b00000000000000000000000010001101 e
1g
1q
1}
#655
0}
#660
b00000000000000000000000010100101 (
0)
b00010010 -
b00010010 6
b000000001 B
b011111111 C
b000000001 F
b011111111 G
0H
0I
b00000000000000000000000010100101 O
b00010001 V
1Z
b00000001 [
b00010001 ^
0`
b00000001 a
b00000000000000000000000000111000 e
0g
0q
1}
#665
0}
#670
1$
b00000000000000000000000001001100 %
0'
b11100110010110101111011000011101 (
0,
00
02
13
b00010011 4
05
17
08
0;
0A
b000000000 B
b100000000 C
1E
b000000010 F
b011111110 G
1K
1L
b11100110010110101111011000011101 O
b00000000000000000000000001001100 P
b00010010 V
b00000010 [
b00010010 ^
b00000000 a
1c
b00000000000000000000000001001010 e
1p
b00000000000000000000000001001100 r
1}
#675
0}
#680
1)
1.
b00010001 /
11
12
03
07
09
b000000001 B
b011111111 C
0K
0L
b00010011 \
1`
b00000001 a
0c
b00000000000000000000000010110010 e
1g
1q
1}
1"%
#685
0}
#690
b00000000000000000000000010100101 %
1'
b00000000000000000000000001001010 (
0)
1,
b00010011 -
0.
10
01
13
b00010100 4
15
b00010011 6
17
18
1;
1A
b000000001 F
b011111111 G
b00000000000000000000000001001010 O
b00000000000000000000000010100101 P
b00010001 X
0Z
b00000001 [
1c
b00000000000000000000000010100011 e
0g
0q
b00000000000000000000000010100101 r
1}
0"%
#695
0}
#700
0'
b11011001101001110110011100100011 (
1)
0,
1.
b00010010 /
00
11
03
05
07
08
0;
0A
b000000010 F
b011111110 G
b11011001101001110110011100100011 O
b00010011 V
1Z
b00000010 [
b00010100 \
b00010011 ^
0c
b00000000000000000000000011100100 e
1g
1q
1}
1"%
#705
0}
#710
b00000000000000000000000001001010 %
1'
b00000000000000000000000010100011 (
1,
b00010100 -
b00010011 /
10
02
13
b00010101 4
15
b00010100 6
17
18
1;
1A
b000000001 F
b011111111 G
b00000000000000000000000010100011 O
b00000000000000000000000001001010 P
b00010010 X
0Z
b00000001 [
1c
b00000000000000000000000010010100 e
b00000000000000000000000001001010 r
1}
#715
0}
#720
0$
b10010101010110100100010100001011 %
0'
b00011010010001001110010101100000 (
0)
0,
0.
00
01
03
05
07
08
0;
0A
0E
b00011010010001001110010101100000 O
b10010101010110100100010100001011 P
b00010100 V
b00010011 X
b00010101 \
b00010100 ^
0c
b00000000000000000000000010000001 e
0g
0p
0q
b10010101010110100100010100001011 r
1}
0"%
#725
0}
#730
1$
b00000000000000000000000010100011 %
1'
b00000000000000000000000010010100 (
1,
b00010101 -
10
12
15
b00010101 6
18
19
1;
1A
1E
b00000000000000000000000010010100 O
b00000000000000000000000010100011 P
b00000000000000000000000000001011 e
1p
b00000000000000000000000010100011 r
1}
#735
0}
#740
0'
b11010101101001111101111011101000 (
1)
0,
1.
b00010100 /
00
11
13
b00010110 4
05
17
08
0;
0A
b000000000 B
b100000000 C
b000000010 F
b011111110 G
1K
1L
b11010101101001111101111011101000 O
b00010101 V
1Z
b00000010 [
b00010101 ^
0`
b00000000 a
1c
b00000000000000000000000000100100 e
1g
1q
1}
1"%
#745
0}
#750
b00000000000000000000000010010100 %
b00010101 /
03
07
09
b000000001 B
b011111111 C
b000000001 F
b011111111 G
0K
0L
b00000000000000000000000010010100 P
b00010100 X
0Z
b00000001 [
b00010110 \
1`
b00000001 a
0c
b00000000000000000000000000111010 e
b00000000000000000000000010010100 r
1}
#755
0}
#760
0$
b01011000011010010010000000111010 %
1'
b00000000000000000000000000100100 (
1,
b00010110 -
0.
10
01
15
b00010110 6
18
19
1;
1A
0E
b000000000 F
b100000000 G
1H
1I
b00000000000000000000000000100100 O
b01011000011010010010000000111010 P
b00010101 X
b00000000 [
b00000000000000000000000011001110 e
0p
b01011000011010010010000000111010 r
1}
0"%
#765
0}
#770
0'
b11101110101110111011000011011110 (
0,
00
02
13
b00010111 4
05
17
08
0;
0A
b000000000 B
b100000000 C
b000000001 F
b011111111 G
0H
0I
1K
1L
b11101110101110111011000011011110 O
b00010110 V
1Z
b00000001 [
b00010110 ^
0`
b00000000 a
1c
b00000000000000000000000010110110 e
1}
#775
0}
#780
1$
b00000000000000000000000000100100 %
1.
b00010110 /
11
12
b00011000 4
b000000001 B
b011111111 C
1E
0K
0L
b00000000000000000000000000100100 P
b00010111 \
1`
b00000001 a
b00000000000000000000000001111110 e
1p
b00000000000000000000000000100100 r
1}
1"%
#785
0}
#790
0$
b10100101110111001111010010111001 %
1'
b00000000000000000000000010110110 (
1,
b00010111 -
0.
10
01
b00011001 4
15
b00010111 6
18
09
1;
1A
b000000010 B
b011111110 C
0E
b000000000 F
b100000000 G
1H
1I
b00000000000000000000000010110110 O
b10100101110111001111010010111001 P
b00010110 X
0Z
b00000000 [
b00011000 \
b00000010 a
b00000000000000000000000001111000 e
0p
b10100101110111001111010010111001 r
1}
0"%
#795
0}
#800
b00000000000000000000000001111110 (
0)
b00011000 -
b00011010 4
b00011000 6
b000000001 F
b011111111 G
0H
0I
b00000000000000000000000001111110 O
b00010111 V
1Z
b00000001 [
b00011001 \
b00010111 ^
b00000000000000000000000001110110 e
0g
0q
1}
#805
0}
#810
1$
b00000000000000000000000010110110 %
b00000000000000000000000001111000 (
b00011001 -
03
b00011001 6
07
19
1E
b000000010 F
b011111110 G
b00000000000000000000000001111000 O
b00000000000000000000000010110110 P
b00011000 V
b00000010 [
b00011010 \
b00011000 ^
0c
b00000000000000000000000000001000 e
1p
b00000000000000000000000010110110 r
1}
#815
0}
#820
b00000000000000000000000001110110 (
b00011010 -
b00011010 6
b000000001 B
b011111111 C
b000000011 F
b011111101 G
b00000000000000000000000001110110 O
b00011001 V
b00000011 [
b00011001 ^
0`
b00000001 a
b00000000000000000000000000100110 e
1}
#825
0}
#830
0'
b11101000111100111001110001111000 (
1)
0,
1.
b00010111 /
00
11
13
b00011011 4
05
17
08
0;
0A
b000000000 B
b100000000 C
b000000100 F
b011111100 G
1K
1L
b11101000111100111001110001111000 O
b00011010 V
b00000100 [
b00011010 ^
b00000000 a
1c
b00000000000000000000000000001111 e
1g
1q
1}
1"%
#835
0}
#840
b00000000000000000000000001111110 %
0)
0.
01
02
b00011100 4
b000000001 B
b011111111 C
b000000011 F
b011111101 G
0K
0L
b00000000000000000000000001111110 P
b00010111 X
0Z
b00000011 [
b00011011 \
1`
b00000001 a
b00000000000000000000000011100010 e
0g
0q
b00000000000000000000000001111110 r
1}
0"%
#845
0}
#850
1'
b00000000000000000000000000001111 (
1,
b00011011 -
10
12
03
15
b00011011 6
07
18
1;
1A
b000000010 B
b011111110 C
b00000000000000000000000000001111 O
b00011100 \
b00000010 a
0c
b00000000000000000000000010100100 e
1}
#855
0}
