simWorkspace/Stream2Axi4WriteOnlyMasterInterfaceAddFifo/test.vcd
$version Generated by VerilatedVcd $end
$date Mon Dec 27 20:12:55 2021
 $end
$timescale   1ns $end

 $scope module TOP $end
  $var wire  1 } aclk $end
  $var wire  1 x aresetn $end
  $var wire  8 z burstLen [7:0] $end
  $var wire 32 h m_axi_awaddr [31:0] $end
  $var wire  2 l m_axi_awburst [1:0] $end
  $var wire  4 m m_axi_awcache [3:0] $end
  $var wire  8 j m_axi_awlen [7:0] $end
  $var wire  3 o m_axi_awprot [2:0] $end
  $var wire  4 n m_axi_awqos [3:0] $end
  $var wire  1 g m_axi_awready $end
  $var wire  4 i m_axi_awregion [3:0] $end
  $var wire  3 k m_axi_awsize [2:0] $end
  $var wire  1 f m_axi_awvalid $end
  $var wire  1 v m_axi_bready $end
  $var wire  2 w m_axi_bresp [1:0] $end
  $var wire  1 u m_axi_bvalid $end
  $var wire 32 r m_axi_wdata [31:0] $end
  $var wire  1 t m_axi_wlast $end
  $var wire  1 q m_axi_wready $end
  $var wire  4 s m_axi_wstrb [3:0] $end
  $var wire  1 p m_axi_wvalid $end
  $var wire 32 { offset [31:0] $end
  $var wire 32 e s_axis_payload [31:0] $end
  $var wire  1 d s_axis_ready $end
  $var wire  1 c s_axis_valid $end
  $var wire  1 y start $end
  $var wire  1 | transInterrupt $end
  $scope module Stream2Axi4WriteOnlyMasterInterfaceAddFifo $end
   $var wire  1 } aclk $end
   $var wire  1 x aresetn $end
   $var wire 32 { axi4Interconnection_m_axi_awaddr [31:0] $end
   $var wire  2 "( axi4Interconnection_m_axi_awburst [1:0] $end
   $var wire  4 "& axi4Interconnection_m_axi_awcache [3:0] $end
   $var wire  8 ~ axi4Interconnection_m_axi_awlen [7:0] $end
   $var wire  3 ") axi4Interconnection_m_axi_awprot [2:0] $end
   $var wire  4 "& axi4Interconnection_m_axi_awqos [3:0] $end
   $var wire  4 "& axi4Interconnection_m_axi_awregion [3:0] $end
   $var wire  3 "' axi4Interconnection_m_axi_awsize [2:0] $end
   $var wire  1 R axi4Interconnection_m_axi_awvalid $end
   $var wire  1 S axi4Interconnection_m_axi_bready $end
   $var wire 32 % axi4Interconnection_m_axi_wdata [31:0] $end
   $var wire  1 & axi4Interconnection_m_axi_wlast $end
   $var wire  4 "* axi4Interconnection_m_axi_wstrb [3:0] $end
   $var wire  1 $ axi4Interconnection_m_axi_wvalid $end
   $var wire  1 # axi4Interconnection_s_axis_ready $end
   $var wire  1 N axi4Interconnection_transInterrupt $end
   $var wire  8 z burstLen [7:0] $end
   $var wire  9 C fifoInstance_io_availability [8:0] $end
   $var wire  9 B fifoInstance_io_occupancy [8:0] $end
   $var wire 32 O fifoInstance_io_pop_payload [31:0] $end
   $var wire  1 A fifoInstance_io_pop_valid $end
   $var wire  1 @ fifoInstance_io_push_ready $end
   $var wire 32 h m_axi_awaddr [31:0] $end
   $var wire  2 l m_axi_awburst [1:0] $end
   $var wire  4 m m_axi_awcache [3:0] $end
   $var wire  8 j m_axi_awlen [7:0] $end
   $var wire  3 o m_axi_awprot [2:0] $end
   $var wire  4 n m_axi_awqos [3:0] $end
   $var wire  1 g m_axi_awready $end
   $var wire  4 i m_axi_awregion [3:0] $end
   $var wire  3 k m_axi_awsize [2:0] $end
   $var wire  1 f m_axi_awvalid $end
   $var wire  1 v m_axi_bready $end
   $var wire  2 w m_axi_bresp [1:0] $end
   $var wire  1 u m_axi_bvalid $end
   $var wire 32 r m_axi_wdata [31:0] $end
   $var wire  1 t m_axi_wlast $end
   $var wire  1 q m_axi_wready $end
   $var wire  4 s m_axi_wstrb [3:0] $end
   $var wire  1 p m_axi_wvalid $end
   $var wire 32 { offset [31:0] $end
   $var wire 32 e s_axis_payload [31:0] $end
   $var wire  1 d s_axis_ready $end
   $var wire  1 c s_axis_valid $end
   $var wire  1 y start $end
   $var wire  1 | transInterrupt $end
   $scope module axi4Interconnection $end
    $var wire  1 } aclk $end
    $var wire  1 x aresetn $end
    $var wire  1 R axi4Interface_controlAwValidSignal $end
    $var wire  1 S axi4Interface_controlBReady $end
    $var wire  1 "$ axi4Interface_full_aw_fire $end
    $var wire  1 "! axi4Interface_full_b_fire $end
    $var wire  1 "! axi4Interface_full_b_fire_1 $end
    $var wire  1 "! axi4Interface_full_b_fire_2 $end
    $var wire  1 "! axi4Interface_full_b_fire_3 $end
    $var wire  1 "! axi4Interface_full_b_fire_4 $end
    $var wire  1 "% axi4Interface_full_w_fire $end
    $var wire  1 N axi4Interface_isBurstComplete $end
    $var wire  1 T axi4Interface_isTransferAfterReset $end
    $var wire  1 U axi4Interface_lastBurstComplete $end
    $var wire  1 : axi4Interface_resetStartSendSignal $end
    $var wire 32 "+ axi4Interface_transferDataType [31:0] $end
    $var wire  8 z burstLen [7:0] $end
    $var wire 32 { m_axi_awaddr [31:0] $end
    $var wire  2 "( m_axi_awburst [1:0] $end
    $var wire  4 "& m_axi_awcache [3:0] $end
    $var wire  8 ~ m_axi_awlen [7:0] $end
    $var wire  3 ") m_axi_awprot [2:0] $end
    $var wire  4 "& m_axi_awqos [3:0] $end
    $var wire  1 g m_axi_awready $end
    $var wire  4 "& m_axi_awregion [3:0] $end
    $var wire  3 "' m_axi_awsize [2:0] $end
    $var wire  1 R m_axi_awvalid $end
    $var wire  1 S m_axi_bready $end
    $var wire  2 w m_axi_bresp [1:0] $end
    $var wire  1 u m_axi_bvalid $end
    $var wire 32 % m_axi_wdata [31:0] $end
    $var wire  1 & m_axi_wlast $end
    $var wire  1 Q m_axi_wlast_regNext $end
    $var wire  1 q m_axi_wready $end
    $var wire  4 "* m_axi_wstrb [3:0] $end
    $var wire  1 $ m_axi_wvalid $end
    $var wire 32 { offset [31:0] $end
    $var wire 32 O s_axis_payload [31:0] $end
    $var wire  1 # s_axis_ready $end
    $var wire  1 A s_axis_valid $end
    $var wire  1 y start $end
    $var wire  1 b startSendSignal $end
    $var wire  9 G streamFifo_2_io_availability [8:0] $end
    $var wire  9 F streamFifo_2_io_occupancy [8:0] $end
    $var wire 32 P streamFifo_2_io_pop_payload [31:0] $end
    $var wire  1 ) streamFifo_2_io_pop_ready $end
    $var wire  1 E streamFifo_2_io_pop_valid $end
    $var wire  1 ; streamFifo_2_io_push_fire $end
    $var wire 32 ( streamFifo_2_io_push_payload [31:0] $end
    $var wire  1 D streamFifo_2_io_push_ready $end
    $var wire  1 ' streamFifo_2_io_push_valid $end
    $var wire  1 N transInterrupt $end
    $var wire  1 "" when_Axi4WriteOnlyMaster_l119 $end
    $var wire  1 "# when_Axi4WriteOnlyMaster_l122 $end
    $var wire  1 + when_Axi4WriteOnlyMaster_l156 $end
    $var wire  1 * when_Axi4WriteOnlyMaster_l93 $end
    $scope module streamFifo_2 $end
     $var wire  1 } aclk $end
     $var wire  1 x aresetn $end
     $var wire  9 G io_availability [8:0] $end
     $var wire  1 ", io_flush $end
     $var wire  9 F io_occupancy [8:0] $end
     $var wire 32 P io_pop_payload [31:0] $end
     $var wire  1 ) io_pop_ready $end
     $var wire  1 E io_pop_valid $end
     $var wire 32 ( io_push_payload [31:0] $end
     $var wire  1 D io_push_ready $end
     $var wire  1 ' io_push_valid $end
     $var wire  1 I logic_empty $end
     $var wire  1 J logic_full $end
     $var wire  8 X logic_popPtr_value [7:0] $end
     $var wire  8 / logic_popPtr_valueNext [7:0] $end
     $var wire  1 ", logic_popPtr_willClear $end
     $var wire  1 . logic_popPtr_willIncrement $end
     $var wire  1 = logic_popPtr_willOverflow $end
     $var wire  1 Y logic_popPtr_willOverflowIfInc $end
     $var wire  1 1 logic_popping $end
     $var wire  8 [ logic_ptrDif [7:0] $end
     $var wire  1 H logic_ptrMatch $end
     $var wire  8 V logic_pushPtr_value [7:0] $end
     $var wire  8 - logic_pushPtr_valueNext [7:0] $end
     $var wire  1 ", logic_pushPtr_willClear $end
     $var wire  1 , logic_pushPtr_willIncrement $end
     $var wire  1 < logic_pushPtr_willOverflow $end
     $var wire  1 W logic_pushPtr_willOverflowIfInc $end
     $var wire  1 0 logic_pushing $end
     $var wire  1 Z logic_risingOccupancy $end
     $var wire  1 2 when_Stream_l946 $end
    $upscope $end
   $upscope $end
   $scope module fifoInstance $end
    $var wire  1 } aclk $end
    $var wire  1 x aresetn $end
    $var wire  9 C io_availability [8:0] $end
    $var wire  1 ", io_flush $end
    $var wire  9 B io_occupancy [8:0] $end
    $var wire 32 O io_pop_payload [31:0] $end
    $var wire  1 # io_pop_ready $end
    $var wire  1 A io_pop_valid $end
    $var wire 32 e io_push_payload [31:0] $end
    $var wire  1 @ io_push_ready $end
    $var wire  1 c io_push_valid $end
    $var wire  1 L logic_empty $end
    $var wire  1 M logic_full $end
    $var wire  8 ^ logic_popPtr_value [7:0] $end
    $var wire  8 6 logic_popPtr_valueNext [7:0] $end
    $var wire  1 ", logic_popPtr_willClear $end
    $var wire  1 5 logic_popPtr_willIncrement $end
    $var wire  1 ? logic_popPtr_willOverflow $end
    $var wire  1 _ logic_popPtr_willOverflowIfInc $end
    $var wire  1 8 logic_popping $end
    $var wire  8 a logic_ptrDif [7:0] $end
    $var wire  1 K logic_ptrMatch $end
    $var wire  8 \ logic_pushPtr_value [7:0] $end
    $var wire  8 4 logic_pushPtr_valueNext [7:0] $end
    $var wire  1 ", logic_pushPtr_willClear $end
    $var wire  1 3 logic_pushPtr_willIncrement $end
    $var wire  1 > logic_pushPtr_willOverflow $end
    $var wire  1 ] logic_pushPtr_willOverflowIfInc $end
    $var wire  1 7 logic_pushing $end
    $var wire  1 ` logic_risingOccupancy $end
    $var wire  1 9 when_Stream_l946 $end
   $upscope $end
  $upscope $end
 $upscope $end
$enddefinitions $end


#0
0#
0$
b00011000000100111010010100110001 %
0&
0'
b10111101001101001001110011000010 (
0)
0*
0+
0,
b00000000 -
0.
b00000000 /
00
01
02
03
b00000000 4
05
b00000000 6
07
08
09
1:
0;
0<
0=
0>
0?
1@
0A
b000000000 B
b100000000 C
1D
0E
b000000000 F
b100000000 G
1H
1I
0J
1K
1L
0M
1N
b10111101001101001001110011000010 O
b00011000000100111010010100110001 P
1Q
0R
0S
1T
0U
b00000000 V
0W
b00000000 X
0Y
0Z
b00000000 [
b00000000 \
0]
b00000000 ^
0_
0`
b00000000 a
0b
0c
1d
b00000000000000000000000000100000 e
0f
0g
b00000000000000000000000000000000 h
b0000 i
b01111111 j
b010 k
b01 l
b0000 m
b0000 n
b000 o
0p
0q
b00011000000100111010010100110001 r
b1111 s
0t
0u
0v
b00 w
0x
0y
b10000000 z
b00000000000000000000000000000000 {
1|
0}
b01111111 ~
0"!
1""
0"#
0"$
0"%
b0000 "&
b010 "'
b01 "(
b000 ")
b1111 "*
b11001101000000110001001000010010 "+
0",
#160
1x
#170
b01011011100110011011100011010010 %
b01001101100010001111100100101000 (
0:
0N
b01001101100010001111100100101000 O
b01011011100110011011100011010010 P
0Q
0T
1U
b01011011100110011011100011010010 r
0|
1}
0""
#175
0}
#180
1}
#185
0}
#190
1#
1*
1+
1b
1y
1}
1"#
#195
b00000000000000000000000001011101 e
0y
0}
#200
1)
1R
0U
b00000000000000000000000010010110 e
1f
1g
1q
1}
1"$
#205
0}
#210
0)
0R
b00000000000000000000000011100011 e
0f
0g
0q
1}
0"$
#215
0}
#220
1)
13
b00000001 4
17
19
1c
b00000000000000000000000011110011 e
1g
1q
1}
#225
0}
#230
b00000010 4
b000000001 B
b011111111 C
0K
0L
b00000001 \
1`
b00000001 a
b00000000000000000000000011010100 e
1}
#235
0}
#240
1'
b00000000000000000000000011110011 (
1,
b00000001 -
10
12
03
15
b00000001 6
07
18
1;
1A
b000000010 B
b011111110 C
b00000000000000000000000011110011 O
b00000010 \
b00000010 a
0c
b00000000000000000000000001101010 e
1}
#245
0}
#250
b00000000000000000000000011010100 (
b00000010 -
b00000010 6
b000000001 B
b011111111 C
b000000001 F
b011111111 G
0H
0I
b00000000000000000000000011010100 O
b00000001 V
1Z
b00000001 [
b00000001 ^
0`
b00000001 a
b00000000000000000000000011101000 e
1}
#255
0}
#260
1$
b00000000000000000000000011110011 %
0'
b00101001110100100110111111011110 (
0,
1.
b00000001 /
00
11
05
08
09
0;
0A
b000000000 B
b100000000 C
1E
b000000010 F
b011111110 G
1K
1L
b00101001110100100110111111011110 O
b00000000000000000000000011110011 P
b00000010 V
b00000010 [
b00000010 ^
b00000000 a
b00000000000000000000000000110010 e
1p
b00000000000000000000000011110011 r
1}
1"%
#265
0}
#270
b00000000000000000000000011010100 %
b00000010 /
b000000001 F
b011111111 G
b00000000000000000000000011010100 P
1S
b00000001 X
0Z
b00000001 [
b00000000000000000000000010010110 e
b00000000000000000000000011010100 r
1v
1}
#275
0}
#280
0$
b11111000000010000010001011001000 %
0.
01
02
13
b00000011 4
17
19
0E
b000000000 F
b100000000 G
1H
1I
b11111000000010000010001011001000 P
b00000010 X
b00000000 [
1c
b00000000000000000000000010001001 e
0p
b11111000000010000010001011001000 r
1}
0"%
#285
0}
#290
0)
b00000100 4
b000000001 B
b011111111 C
0K
0L
b00000011 \
1`
b00000001 a
b00000000000000000000000010000011 e
0g
0q
1}
#295
0}
#300
1'
b00000000000000000000000010001001 (
1)
1,
b00000011 -
10
12
03
15
b00000011 6
07
18
1;
1A
b000000010 B
b011111110 C
b00000000000000000000000010001001 O
b00000100 \
b00000010 a
0c
b00000000000000000000000001001000 e
1g
1q
1}
#305
0}
#310
b00000000000000000000000010000011 (
0)
b00000100 -
13
b00000101 4
b00000100 6
17
09
b000000001 B
b011111111 C
b000000001 F
b011111111 G
0H
0I
b00000000000000000000000010000011 O
b00000011 V
1Z
b00000001 [
b00000011 ^
0`
b00000001 a
1c
b00000000000000000000000011000101 e
0g
0q
1}
#315
0}
#320
1$
b00000000000000000000000010001001 %
0'
b10011001100001101110101000100000 (
1)
0,
1.
b00000011 /
00
11
03
05
07
08
0;
0A
1E
b000000010 F
b011111110 G
b10011001100001101110101000100000 O
b00000000000000000000000010001001 P
b00000100 V
b00000010 [
b00000101 \
b00000100 ^
0c
b00000000000000000000000011101000 e
1g
1p
1q
b00000000000000000000000010001001 r
1}
1"%
#325
0}
#330
b00000000000000000000000010000011 %
1'
b00000000000000000000000011000101 (
1,
b00000101 -
b00000100 /
10
02
13
b00000110 4
15
b00000101 6
17
18
1;
1A
b000000001 F
b011111111 G
b00000000000000000000000011000101 O
b00000000000000000000000010000011 P
b00000011 X
0Z
b00000001 [
1c
b00000000000000000000000000000111 e
b00000000000000000000000010000011 r
1}
#335
0}
#340
0$
b10111111101101000011110101110111 %
0'
b01000100100100000001100001001100 (
0)
0,
0.
00
01
03
05
07
08
0;
0A
0E
b01000100100100000001100001001100 O
b10111111101101000011110101110111 P
b00000101 V
b00000100 X
b00000110 \
b00000101 ^
0c
b00000000000000000000000010001101 e
0g
0p
0q
b10111111101101000011110101110111 r
1}
0"%
#345
0}
#350
1$
b00000000000000000000000011000101 %
1'
b00000000000000000000000000000111 (
1)
1,
b00000110 -
1.
b00000101 /
10
11
13
b00000111 4
15
b00000110 6
17
18
1;
1A
1E
b00000000000000000000000000000111 O
b00000000000000000000000011000101 P
1c
b00000000000000000000000010001100 e
1g
1p
1q
b00000000000000000000000011000101 r
1}
1"%
#355
0}
#360
0$
b01100001111101000101010111100110 %
0'
b11010100101011000000001000110101 (
0,
0.
00
01
b00001000 4
05
08
19
0;
0A
0E
b11010100101011000000001000110101 O
b01100001111101000101010111100110 P
b00000110 V
b00000101 X
b00000111 \
b00000110 ^
b00000000000000000000000000001000 e
0p
b01100001111101000101010111100110 r
1}
0"%
#365
0}
#370
1$
b00000000000000000000000000000111 %
1'
b00000000000000000000000010001100 (
0)
1,
b00000111 -
10
12
b00001001 4
15
b00000111 6
18
09
1;
1A
b000000010 B
b011111110 C
1E
b00000000000000000000000010001100 O
b00000000000000000000000000000111 P
b00001000 \
1`
b00000010 a
0g
1p
0q
b00000000000000000000000000000111 r
1}
#375
0}
#380
b00000000000000000000000000001000 (
b00001000 -
03
b00001000 6
07
19
b000000010 F
b011111110 G
b00000000000000000000000000001000 O
b00000111 V
1Z
b00000010 [
b00001001 \
b00000111 ^
0c
b00000000000000000000000001011110 e
1}
#385
0}
#390
b00001001 -
13
b00001010 4
b00001001 6
17
09
b000000001 B
b011111111 C
b000000011 F
b011111101 G
b00001000 V
b00000011 [
b00001000 ^
0`
b00000001 a
1c
b00000000000000000000000000001010 e
1}
#395
0}
#400
0'
b01001110001111010011101011111110 (
0,
00
02
b00001011 4
05
08
19
0;
0A
b000000100 F
b011111100 G
b01001110001111010011101011111110 O
b00001001 V
b00000100 [
b00001010 \
b00001001 ^
b00000000000000000000000001011100 e
1}
#405
0}
#410
1'
b00000000000000000000000000001010 (
1,
b00001010 -
10
12
b00001100 4
15
b00001010 6
18
09
1;
1A
b000000010 B
b011111110 C
b00000000000000000000000000001010 O
b00001011 \
1`
b00000010 a
b00000000000000000000000001101010 e
1}
#415
0}
#420
b00000000000000000000000001011100 (
b00001011 -
03
b00001011 6
07
19
b000000101 F
b011111011 G
b00000000000000000000000001011100 O
b00001010 V
b00000101 [
b00001100 \
b00001010 ^
0c
b00000000000000000000000011101001 e
1}
#425
0}
#430
b00000000000000000000000001101010 (
b00001100 -
13
b00001101 4
b00001100 6
17
09
b000000001 B
b011111111 C
b000000110 F
b011111010 G
b00000000000000000000000001101010 O
b00001011 V
b00000110 [
b00001011 ^
0`
b00000001 a
1c
b00000000000000000000000011001010 e
1}
#435
0}
#440
0'
b10011011001011011100011010010011 (
0,
00
02
03
05
07
08
0;
0A
b000000111 F
b011111001 G
b10011011001011011100011010010011 O
b00001100 V
b00000111 [
b00001101 \
b00001100 ^
0c
b00000000000000000000000010001001 e
1}
#445
0}
#450
1'
b00000000000000000000000011001010 (
1,
b00001101 -
10
12
13
b00001110 4
15
b00001101 6
17
18
1;
1A
b00000000000000000000000011001010 O
1c
b00000000000000000000000010111110 e
1}
#455
0}
#460
0'
b11010010110001111011101011011010 (
1)
0,
1.
b00000110 /
00
11
03
05
07
08
0;
0A
b000001000 F
b011111000 G
b11010010110001111011101011011010 O
b00001101 V
b00001000 [
b00001110 \
b00001101 ^
0c
b00000000000000000000000010010111 e
1g
1q
1}
1"%
#465
0}
#470
b00000000000000000000000010001100 %
1'
b00000000000000000000000010111110 (
1,
b00001110 -
b00000111 /
10
02
13
b00001111 4
15
b00001110 6
17
18
1;
1A
b000000111 F
b011111001 G
b00000000000000000000000010111110 O
b00000000000000000000000010001100 P
b00000110 X
0Z
b00000111 [
1c
b00000000000000000000000000000000 e
b00000000000000000000000010001100 r
1}
#475
0}
#480
b00000000000000000000000000001000 %
0'
b10000110000101011110100001111000 (
0,
b00001000 /
00
12
03
05
07
08
0;
0A
b10000110000101011110100001111000 O
b00000000000000000000000000001000 P
b00001110 V
b00000111 X
b00001111 \
b00001110 ^
0c
b00000000000000000000000011101001 e
b00000000000000000000000000001000 r
1}
#485
0}
#490
1'
b00000000000000000000000000000000 (
0)
1,
b00001111 -
0.
10
01
13
b00010000 4
15
b00001111 6
17
18
1;
1A
b000000110 F
b011111010 G
b00000000000000000000000000000000 O
b00001000 X
b00000110 [
1c
b00000000000000000000000010110100 e
0g
0q
1}
0"%
#495
0}
#500
0'
b11101000101010011110001110110111 (
0,
00
02
b00010001 4
05
08
19
0;
0A
b000000111 F
b011111001 G
b11101000101010011110001110110111 O
b00001111 V
1Z
b00000111 [
b00010000 \
b00001111 ^
1}
#505
0}
#510
1'
b00000000000000000000000010110100 (
1,
b00010000 -
10
12
03
15
b00010000 6
07
18
1;
1A
b000000010 B
b011111110 C
b00000000000000000000000010110100 O
b00010001 \
1`
b00000010 a
0c
b00000000000000000000000001011100 e
1}
#515
0}
#520
1)
b00010001 -
1.
b00001001 /
11
02
13
b00010010 4
b00010001 6
17
09
b000000001 B
b011111111 C
b000001000 F
b011111000 G
b00010000 V
b00001000 [
b00010000 ^
0`
b00000001 a
1c
b00000000000000000000000000111011 e
1g
1q
1}
1"%
#525
0}
#530
b00000000000000000000000000001010 %
0'
b00001000101011111101100111010100 (
0,
b00001010 /
00
12
03
05
07
08
0;
0A
b00001000101011111101100111010100 O
b00000000000000000000000000001010 P
b00010001 V
b00001001 X
b00010010 \
b00010001 ^
0c
b00000000000000000000000001111010 e
b00000000000000000000000000001010 r
1}
#535
0}
#540
b00000000000000000000000001011100 %
1'
b00000000000000000000000000111011 (
0)
1,
b00010010 -
0.
10
01
15
b00010010 6
18
19
1;
1A
b000000111 F
b011111001 G
b00000000000000000000000000111011 O
b00000000000000000000000001011100 P
b00001010 X
0Z
b00000111 [
b00000000000000000000000000101001 e
0g
0q
b00000000000000000000000001011100 r
1}
0"%
#545
0}
#550
0'
b10100110000001010100010000001001 (
1)
0,
1.
b00001011 /
00
11
05
08
09
0;
0A
b000000000 B
b100000000 C
b000001000 F
b011111000 G
1K
1L
b10100110000001010100010000001001 O
b00010010 V
1Z
b00001000 [
b00010010 ^
b00000000 a
b00000000000000000000000011010010 e
1g
1q
1}
1"%
#555
0}
#560
b00000000000000000000000001101010 %
0)
0.
01
02
13
b00010011 4
17
19
b000000111 F
b011111001 G
b00000000000000000000000001101010 P
b00001011 X
0Z
b00000111 [
1c
b00000000000000000000000000010100 e
0g
0q
b00000000000000000000000001101010 r
1}
0"%
#565
0}
#570
03
07
09
b000000001 B
b011111111 C
0K
0L
b00010011 \
1`
b00000001 a
0c
b00000000000000000000000011110001 e
1}
#575
0}
#580
1'
b00000000000000000000000000010100 (
1)
1,
b00010011 -
1.
b00001100 /
10
11
13
b00010100 4
15
b00010011 6
17
18
1;
1A
b00000000000000000000000000010100 O
1c
b00000000000000000000000011111100 e
1g
1q
1}
1"%
#585
0}
#590
b00000000000000000000000011001010 %
0'
b11010100111101101001010011101111 (
0,
b00001101 /
00
12
b00010101 4
05
08
19
0;
0A
b11010100111101101001010011101111 O
b00000000000000000000000011001010 P
b00010011 V
b00001100 X
b00010100 \
b00010011 ^
b00000000000000000000000000000101 e
b00000000000000000000000011001010 r
1}
#595
0}
#600
b00000000000000000000000010111110 %
1'
b00000000000000000000000011111100 (
0)
1,
b00010100 -
0.
10
01
03
15
b00010100 6
07
18
1;
1A
b000000010 B
b011111110 C
b000000110 F
b011111010 G
b00000000000000000000000011111100 O
b00000000000000000000000010111110 P
b00001101 X
b00000110 [
b00010101 \
b00000010 a
0c
b00000000000000000000000001111110 e
0g
0q
b00000000000000000000000010111110 r
1}
0"%
#605
0}
#610
b00000000000000000000000000000101 (
b00010101 -
b00010101 6
b000000001 B
b011111111 C
b000000111 F
b011111001 G
b00000000000000000000000000000101 O
b00010100 V
1Z
b00000111 [
b00010100 ^
0`
b00000001 a
b00000000000000000000000011011110 e
1}
#615
0}
#620
0'
b00010010000101101001110101110100 (
1)
0,
1.
b00001110 /
00
11
13
b00010110 4
05
17
08
0;
0A
b000000000 B
b100000000 C
b000001000 F
b011111000 G
1K
1L
b00010010000101101001110101110100 O
b00010101 V
b00001000 [
b00010101 ^
b00000000 a
1c
b00000000000000000000000000010111 e
1g
1q
1}
1"%
#625
0}
#630
b00000000000000000000000000000000 %
b00001111 /
03
07
09
b000000001 B
b011111111 C
b000000111 F
b011111001 G
0K
0L
b00000000000000000000000000000000 P
b00001110 X
0Z
b00000111 [
b00010110 \
1`
b00000001 a
0c
b00000000000000000000000011111101 e
b00000000000000000000000000000000 r
1}
#635
0}
#640
b00000000000000000000000010110100 %
1'
b00000000000000000000000000010111 (
1,
b00010110 -
b00010000 /
10
02
13
b00010111 4
15
b00010110 6
17
18
1;
1A
b000000110 F
b011111010 G
b00000000000000000000000000010111 O
b00000000000000000000000010110100 P
b00001111 X
b00000110 [
1c
b00000000000000000000000010110110 e
b00000000000000000000000010110100 r
1}
#645
0}
#650
0'
b11011110101100110101000001001010 (
0)
0,
0.
00
01
b00011000 4
05
08
19
0;
0A
b11011110101100110101000001001010 O
b00010110 V
b00010000 X
b00010111 \
b00010110 ^
b00000000000000000000000000110011 e
0g
0q
1}
0"%
#655
0}
#660
1'
b00000000000000000000000010110110 (
1,
b00010111 -
10
12
b00011001 4
15
b00010111 6
18
09
1;
1A
b000000010 B
b011111110 C
b00000000000000000000000010110110 O
b00011000 \
b00000010 a
b00000000000000000000000001100111 e
1}
#665
0}
#670
b00000000000000000000000000110011 (
1)
b00011000 -
1.
b00010001 /
11
02
03
b00011000 6
07
19
b000000111 F
b011111001 G
b00000000000000000000000000110011 O
b00010111 V
1Z
b00000111 [
b00011001 \
b00010111 ^
0c
b00000000000000000000000000010011 e
1g
1q
1}
1"%
#675
0}
#680
b00000000000000000000000000111011 %
b00000000000000000000000001100111 (
b00011001 -
b00010010 /
13
b00011010 4
b00011001 6
17
09
b000000001 B
b011111111 C
b00000000000000000000000001100111 O
b00000000000000000000000000111011 P
b00011000 V
b00010001 X
b00011000 ^
0`
b00000001 a
1c
b00000000000000000000000001101100 e
b00000000000000000000000000111011 r
1}
#685
0}
#690
b00000000000000000000000000010100 %
0'
b00000011110110011110111100010010 (
0,
b00010011 /
00
12
b00011011 4
05
08
19
0;
0A
b00000011110110011110111100010010 O
b00000000000000000000000000010100 P
b00011001 V
b00010010 X
b00011010 \
b00011001 ^
b00000000000000000000000001001101 e
b00000000000000000000000000010100 r
1}
#695
0}
#700
b00000000000000000000000011111100 %
1'
b00000000000000000000000001101100 (
0)
1,
b00011010 -
0.
10
01
03
15
b00011010 6
07
18
1;
1A
b000000010 B
b011111110 C
b000000110 F
b011111010 G
b00000000000000000000000001101100 O
b00000000000000000000000011111100 P
b00010011 X
0Z
b00000110 [
b00011011 \
1`
b00000010 a
0c
b00000000000000000000000010001100 e
0g
0q
b00000000000000000000000011111100 r
1}
0"%
#705
0}
#710
b00000000000000000000000001001101 (
b00011011 -
b00011011 6
b000000001 B
b011111111 C
b000000111 F
b011111001 G
b00000000000000000000000001001101 O
b00011010 V
1Z
b00000111 [
b00011010 ^
0`
b00000001 a
b00000000000000000000000010101010 e
1}
#715
0}
#720
0'
b10000000111111111111001101000110 (
0,
00
02
05
08
09
0;
0A
b000000000 B
b100000000 C
b000001000 F
b011111000 G
1K
1L
b10000000111111111111001101000110 O
b00011011 V
b00001000 [
b00011011 ^
b00000000 a
b00000000000000000000000010011111 e
1}
#725
0}
#730
1)
1.
b00010100 /
11
12
13
b00011100 4
17
19
1c
b00000000000000000000000001111110 e
1g
1q
1}
1"%
#735
0}
#740
b00000000000000000000000000000101 %
0)
0.
01
02
b00011101 4
b000000001 B
b011111111 C
b000000111 F
b011111001 G
0K
0L
b00000000000000000000000000000101 P
b00010100 X
0Z
b00000111 [
b00011100 \
1`
b00000001 a
b00000000000000000000000001111001 e
0g
0q
b00000000000000000000000000000101 r
1}
0"%
#745
0}
#750
1'
b00000000000000000000000001111110 (
1)
1,
b00011100 -
1.
b00010101 /
10
11
03
15
b00011100 6
07
18
1;
1A
b000000010 B
b011111110 C
b00000000000000000000000001111110 O
b00011101 \
b00000010 a
0c
b00000000000000000000000011101101 e
1g
1q
1}
1"%
#755
0}
#760
b00000000000000000000000000010111 %
b00000000000000000000000001111001 (
0)
b00011101 -
0.
01
12
b00011101 6
b000000001 B
b011111111 C
b00000000000000000000000001111001 O
b00000000000000000000000000010111 P
b00011100 V
b00010101 X
b00011100 ^
0`
b00000001 a
b00000000000000000000000001111000 e
0g
0q
b00000000000000000000000000010111 r
1}
0"%
#765
0}
#770
0'
b01100100011011011000010000011011 (
1)
0,
1.
b00010110 /
00
11
13
b00011110 4
05
17
08
0;
0A
b000000000 B
b100000000 C
b000001000 F
b011111000 G
1K
1L
b01100100011011011000010000011011 O
b00011101 V
1Z
b00001000 [
b00011101 ^
b00000000 a
1c
b00000000000000000000000011011111 e
1g
1q
1}
1"%
#775
0}
#780
b00000000000000000000000010110110 %
b00010111 /
b00011111 4
b000000001 B
b011111111 C
b000000111 F
b011111001 G
0K
0L
b00000000000000000000000010110110 P
b00010110 X
0Z
b00000111 [
b00011110 \
1`
b00000001 a
b00000000000000000000000010110101 e
b00000000000000000000000010110110 r
1}
#785
0}
#790
b00000000000000000000000000110011 %
1'
b00000000000000000000000011011111 (
1,
b00011110 -
b00011000 /
10
02
b00100000 4
15
b00011110 6
18
09
1;
1A
b000000010 B
b011111110 C
b000000110 F
b011111010 G
b00000000000000000000000011011111 O
b00000000000000000000000000110011 P
b00010111 X
b00000110 [
b00011111 \
b00000010 a
b00000000000000000000000011111111 e
b00000000000000000000000000110011 r
1}
#795
0}
#800
b00000000000000000000000001100111 %
b00000000000000000000000010110101 (
b00011111 -
b00011001 /
b00100001 4
b00011111 6
b00000000000000000000000010110101 O
b00000000000000000000000001100111 P
b00011110 V
b00011000 X
b00100000 \
b00011110 ^
b00000000000000000000000001111001 e
b00000000000000000000000001100111 r
1}
#805
0}
#810
b00000000000000000000000001101100 %
b00000000000000000000000011111111 (
b00100000 -
b00011010 /
b00100010 4
b00100000 6
b00000000000000000000000011111111 O
b00000000000000000000000001101100 P
b00011111 V
b00011001 X
b00100001 \
b00011111 ^
b00000000000000000000000011010000 e
b00000000000000000000000001101100 r
1}
#815
0}
#820
b00000000000000000000000001001101 %
b00000000000000000000000001111001 (
b00100001 -
b00011011 /
b00100011 4
b00100001 6
b00000000000000000000000001111001 O
b00000000000000000000000001001101 P
b00100000 V
b00011010 X
b00100010 \
b00100000 ^
b00000000000000000000000001111010 e
b00000000000000000000000001001101 r
1}
#825
0}
#830
b00000000000000000000000001111110 %
b00000000000000000000000011010000 (
b00100010 -
b00011100 /
b00100100 4
b00100010 6
b00000000000000000000000011010000 O
b00000000000000000000000001111110 P
b00100001 V
b00011011 X
b00100011 \
b00100001 ^
b00000000000000000000000011010100 e
b00000000000000000000000001111110 r
1}
#835
0}
