simWorkspace/Stream2Axi4WriteOnlyMasterInterfaceAddFifo/test.vcd
$version Generated by VerilatedVcd $end
$date Wed Dec 29 16:00:52 2021
 $end
$timescale   1ns $end

 $scope module TOP $end
  $var wire  1 "! aclk $end
  $var wire  1 z aresetn $end
  $var wire  8 | burstLen [7:0] $end
  $var wire 32 j m_axi_awaddr [31:0] $end
  $var wire  2 n m_axi_awburst [1:0] $end
  $var wire  4 o m_axi_awcache [3:0] $end
  $var wire  8 l m_axi_awlen [7:0] $end
  $var wire  3 q m_axi_awprot [2:0] $end
  $var wire  4 p m_axi_awqos [3:0] $end
  $var wire  1 i m_axi_awready $end
  $var wire  4 k m_axi_awregion [3:0] $end
  $var wire  3 m m_axi_awsize [2:0] $end
  $var wire  1 h m_axi_awvalid $end
  $var wire  1 x m_axi_bready $end
  $var wire  2 y m_axi_bresp [1:0] $end
  $var wire  1 w m_axi_bvalid $end
  $var wire 32 t m_axi_wdata [31:0] $end
  $var wire  1 v m_axi_wlast $end
  $var wire  1 s m_axi_wready $end
  $var wire  4 u m_axi_wstrb [3:0] $end
  $var wire  1 r m_axi_wvalid $end
  $var wire 32 } offset [31:0] $end
  $var wire 32 g s_axis_payload [31:0] $end
  $var wire  1 f s_axis_ready $end
  $var wire  1 e s_axis_valid $end
  $var wire  1 { start $end
  $var wire  1 ~ transInterrupt $end
  $scope module Stream2Axi4WriteOnlyMasterInterfaceAddFifo $end
   $var wire  1 "! aclk $end
   $var wire  1 z aresetn $end
   $var wire 32 } axi4Interconnection_m_axi_awaddr [31:0] $end
   $var wire  2 ") axi4Interconnection_m_axi_awburst [1:0] $end
   $var wire  4 "' axi4Interconnection_m_axi_awcache [3:0] $end
   $var wire  8 S axi4Interconnection_m_axi_awlen [7:0] $end
   $var wire  3 "* axi4Interconnection_m_axi_awprot [2:0] $end
   $var wire  4 "' axi4Interconnection_m_axi_awqos [3:0] $end
   $var wire  4 "' axi4Interconnection_m_axi_awregion [3:0] $end
   $var wire  3 "( axi4Interconnection_m_axi_awsize [2:0] $end
   $var wire  1 R axi4Interconnection_m_axi_awvalid $end
   $var wire  1 T axi4Interconnection_m_axi_bready $end
   $var wire 32 C axi4Interconnection_m_axi_wdata [31:0] $end
   $var wire  1 / axi4Interconnection_m_axi_wlast $end
   $var wire  4 "+ axi4Interconnection_m_axi_wstrb [3:0] $end
   $var wire  1 B axi4Interconnection_m_axi_wvalid $end
   $var wire  1 A axi4Interconnection_s_axis_ready $end
   $var wire  1 N axi4Interconnection_transInterrupt $end
   $var wire  8 | burstLen [7:0] $end
   $var wire  9 3 fifoInstance_io_availability [8:0] $end
   $var wire  9 2 fifoInstance_io_occupancy [8:0] $end
   $var wire 32 O fifoInstance_io_pop_payload [31:0] $end
   $var wire  1 1 fifoInstance_io_pop_valid $end
   $var wire  1 0 fifoInstance_io_push_ready $end
   $var wire 32 j m_axi_awaddr [31:0] $end
   $var wire  2 n m_axi_awburst [1:0] $end
   $var wire  4 o m_axi_awcache [3:0] $end
   $var wire  8 l m_axi_awlen [7:0] $end
   $var wire  3 q m_axi_awprot [2:0] $end
   $var wire  4 p m_axi_awqos [3:0] $end
   $var wire  1 i m_axi_awready $end
   $var wire  4 k m_axi_awregion [3:0] $end
   $var wire  3 m m_axi_awsize [2:0] $end
   $var wire  1 h m_axi_awvalid $end
   $var wire  1 x m_axi_bready $end
   $var wire  2 y m_axi_bresp [1:0] $end
   $var wire  1 w m_axi_bvalid $end
   $var wire 32 t m_axi_wdata [31:0] $end
   $var wire  1 v m_axi_wlast $end
   $var wire  1 s m_axi_wready $end
   $var wire  4 u m_axi_wstrb [3:0] $end
   $var wire  1 r m_axi_wvalid $end
   $var wire 32 } offset [31:0] $end
   $var wire 32 g s_axis_payload [31:0] $end
   $var wire  1 f s_axis_ready $end
   $var wire  1 e s_axis_valid $end
   $var wire  1 { start $end
   $var wire  1 ~ transInterrupt $end
   $scope module axi4Interconnection $end
    $var wire  1 "! aclk $end
    $var wire  1 z aresetn $end
    $var wire  1 R axi4Interface_controlAwValidSignal $end
    $var wire  1 T axi4Interface_controlBReady $end
    $var wire  1 "% axi4Interface_full_aw_fire $end
    $var wire  1 "" axi4Interface_full_b_fire $end
    $var wire  1 "" axi4Interface_full_b_fire_1 $end
    $var wire  1 "" axi4Interface_full_b_fire_2 $end
    $var wire  1 "" axi4Interface_full_b_fire_3 $end
    $var wire  1 "" axi4Interface_full_b_fire_4 $end
    $var wire  1 "& axi4Interface_full_w_fire $end
    $var wire  1 N axi4Interface_isBurstComplete $end
    $var wire  1 V axi4Interface_isTransferAfterReset $end
    $var wire  1 W axi4Interface_lastBurstComplete $end
    $var wire  1 . axi4Interface_resetStartSendSignal $end
    $var wire 32 ", axi4Interface_transferDataType [31:0] $end
    $var wire  8 | burstLen [7:0] $end
    $var wire  8 U burstLengthReg [7:0] $end
    $var wire 32 } m_axi_awaddr [31:0] $end
    $var wire  2 ") m_axi_awburst [1:0] $end
    $var wire  4 "' m_axi_awcache [3:0] $end
    $var wire  8 S m_axi_awlen [7:0] $end
    $var wire  3 "* m_axi_awprot [2:0] $end
    $var wire  4 "' m_axi_awqos [3:0] $end
    $var wire  1 i m_axi_awready $end
    $var wire  4 "' m_axi_awregion [3:0] $end
    $var wire  3 "( m_axi_awsize [2:0] $end
    $var wire  1 R m_axi_awvalid $end
    $var wire  1 T m_axi_bready $end
    $var wire  2 y m_axi_bresp [1:0] $end
    $var wire  1 w m_axi_bvalid $end
    $var wire 32 C m_axi_wdata [31:0] $end
    $var wire  1 / m_axi_wlast $end
    $var wire  1 Q m_axi_wlast_regNext $end
    $var wire  1 s m_axi_wready $end
    $var wire  4 "+ m_axi_wstrb [3:0] $end
    $var wire  1 B m_axi_wvalid $end
    $var wire 32 } offset [31:0] $end
    $var wire 32 O s_axis_payload [31:0] $end
    $var wire  1 A s_axis_ready $end
    $var wire  1 1 s_axis_valid $end
    $var wire  1 { start $end
    $var wire  1 d startSendSignal $end
    $var wire  9 7 streamFifo_2_io_availability [8:0] $end
    $var wire  9 6 streamFifo_2_io_occupancy [8:0] $end
    $var wire 32 P streamFifo_2_io_pop_payload [31:0] $end
    $var wire  1 # streamFifo_2_io_pop_ready $end
    $var wire  1 5 streamFifo_2_io_pop_valid $end
    $var wire  1 > streamFifo_2_io_push_fire $end
    $var wire 32 E streamFifo_2_io_push_payload [31:0] $end
    $var wire  1 4 streamFifo_2_io_push_ready $end
    $var wire  1 D streamFifo_2_io_push_valid $end
    $var wire  1 N transInterrupt $end
    $var wire  1 "# when_Axi4WriteOnlyMaster_l122 $end
    $var wire  1 "$ when_Axi4WriteOnlyMaster_l125 $end
    $var wire  1 G when_Axi4WriteOnlyMaster_l159 $end
    $var wire  1 F when_Axi4WriteOnlyMaster_l96 $end
    $scope module streamFifo_2 $end
     $var wire  1 "! aclk $end
     $var wire  1 z aresetn $end
     $var wire  9 7 io_availability [8:0] $end
     $var wire  1 "- io_flush $end
     $var wire  9 6 io_occupancy [8:0] $end
     $var wire 32 P io_pop_payload [31:0] $end
     $var wire  1 # io_pop_ready $end
     $var wire  1 5 io_pop_valid $end
     $var wire 32 E io_push_payload [31:0] $end
     $var wire  1 4 io_push_ready $end
     $var wire  1 D io_push_valid $end
     $var wire  1 9 logic_empty $end
     $var wire  1 : logic_full $end
     $var wire  8 Z logic_popPtr_value [7:0] $end
     $var wire  8 % logic_popPtr_valueNext [7:0] $end
     $var wire  1 "- logic_popPtr_willClear $end
     $var wire  1 $ logic_popPtr_willIncrement $end
     $var wire  1 * logic_popPtr_willOverflow $end
     $var wire  1 [ logic_popPtr_willOverflowIfInc $end
     $var wire  1 & logic_popping $end
     $var wire  8 ] logic_ptrDif [7:0] $end
     $var wire  1 8 logic_ptrMatch $end
     $var wire  8 X logic_pushPtr_value [7:0] $end
     $var wire  8 I logic_pushPtr_valueNext [7:0] $end
     $var wire  1 "- logic_pushPtr_willClear $end
     $var wire  1 H logic_pushPtr_willIncrement $end
     $var wire  1 ? logic_pushPtr_willOverflow $end
     $var wire  1 Y logic_pushPtr_willOverflowIfInc $end
     $var wire  1 J logic_pushing $end
     $var wire  1 \ logic_risingOccupancy $end
     $var wire  1 , when_Stream_l946 $end
    $upscope $end
   $upscope $end
   $scope module fifoInstance $end
    $var wire  1 "! aclk $end
    $var wire  1 z aresetn $end
    $var wire  9 3 io_availability [8:0] $end
    $var wire  1 "- io_flush $end
    $var wire  9 2 io_occupancy [8:0] $end
    $var wire 32 O io_pop_payload [31:0] $end
    $var wire  1 A io_pop_ready $end
    $var wire  1 1 io_pop_valid $end
    $var wire 32 g io_push_payload [31:0] $end
    $var wire  1 0 io_push_ready $end
    $var wire  1 e io_push_valid $end
    $var wire  1 < logic_empty $end
    $var wire  1 = logic_full $end
    $var wire  8 ` logic_popPtr_value [7:0] $end
    $var wire  8 L logic_popPtr_valueNext [7:0] $end
    $var wire  1 "- logic_popPtr_willClear $end
    $var wire  1 K logic_popPtr_willIncrement $end
    $var wire  1 @ logic_popPtr_willOverflow $end
    $var wire  1 a logic_popPtr_willOverflowIfInc $end
    $var wire  1 M logic_popping $end
    $var wire  8 c logic_ptrDif [7:0] $end
    $var wire  1 ; logic_ptrMatch $end
    $var wire  8 ^ logic_pushPtr_value [7:0] $end
    $var wire  8 ( logic_pushPtr_valueNext [7:0] $end
    $var wire  1 "- logic_pushPtr_willClear $end
    $var wire  1 ' logic_pushPtr_willIncrement $end
    $var wire  1 + logic_pushPtr_willOverflow $end
    $var wire  1 _ logic_pushPtr_willOverflowIfInc $end
    $var wire  1 ) logic_pushing $end
    $var wire  1 b logic_risingOccupancy $end
    $var wire  1 - when_Stream_l946 $end
   $upscope $end
  $upscope $end
 $upscope $end
$enddefinitions $end


#0
0#
0$
b00000000 %
0&
0'
b00000000 (
0)
0*
0+
0,
0-
0.
0/
10
01
b000000000 2
b100000000 3
14
05
b000000000 6
b100000000 7
18
19
0:
1;
1<
0=
0>
0?
0@
0A
0B
b01101111000100101011010011111111 C
0D
b11011000101011000110011000110100 E
0F
0G
0H
b00000000 I
0J
0K
b00000000 L
0M
0N
b11011000101011000110011000110100 O
b01101111000100101011010011111111 P
0Q
0R
b11111110 S
0T
b11111111 U
1V
0W
b00000000 X
0Y
b00000000 Z
0[
0\
b00000000 ]
b00000000 ^
0_
b00000000 `
0a
0b
b00000000 c
0d
0e
1f
b00000000000000000000000000100000 g
0h
0i
b00000000000000000000000000000000 j
b0000 k
b11111110 l
b010 m
b01 n
b0000 o
b0000 p
b000 q
0r
0s
b01101111000100101011010011111111 t
b1111 u
0v
0w
0x
b00 y
0z
0{
b10000000 |
b00000000000000000000000000000000 }
0~
0"!
0""
1"#
0"$
0"%
0"&
b0000 "'
b010 "(
b01 ")
b000 "*
b1111 "+
b10011001101111001110101111011101 ",
0"-
#160
1z
#170
b10001111001100110101001001011010 C
b11011001101100010111100000010100 E
b11011001101100010111100000010100 O
b10001111001100110101001001011010 P
b01111111 S
b10000000 U
0V
1W
b01111111 l
b10001111001100110101001001011010 t
1"!
0"#
#175
0"!
#180
1"!
#185
0"!
#190
1A
1F
1G
1d
1{
1"!
1"$
#195
1'
b00000001 (
1)
1-
1e
0{
0"!
#200
b00000010 (
b000000001 2
b011111111 3
0;
0<
1R
0W
b00000001 ^
1b
b00000001 c
b00000000000000000000000001101101 g
1h
1"!
#205
0"!
#210
b00000011 (
1,
0-
11
b000000010 2
b011111110 3
1>
1D
b00000000000000000000000000100000 E
1H
b00000001 I
1J
1K
b00000001 L
1M
b00000000000000000000000000100000 O
b00000010 ^
b00000010 c
b00000000000000000000000000111110 g
1"!
#215
0"!
#220
1#
0'
0)
1-
b000000001 6
b011111111 7
08
09
b00000000000000000000000001101101 E
b00000010 I
b00000010 L
b00000000000000000000000001101101 O
b00000001 X
1\
b00000001 ]
b00000011 ^
b00000001 `
0e
b00000000000000000000000001001110 g
1i
1s
1"!
1"%
#225
0"!
#230
1$
b00000001 %
1&
0,
b000000001 2
b011111111 3
15
b000000010 6
b011111110 7
1B
b00000000000000000000000000100000 C
b00000000000000000000000000111110 E
b00000011 I
b00000011 L
b00000000000000000000000000111110 O
b00000000000000000000000000100000 P
0R
b00000010 X
b00000010 ]
b00000010 `
0b
b00000001 c
b00000000000000000000000011010101 g
0h
1r
b00000000000000000000000000100000 t
1"!
0"%
1"&
#235
0"!
#240
0#
0$
0&
0-
01
b000000000 2
b100000000 3
1;
1<
0>
b00000000000000000000000001101101 C
0D
b01001100110110110111111001111011 E
0H
0J
0K
0M
b01001100110110110111111001111011 O
b00000000000000000000000001101101 P
1T
b00000011 X
b00000001 Z
b00000011 `
b00000000 c
b00000000000000000000000011110110 g
0i
0s
b00000000000000000000000001101101 t
1x
1"!
0"&
#245
0"!
#250
1#
1$
b00000010 %
1&
1,
b00000000000000000000000010101111 g
1i
1s
1"!
1"&
#255
0"!
#260
0#
0$
0&
0,
b000000001 6
b011111111 7
b00000000000000000000000000111110 C
b00000000000000000000000000111110 P
b00000010 Z
0\
b00000001 ]
b00000000000000000000000010001001 g
0i
0s
b00000000000000000000000000111110 t
1"!
0"&
#265
0"!
#270
1#
1$
b00000011 %
1&
1'
b00000100 (
1)
1,
1-
1e
b00000000000000000000000011010000 g
1i
1s
1"!
1"&
#275
0"!
#280
0$
0&
b00000101 (
0,
b000000001 2
b011111111 3
05
b000000000 6
b100000000 7
18
19
0;
0<
0B
b10110010010011010010001100000010 C
b10110010010011010010001100000010 P
b00000011 Z
b00000000 ]
b00000100 ^
1b
b00000001 c
b00000000000000000000000010101110 g
0r
b10110010010011010010001100000010 t
1"!
0"&
#285
0"!
#290
0#
b00000110 (
1,
0-
11
b000000010 2
b011111110 3
1>
1D
b00000000000000000000000011010000 E
1H
b00000100 I
1J
1K
b00000100 L
1M
b00000000000000000000000011010000 O
b00000101 ^
b00000010 c
b00000000000000000000000001111100 g
0i
0s
1"!
#295
0"!
#300
1#
b00000111 (
b000000001 6
b011111111 7
08
09
b00000000000000000000000010101110 E
b00000101 I
b00000101 L
b00000000000000000000000010101110 O
b00000100 X
1\
b00000001 ]
b00000110 ^
b00000100 `
b00000000000000000000000001000100 g
1i
1s
1"!
#305
0"!
#310
0#
0'
0)
1-
15
b000000010 6
b011111110 7
1B
b00000000000000000000000011010000 C
b00000000000000000000000001111100 E
b00000110 I
b00000110 L
b00000000000000000000000001111100 O
b00000000000000000000000011010000 P
b00000101 X
b00000010 ]
b00000111 ^
b00000101 `
0e
b00000000000000000000000010100111 g
0i
1r
0s
b00000000000000000000000011010000 t
1"!
#315
0"!
#320
1'
b00001000 (
1)
0-
b000000001 2
b011111111 3
b000000011 6
b011111101 7
b00000000000000000000000001000100 E
b00000111 I
b00000111 L
b00000000000000000000000001000100 O
b00000110 X
b00000011 ]
b00000110 `
0b
b00000001 c
1e
b00000000000000000000000000010111 g
1"!
#325
0"!
#330
b00001001 (
0,
1-
01
b000000100 6
b011111100 7
0>
0D
b00011011001010000011001011010001 E
0H
0J
0K
0M
b00011011001010000011001011010001 O
b00000111 X
b00000100 ]
b00001000 ^
b00000111 `
b00000000000000000000000001001010 g
1"!
#335
0"!
#340
0'
0)
1,
11
b000000010 2
b011111110 3
1>
1D
b00000000000000000000000000010111 E
1H
b00001000 I
1J
1K
b00001000 L
1M
b00000000000000000000000000010111 O
b00001001 ^
1b
b00000010 c
0e
b00000000000000000000000001111111 g
1"!
#345
0"!
#350
1#
1$
b00000100 %
1&
0,
b000000001 2
b011111111 3
b000000101 6
b011111011 7
b00000000000000000000000001001010 E
b00001001 I
b00001001 L
b00000000000000000000000001001010 O
b00001000 X
b00000101 ]
b00001000 `
0b
b00000001 c
b00000000000000000000000000101110 g
1i
1s
1"!
1"&
#355
0"!
#360
b00000101 %
1,
0-
01
b000000000 2
b100000000 3
1;
1<
0>
b00000000000000000000000010101110 C
0D
b01110000010010010000011111111110 E
0H
0J
0K
0M
b01110000010010010000011111111110 O
b00000000000000000000000010101110 P
b00001001 X
b00000100 Z
b00001001 `
b00000000 c
b00000000000000000000000010000001 g
b00000000000000000000000010101110 t
1"!
#365
0"!
#370
0#
0$
0&
0,
b000000100 6
b011111100 7
b00000000000000000000000001111100 C
b00000000000000000000000001111100 P
b00000101 Z
0\
b00000100 ]
b00000000000000000000000011100001 g
0i
0s
b00000000000000000000000001111100 t
1"!
0"&
#375
0"!
#380
1#
1$
b00000110 %
1&
1,
b00000000000000000000000010000001 g
1i
1s
1"!
1"&
#385
0"!
#390
b00000111 %
b000000011 6
b011111101 7
b00000000000000000000000001000100 C
b00000000000000000000000001000100 P
b00000110 Z
b00000011 ]
b00000000000000000000000011110111 g
b00000000000000000000000001000100 t
1"!
#395
0"!
#400
b00001000 %
1'
b00001010 (
1)
1-
b000000010 6
b011111110 7
b00000000000000000000000000010111 C
b00000000000000000000000000010111 P
b00000111 Z
b00000010 ]
1e
b00000000000000000000000011110110 g
b00000000000000000000000000010111 t
1"!
#405
0"!
#410
0#
0$
0&
b00001011 (
0,
b000000001 2
b011111111 3
b000000001 6
b011111111 7
0;
0<
b00000000000000000000000001001010 C
b00000000000000000000000001001010 P
b00001000 Z
b00000001 ]
b00001010 ^
1b
b00000001 c
b00000000000000000000000001011010 g
0i
0s
b00000000000000000000000001001010 t
1"!
0"&
#415
0"!
#420
1#
1$
b00001001 %
1&
b00001100 (
0-
11
b000000010 2
b011111110 3
1>
1D
b00000000000000000000000011110110 E
1H
b00001010 I
1J
1K
b00001010 L
1M
b00000000000000000000000011110110 O
b00001011 ^
b00000010 c
b00000000000000000000000011101010 g
1i
1s
1"!
1"&
#425
0"!
#430
0#
0$
0&
b00001101 (
1,
05
0B
b11110111101111101111101100100010 C
b00000000000000000000000001011010 E
b00001011 I
b00001011 L
b00000000000000000000000001011010 O
b11110111101111101111101100100010 P
b00001010 X
b00001001 Z
b00001100 ^
b00001010 `
b00000000000000000000000011010100 g
0i
0r
0s
b11110111101111101111101100100010 t
1"!
0"&
#435
0"!
#440
1#
1$
b00001010 %
1&
0'
0)
0,
1-
15
b000000010 6
b011111110 7
1B
b00000000000000000000000011110110 C
b00000000000000000000000011101010 E
b00001100 I
b00001100 L
b00000000000000000000000011101010 O
b00000000000000000000000011110110 P
b00001011 X
1\
b00000010 ]
b00001101 ^
b00001011 `
0e
b00000000000000000000000010001100 g
1i
1r
1s
b00000000000000000000000011110110 t
1"!
1"&
#445
0"!
#450
0#
0$
0&
1'
b00001110 (
1)
1,
0-
b000000001 2
b011111111 3
b00000000000000000000000001011010 C
b00000000000000000000000011010100 E
b00001101 I
b00001101 L
b00000000000000000000000011010100 O
b00000000000000000000000001011010 P
b00001100 X
b00001010 Z
b00001100 `
0b
b00000001 c
1e
b00000000000000000000000010011010 g
0i
0s
b00000000000000000000000001011010 t
1"!
0"&
#455
0"!
#460
b00001111 (
0,
1-
01
b000000011 6
b011111101 7
0>
0D
b01111101001100010110000001000011 E
0H
0J
0K
0M
b01111101001100010110000001000011 O
b00001101 X
b00000011 ]
b00001110 ^
b00001101 `
b00000000000000000000000011110100 g
1"!
#465
0"!
#470
b00010000 (
1,
0-
11
b000000010 2
b011111110 3
1>
1D
b00000000000000000000000010011010 E
1H
b00001110 I
1J
1K
b00001110 L
1M
b00000000000000000000000010011010 O
b00001111 ^
1b
b00000010 c
b00000000000000000000000000001000 g
1"!
#475
0"!
#480
0'
0)
1-
b000000100 6
b011111100 7
b00000000000000000000000011110100 E
b00001111 I
b00001111 L
b00000000000000000000000011110100 O
b00001110 X
b00000100 ]
b00010000 ^
b00001110 `
0e
b00000000000000000000000010110011 g
1"!
#485
0"!
#490
b000000001 2
b011111111 3
b000000101 6
b011111011 7
b00000000000000000000000000001000 E
b00010000 I
b00010000 L
b00000000000000000000000000001000 O
b00001111 X
b00000101 ]
b00001111 `
0b
b00000001 c
b00000000000000000000000010110010 g
1"!
#495
0"!
#500
1'
b00010001 (
1)
0,
01
b000000000 2
b100000000 3
b000000110 6
b011111010 7
1;
1<
0>
0D
b01010100100110111100101101000111 E
0H
0J
0K
0M
b01010100100110111100101101000111 O
b00010000 X
b00000110 ]
b00010000 `
b00000000 c
1e
b00000000000000000000000000011111 g
1"!
#505
0"!
#510
1#
1$
b00001011 %
1&
b00010010 (
1,
b000000001 2
b011111111 3
0;
0<
b00010001 ^
1b
b00000001 c
b00000000000000000000000011010110 g
1i
1s
1"!
1"&
#515
0"!
#520
b00001100 %
b00010011 (
0,
0-
11
b000000010 2
b011111110 3
b000000101 6
b011111011 7
1>
b00000000000000000000000011101010 C
1D
b00000000000000000000000000011111 E
1H
b00010001 I
1J
1K
b00010001 L
1M
b00000000000000000000000000011111 O
b00000000000000000000000011101010 P
b00001011 Z
0\
b00000101 ]
b00010010 ^
b00000010 c
b00000000000000000000000000010000 g
b00000000000000000000000011101010 t
1"!
#525
0"!
#530
b00001101 %
0'
0)
1-
b00000000000000000000000011010100 C
b00000000000000000000000011010110 E
b00010010 I
b00010010 L
b00000000000000000000000011010110 O
b00000000000000000000000011010100 P
b00010001 X
b00001100 Z
b00010011 ^
b00010001 `
0e
b00000000000000000000000001100011 g
b00000000000000000000000011010100 t
1"!
#535
0"!
#540
b00001110 %
1'
b00010100 (
1)
0-
b000000001 2
b011111111 3
b00000000000000000000000010011010 C
b00000000000000000000000000010000 E
b00010011 I
b00010011 L
b00000000000000000000000000010000 O
b00000000000000000000000010011010 P
b00010010 X
b00001101 Z
b00010010 `
0b
b00000001 c
1e
b00000000000000000000000010100111 g
b00000000000000000000000010011010 t
1"!
#545
0"!
#550
b00001111 %
0'
0)
1,
01
0>
b00000000000000000000000011110100 C
0D
b01110100000011111000001111100111 E
0H
0J
0K
0M
b01110100000011111000001111100111 O
b00000000000000000000000011110100 P
b00010011 X
b00001110 Z
b00010100 ^
b00010011 `
0e
b00000000000000000000000010100000 g
b00000000000000000000000011110100 t
1"!
#555
0"!
#560
b00010000 %
1'
b00010101 (
1)
0,
11
b000000100 6
b011111100 7
1>
b00000000000000000000000000001000 C
1D
b00000000000000000000000010100111 E
1H
b00010100 I
1J
1K
b00010100 L
1M
b00000000000000000000000010100111 O
b00000000000000000000000000001000 P
b00001111 Z
b00000100 ]
1e
b00000000000000000000000000101100 g
b00000000000000000000000000001000 t
1"!
#565
0"!
#570
b00010001 %
0'
0)
1,
01
0>
b00000000000000000000000000011111 C
0D
b11110010100011000010101001000111 E
0H
0J
0K
0M
b11110010100011000010101001000111 O
b00000000000000000000000000011111 P
b00010100 X
b00010000 Z
b00010101 ^
b00010100 `
0e
b00000000000000000000000010101000 g
b00000000000000000000000000011111 t
1"!
#575
0"!
#580
b00010010 %
0,
1-
11
b000000011 6
b011111101 7
1>
b00000000000000000000000011010110 C
1D
b00000000000000000000000000101100 E
1H
b00010101 I
1J
1K
b00010101 L
1M
b00000000000000000000000000101100 O
b00000000000000000000000011010110 P
b00010001 Z
b00000011 ]
b00000000000000000000000000101000 g
b00000000000000000000000011010110 t
1"!
#585
0"!
#590
0#
0$
0&
0-
01
b000000000 2
b100000000 3
1;
1<
0>
b00000000000000000000000000010000 C
0D
b01001001011010000101000011010101 E
0H
0J
0K
0M
b01001001011010000101000011010101 O
b00000000000000000000000000010000 P
b00010101 X
b00010010 Z
b00010101 `
b00000000 c
b00000000000000000000000000110011 g
0i
0s
b00000000000000000000000000010000 t
1"!
0"&
#595
0"!
#600
1#
1$
b00010011 %
1&
1'
b00010110 (
1)
1,
1-
1e
b00000000000000000000000011010001 g
1i
1s
1"!
1"&
#605
0"!
#610
0#
0$
0&
0'
0)
0,
0-
b000000001 2
b011111111 3
b000000010 6
b011111110 7
0;
0<
b00000000000000000000000010100111 C
b00000000000000000000000010100111 P
b00010011 Z
b00000010 ]
b00010110 ^
1b
b00000001 c
0e
b00000000000000000000000011100001 g
0i
0s
b00000000000000000000000010100111 t
1"!
0"&
#615
0"!
#620
1#
1$
b00010100 %
1&
1-
11
1>
1D
b00000000000000000000000011010001 E
1H
b00010110 I
1J
1K
b00010110 L
1M
b00000000000000000000000011010001 O
b00000000000000000000000000000110 g
1i
1s
1"!
1"&
#625
0"!
#630
b00010101 %
1'
b00010111 (
1)
1,
01
b000000000 2
b100000000 3
1;
1<
0>
b00000000000000000000000000101100 C
0D
b10110000010011100111110100101111 E
0H
0J
0K
0M
b10110000010011100111110100101111 O
b00000000000000000000000000101100 P
b00010110 X
b00010100 Z
b00010110 `
0b
b00000000 c
1e
b00000000000000000000000000110011 g
b00000000000000000000000000101100 t
1"!
#635
0"!
#640
0#
0$
0&
b00011000 (
0,
b000000001 2
b011111111 3
b000000001 6
b011111111 7
0;
0<
b00000000000000000000000011010001 C
b00000000000000000000000011010001 P
b00010101 Z
b00000001 ]
b00010111 ^
1b
b00000001 c
b00000000000000000000000001100111 g
0i
0s
b00000000000000000000000011010001 t
1"!
0"&
#645
0"!
#650
1#
1$
b00010110 %
1&
0'
0)
11
b000000010 2
b011111110 3
1>
1D
b00000000000000000000000000110011 E
1H
b00010111 I
1J
1K
b00010111 L
1M
b00000000000000000000000000110011 O
b00011000 ^
b00000010 c
0e
b00000000000000000000000001010100 g
1i
1s
1"!
1"&
#655
0"!
#660
0$
0&
1,
b000000001 2
b011111111 3
05
0B
b00011101010110100000011000111011 C
b00000000000000000000000001100111 E
b00011000 I
b00011000 L
b00000000000000000000000001100111 O
b00011101010110100000011000111011 P
b00010111 X
b00010110 Z
b00010111 `
0b
b00000001 c
b00000000000000000000000011001001 g
0r
b00011101010110100000011000111011 t
1"!
0"&
#665
0"!
#670
0#
0,
0-
01
b000000000 2
b100000000 3
15
b000000010 6
b011111110 7
1;
1<
0>
1B
b00000000000000000000000000110011 C
0D
b10011010100010010010001101000101 E
0H
0J
0K
0M
b10011010100010010010001101000101 O
b00000000000000000000000000110011 P
b00011000 X
1\
b00000010 ]
b00011000 `
b00000000 c
b00000000000000000000000011100011 g
0i
1r
0s
b00000000000000000000000000110011 t
1"!
#675
0"!
#680
1#
1$
b00010111 %
1&
1'
b00011001 (
1)
1,
1-
1e
b00000000000000000000000011101010 g
1i
1s
1"!
1"&
#685
0"!
#690
0#
0$
0&
0'
0)
0,
0-
b000000001 2
b011111111 3
b000000001 6
b011111111 7
0;
0<
b00000000000000000000000001100111 C
b00000000000000000000000001100111 P
b00010111 Z
0\
b00000001 ]
b00011001 ^
1b
b00000001 c
0e
b00000000000000000000000000000001 g
0i
0s
b00000000000000000000000001100111 t
1"!
0"&
#695
0"!
#700
1#
1$
b00011000 %
1&
1-
11
1>
1D
b00000000000000000000000011101010 E
1H
b00011001 I
1J
1K
b00011001 L
1M
b00000000000000000000000011101010 O
b00000000000000000000000001011111 g
1i
1s
1"!
1"&
#705
0"!
#710
0#
0$
0&
0-
01
b000000000 2
b100000000 3
05
1;
1<
0>
0B
b10110011001101111111100111101100 C
0D
b11010100100110011010010001001111 E
0H
0J
0K
0M
b11010100100110011010010001001111 O
b10110011001101111111100111101100 P
b00011001 X
b00011000 Z
b00011001 `
0b
b00000000 c
b00000000000000000000000000101101 g
0i
0r
0s
b10110011001101111111100111101100 t
1"!
0"&
#715
0"!
#720
1'
b00011010 (
1)
1-
15
1B
b00000000000000000000000011101010 C
b00000000000000000000000011101010 P
1e
b00000000000000000000000001100111 g
1r
b00000000000000000000000011101010 t
1"!
#725
0"!
#730
1#
1$
b00011001 %
1&
0'
0)
1,
0-
b000000001 2
b011111111 3
0;
0<
b00011010 ^
1b
b00000001 c
0e
b00000000000000000000000010000011 g
1i
1s
1"!
1"&
#735
0"!
#740
0#
0$
0&
1-
11
05
b000000000 6
b100000000 7
18
19
1>
0B
b00100011000110000101001011000101 C
1D
b00000000000000000000000001100111 E
1H
b00011010 I
1J
1K
b00011010 L
1M
b00000000000000000000000001100111 O
b00100011000110000101001011000101 P
b00011001 Z
b00000000 ]
b00000000000000000000000001001011 g
0i
0r
0s
b00100011000110000101001011000101 t
1"!
0"&
#745
0"!
#750
0,
0-
01
b000000000 2
b100000000 3
b000000001 6
b011111111 7
08
09
1;
1<
0>
0D
b11100010111110010101011110101001 E
0H
0J
0K
0M
b11100010111110010101011110101001 O
b00011010 X
1\
b00000001 ]
b00011010 `
0b
b00000000 c
b00000000000000000000000000100010 g
1"!
#755
0"!
#760
1'
b00011011 (
1)
1-
15
1B
b00000000000000000000000001100111 C
b00000000000000000000000001100111 P
1e
b00000000000000000000000000011010 g
1r
b00000000000000000000000001100111 t
1"!
#765
0"!
#770
1#
1$
b00011010 %
1&
b00011100 (
1,
b000000001 2
b011111111 3
0;
0<
b00011011 ^
1b
b00000001 c
b00000000000000000000000001101001 g
1i
1s
1"!
1"&
#775
0"!
#780
0$
0&
b00011101 (
0-
11
b000000010 2
b011111110 3
05
b000000000 6
b100000000 7
18
19
1>
0B
b10101100000001001100110110110001 C
1D
b00000000000000000000000000011010 E
1H
b00011011 I
1J
1K
b00011011 L
1M
b00000000000000000000000000011010 O
b10101100000001001100110110110001 P
b00011010 Z
0\
b00000000 ]
b00011100 ^
b00000010 c
b00000000000000000000000010101101 g
0r
b10101100000001001100110110110001 t
1"!
0"&
#785
0"!
#790
0#
0'
0)
1-
b000000001 6
b011111111 7
08
09
b00000000000000000000000001101001 E
b00011100 I
b00011100 L
b00000000000000000000000001101001 O
b00011011 X
1\
b00000001 ]
b00011101 ^
b00011011 `
0e
b00000000000000000000000011101011 g
0i
0s
1"!
#795
0"!
