simWorkspace/PingPongBufferWithWriteOnlyMaster/test.vcd
$version Generated by VerilatedVcd $end
$date Wed Dec 29 20:44:51 2021
 $end
$timescale   1ns $end

 $scope module TOP $end
  $var wire  1 "j aclk $end
  $var wire  1 "i aresetn $end
  $var wire  8 "T bufferDepthIn [7:0] $end
  $var wire 32 "X full_aw_payload_addr [31:0] $end
  $var wire  2 "\ full_aw_payload_burst [1:0] $end
  $var wire  4 "] full_aw_payload_cache [3:0] $end
  $var wire  8 "Z full_aw_payload_len [7:0] $end
  $var wire  3 "_ full_aw_payload_prot [2:0] $end
  $var wire  4 "^ full_aw_payload_qos [3:0] $end
  $var wire  4 "Y full_aw_payload_region [3:0] $end
  $var wire  3 "[ full_aw_payload_size [2:0] $end
  $var wire  1 "W full_aw_ready $end
  $var wire  1 "V full_aw_valid $end
  $var wire  2 "g full_b_payload_resp [1:0] $end
  $var wire  1 "f full_b_ready $end
  $var wire  1 "e full_b_valid $end
  $var wire 32 "b full_w_payload_data [31:0] $end
  $var wire  1 "d full_w_payload_last $end
  $var wire  4 "c full_w_payload_strb [3:0] $end
  $var wire  1 "a full_w_ready $end
  $var wire  1 "` full_w_valid $end
  $var wire  1 "U interruptOut $end
  $var wire 32 "h offset [31:0] $end
  $var wire  1 "S startIn $end
  $var wire 32 "R streamIn_payload [31:0] $end
  $var wire  1 "Q streamIn_ready $end
  $var wire  1 "P streamIn_valid $end
  $scope module PingPongBufferWithWriteOnlyMaster $end
   $var wire  1 "j aclk $end
   $var wire  1 "i aresetn $end
   $var wire  8 "T bufferDepthIn [7:0] $end
   $var wire 32 "X full_aw_payload_addr [31:0] $end
   $var wire  2 "\ full_aw_payload_burst [1:0] $end
   $var wire  4 "] full_aw_payload_cache [3:0] $end
   $var wire  8 "Z full_aw_payload_len [7:0] $end
   $var wire  3 "_ full_aw_payload_prot [2:0] $end
   $var wire  4 "^ full_aw_payload_qos [3:0] $end
   $var wire  4 "Y full_aw_payload_region [3:0] $end
   $var wire  3 "[ full_aw_payload_size [2:0] $end
   $var wire  1 "W full_aw_ready $end
   $var wire  1 "V full_aw_valid $end
   $var wire  2 "g full_b_payload_resp [1:0] $end
   $var wire  1 "f full_b_ready $end
   $var wire  1 "e full_b_valid $end
   $var wire 32 "b full_w_payload_data [31:0] $end
   $var wire  1 "d full_w_payload_last $end
   $var wire  4 "c full_w_payload_strb [3:0] $end
   $var wire  1 "a full_w_ready $end
   $var wire  1 "` full_w_valid $end
   $var wire  1 "U interruptOut $end
   $var wire 32 "h offset [31:0] $end
   $var wire  8 ") pingPongBuffer_1_bufferDepthOut [7:0] $end
   $var wire  1 "' pingPongBuffer_1_interruptOut $end
   $var wire 32 F pingPongBuffer_1_m_axis_payload [31:0] $end
   $var wire  1 E pingPongBuffer_1_m_axis_valid $end
   $var wire  1 e pingPongBuffer_1_s_axis_ready $end
   $var wire  1 "( pingPongBuffer_1_startOut $end
   $var wire  1 "S startIn $end
   $var wire 32 "R streamIn_payload [31:0] $end
   $var wire  1 "Q streamIn_ready $end
   $var wire  1 "P streamIn_valid $end
   $var wire 32 "h writeOnlyMater_m_axi_awaddr [31:0] $end
   $var wire  2 "s writeOnlyMater_m_axi_awburst [1:0] $end
   $var wire  4 "q writeOnlyMater_m_axi_awcache [3:0] $end
   $var wire  8 "+ writeOnlyMater_m_axi_awlen [7:0] $end
   $var wire  3 "t writeOnlyMater_m_axi_awprot [2:0] $end
   $var wire  4 "q writeOnlyMater_m_axi_awqos [3:0] $end
   $var wire  4 "q writeOnlyMater_m_axi_awregion [3:0] $end
   $var wire  3 "r writeOnlyMater_m_axi_awsize [2:0] $end
   $var wire  1 "* writeOnlyMater_m_axi_awvalid $end
   $var wire  1 ", writeOnlyMater_m_axi_bready $end
   $var wire 32 j writeOnlyMater_m_axi_wdata [31:0] $end
   $var wire  1 G writeOnlyMater_m_axi_wlast $end
   $var wire  4 "u writeOnlyMater_m_axi_wstrb [3:0] $end
   $var wire  1 i writeOnlyMater_m_axi_wvalid $end
   $var wire  1 h writeOnlyMater_s_axis_ready $end
   $var wire  1 ~ writeOnlyMater_transInterrupt $end
   $scope module pingPongBuffer_1 $end
    $var wire  1 "j aclk $end
    $var wire  1 "i aresetn $end
    $var wire  8 "T bufferDepthIn [7:0] $end
    $var wire  8 ") bufferDepthOut [7:0] $end
    $var wire  8 ") bufferDepthReg [7:0] $end
    $var wire  9 K bufferFifoA_io_availability [8:0] $end
    $var wire  9 J bufferFifoA_io_occupancy [8:0] $end
    $var wire 32 "! bufferFifoA_io_pop_payload [31:0] $end
    $var wire  1 k bufferFifoA_io_pop_ready $end
    $var wire  1 I bufferFifoA_io_pop_valid $end
    $var wire 32 $ bufferFifoA_io_push_payload [31:0] $end
    $var wire  1 H bufferFifoA_io_push_ready $end
    $var wire  1 # bufferFifoA_io_push_valid $end
    $var wire  9 O bufferFifoB_io_availability [8:0] $end
    $var wire  9 N bufferFifoB_io_occupancy [8:0] $end
    $var wire 32 "" bufferFifoB_io_pop_payload [31:0] $end
    $var wire  1 l bufferFifoB_io_pop_ready $end
    $var wire  1 M bufferFifoB_io_pop_valid $end
    $var wire 32 & bufferFifoB_io_push_payload [31:0] $end
    $var wire  1 L bufferFifoB_io_push_ready $end
    $var wire  1 % bufferFifoB_io_push_valid $end
    $var wire  1 * inCounterWillOverflow $end
    $var wire  8 "- inCounter_value [7:0] $end
    $var wire  8 ) inCounter_valueNext [7:0] $end
    $var wire  1 ( inCounter_willClear $end
    $var wire  1 ' inCounter_willIncrement $end
    $var wire  1 : inCounter_willOverflow $end
    $var wire  1 ". inCounter_willOverflowIfInc $end
    $var wire  1 ~ interruptIn $end
    $var wire  1 "' interruptOut $end
    $var wire  1 "3 isAfterResetState $end
    $var wire  1 "2 isReadBufferA $end
    $var wire  1 "1 isWriteBufferA $end
    $var wire  1 "N lastBurstCompleteSignal $end
    $var wire 32 F m_axis_payload [31:0] $end
    $var wire  1 h m_axis_ready $end
    $var wire  1 E m_axis_valid $end
    $var wire  1 p outCounterWillOverflow $end
    $var wire  8 "/ outCounter_value [7:0] $end
    $var wire  8 o outCounter_valueNext [7:0] $end
    $var wire  1 n outCounter_willClear $end
    $var wire  1 m outCounter_willIncrement $end
    $var wire  1 ^ outCounter_willOverflow $end
    $var wire  1 "0 outCounter_willOverflowIfInc $end
    $var wire  1 "' outputInterruptSignalState $end
    $var wire  1 "( outputStartSignalState $end
    $var wire  2 "v pingPongBufferStateMachine_enumDef_BOOT [1:0] $end
    $var wire  2 "s pingPongBufferStateMachine_enumDef_EMPTY [1:0] $end
    $var wire  2 "x pingPongBufferStateMachine_enumDef_FULL [1:0] $end
    $var wire  2 "w pingPongBufferStateMachine_enumDef_HALF [1:0] $end
    $var wire  2 , pingPongBufferStateMachine_stateNext [1:0] $end
    $var wire 40 . pingPongBufferStateMachine_stateNext_string [39:0] $end
    $var wire  2 "4 pingPongBufferStateMachine_stateReg [1:0] $end
    $var wire 40 "7 pingPongBufferStateMachine_stateReg_string [39:0] $end
    $var wire  1 "y pingPongBufferStateMachine_wantExit $end
    $var wire  1 "y pingPongBufferStateMachine_wantKill $end
    $var wire  1 P pingPongBufferStateMachine_wantStart $end
    $var wire  1 d realStartSignal $end
    $var wire 32 "R s_axis_payload [31:0] $end
    $var wire  1 e s_axis_ready $end
    $var wire  1 "P s_axis_valid $end
    $var wire  1 "S startIn $end
    $var wire  1 "( startOut $end
    $var wire  1 + startReceiveResetSignal $end
    $var wire  1 "& startReceiveSignal $end
    $var wire  1 "# startReceiveSignal_regNext $end
    $var wire  1 "k streamIn_fire $end
    $var wire  1 "k streamIn_fire_1 $end
    $var wire  1 _ streamOut_fire $end
    $var wire  1 _ streamOut_fire_1 $end
    $var wire  1 f when_PingPongBuffer_l138 $end
    $var wire  1 g when_PingPongBuffer_l145 $end
    $var wire  1 - when_PingPongBuffer_l158 $end
    $var wire  1 "5 when_PingPongBuffer_l167 $end
    $var wire  1 f when_PingPongBuffer_l170 $end
    $var wire  1 g when_PingPongBuffer_l171 $end
    $var wire  1 "6 when_PingPongBuffer_l182 $end
    $var wire  1 ; when_StateMachine_l219 $end
    $var wire  1 < when_StateMachine_l219_1 $end
    $var wire  1 = when_StateMachine_l235 $end
    $scope module bufferFifoA $end
     $var wire  1 "j aclk $end
     $var wire  1 "i aresetn $end
     $var wire  9 K io_availability [8:0] $end
     $var wire  1 "y io_flush $end
     $var wire  9 J io_occupancy [8:0] $end
     $var wire 32 "! io_pop_payload [31:0] $end
     $var wire  1 k io_pop_ready $end
     $var wire  1 I io_pop_valid $end
     $var wire 32 $ io_push_payload [31:0] $end
     $var wire  1 H io_push_ready $end
     $var wire  1 # io_push_valid $end
     $var wire  1 R logic_empty $end
     $var wire  1 S logic_full $end
     $var wire  8 "; logic_popPtr_value [7:0] $end
     $var wire  8 r logic_popPtr_valueNext [7:0] $end
     $var wire  1 "y logic_popPtr_willClear $end
     $var wire  1 q logic_popPtr_willIncrement $end
     $var wire  1 ` logic_popPtr_willOverflow $end
     $var wire  1 "< logic_popPtr_willOverflowIfInc $end
     $var wire  1 s logic_popping $end
     $var wire  8 "> logic_ptrDif [7:0] $end
     $var wire  1 Q logic_ptrMatch $end
     $var wire  8 "9 logic_pushPtr_value [7:0] $end
     $var wire  8 1 logic_pushPtr_valueNext [7:0] $end
     $var wire  1 "y logic_pushPtr_willClear $end
     $var wire  1 0 logic_pushPtr_willIncrement $end
     $var wire  1 > logic_pushPtr_willOverflow $end
     $var wire  1 ": logic_pushPtr_willOverflowIfInc $end
     $var wire  1 2 logic_pushing $end
     $var wire  1 "= logic_risingOccupancy $end
     $var wire  1 A when_Stream_l946 $end
    $upscope $end
    $scope module bufferFifoB $end
     $var wire  1 "j aclk $end
     $var wire  1 "i aresetn $end
     $var wire  9 O io_availability [8:0] $end
     $var wire  1 "y io_flush $end
     $var wire  9 N io_occupancy [8:0] $end
     $var wire 32 "" io_pop_payload [31:0] $end
     $var wire  1 l io_pop_ready $end
     $var wire  1 M io_pop_valid $end
     $var wire 32 & io_push_payload [31:0] $end
     $var wire  1 L io_push_ready $end
     $var wire  1 % io_push_valid $end
     $var wire  1 U logic_empty $end
     $var wire  1 V logic_full $end
     $var wire  8 "A logic_popPtr_value [7:0] $end
     $var wire  8 u logic_popPtr_valueNext [7:0] $end
     $var wire  1 "y logic_popPtr_willClear $end
     $var wire  1 t logic_popPtr_willIncrement $end
     $var wire  1 a logic_popPtr_willOverflow $end
     $var wire  1 "B logic_popPtr_willOverflowIfInc $end
     $var wire  1 v logic_popping $end
     $var wire  8 "D logic_ptrDif [7:0] $end
     $var wire  1 T logic_ptrMatch $end
     $var wire  8 "? logic_pushPtr_value [7:0] $end
     $var wire  8 4 logic_pushPtr_valueNext [7:0] $end
     $var wire  1 "y logic_pushPtr_willClear $end
     $var wire  1 3 logic_pushPtr_willIncrement $end
     $var wire  1 ? logic_pushPtr_willOverflow $end
     $var wire  1 "@ logic_pushPtr_willOverflowIfInc $end
     $var wire  1 5 logic_pushing $end
     $var wire  1 "C logic_risingOccupancy $end
     $var wire  1 B when_Stream_l946 $end
    $upscope $end
   $upscope $end
   $scope module writeOnlyMater $end
    $var wire  1 "j aclk $end
    $var wire  1 "i aresetn $end
    $var wire  1 "* axi4Interface_controlAwValidSignal $end
    $var wire  1 ", axi4Interface_controlBReady $end
    $var wire  1 "o axi4Interface_full_aw_fire $end
    $var wire  1 "l axi4Interface_full_b_fire $end
    $var wire  1 "l axi4Interface_full_b_fire_1 $end
    $var wire  1 "l axi4Interface_full_b_fire_2 $end
    $var wire  1 "l axi4Interface_full_b_fire_3 $end
    $var wire  1 "l axi4Interface_full_b_fire_4 $end
    $var wire  1 "p axi4Interface_full_w_fire $end
    $var wire  1 ~ axi4Interface_isBurstComplete $end
    $var wire  1 "F axi4Interface_isTransferAfterReset $end
    $var wire  1 "G axi4Interface_lastBurstComplete $end
    $var wire  1 D axi4Interface_resetStartSendSignal $end
    $var wire 32 "z axi4Interface_transferDataType [31:0] $end
    $var wire  8 ") burstLen [7:0] $end
    $var wire  8 "E burstLengthReg [7:0] $end
    $var wire 32 "h m_axi_awaddr [31:0] $end
    $var wire  2 "s m_axi_awburst [1:0] $end
    $var wire  4 "q m_axi_awcache [3:0] $end
    $var wire  8 "+ m_axi_awlen [7:0] $end
    $var wire  3 "t m_axi_awprot [2:0] $end
    $var wire  4 "q m_axi_awqos [3:0] $end
    $var wire  1 "W m_axi_awready $end
    $var wire  4 "q m_axi_awregion [3:0] $end
    $var wire  3 "r m_axi_awsize [2:0] $end
    $var wire  1 "* m_axi_awvalid $end
    $var wire  1 ", m_axi_bready $end
    $var wire  2 "g m_axi_bresp [1:0] $end
    $var wire  1 "e m_axi_bvalid $end
    $var wire 32 j m_axi_wdata [31:0] $end
    $var wire  1 G m_axi_wlast $end
    $var wire  1 "% m_axi_wlast_regNext $end
    $var wire  1 "a m_axi_wready $end
    $var wire  4 "u m_axi_wstrb [3:0] $end
    $var wire  1 i m_axi_wvalid $end
    $var wire 32 "h offset [31:0] $end
    $var wire 32 F s_axis_payload [31:0] $end
    $var wire  1 h s_axis_ready $end
    $var wire  1 E s_axis_valid $end
    $var wire  1 "( start $end
    $var wire  1 "O startSendSignal $end
    $var wire  9 Z streamFifo_3_io_availability [8:0] $end
    $var wire  9 Y streamFifo_3_io_occupancy [8:0] $end
    $var wire 32 "$ streamFifo_3_io_pop_payload [31:0] $end
    $var wire  1 6 streamFifo_3_io_pop_ready $end
    $var wire  1 X streamFifo_3_io_pop_valid $end
    $var wire  1 b streamFifo_3_io_push_fire $end
    $var wire 32 x streamFifo_3_io_push_payload [31:0] $end
    $var wire  1 W streamFifo_3_io_push_ready $end
    $var wire  1 w streamFifo_3_io_push_valid $end
    $var wire  1 ~ transInterrupt $end
    $var wire  1 "m when_Axi4WriteOnlyMaster_l122 $end
    $var wire  1 "n when_Axi4WriteOnlyMaster_l125 $end
    $var wire  1 z when_Axi4WriteOnlyMaster_l159 $end
    $var wire  1 y when_Axi4WriteOnlyMaster_l96 $end
    $scope module streamFifo_3 $end
     $var wire  1 "j aclk $end
     $var wire  1 "i aresetn $end
     $var wire  9 Z io_availability [8:0] $end
     $var wire  1 "y io_flush $end
     $var wire  9 Y io_occupancy [8:0] $end
     $var wire 32 "$ io_pop_payload [31:0] $end
     $var wire  1 6 io_pop_ready $end
     $var wire  1 X io_pop_valid $end
     $var wire 32 x io_push_payload [31:0] $end
     $var wire  1 W io_push_ready $end
     $var wire  1 w io_push_valid $end
     $var wire  1 \ logic_empty $end
     $var wire  1 ] logic_full $end
     $var wire  8 "J logic_popPtr_value [7:0] $end
     $var wire  8 8 logic_popPtr_valueNext [7:0] $end
     $var wire  1 "y logic_popPtr_willClear $end
     $var wire  1 7 logic_popPtr_willIncrement $end
     $var wire  1 @ logic_popPtr_willOverflow $end
     $var wire  1 "K logic_popPtr_willOverflowIfInc $end
     $var wire  1 9 logic_popping $end
     $var wire  8 "M logic_ptrDif [7:0] $end
     $var wire  1 [ logic_ptrMatch $end
     $var wire  8 "H logic_pushPtr_value [7:0] $end
     $var wire  8 | logic_pushPtr_valueNext [7:0] $end
     $var wire  1 "y logic_pushPtr_willClear $end
     $var wire  1 { logic_pushPtr_willIncrement $end
     $var wire  1 c logic_pushPtr_willOverflow $end
     $var wire  1 "I logic_pushPtr_willOverflowIfInc $end
     $var wire  1 } logic_pushing $end
     $var wire  1 "L logic_risingOccupancy $end
     $var wire  1 C when_Stream_l946 $end
    $upscope $end
   $upscope $end
  $upscope $end
 $upscope $end
$enddefinitions $end


#0
0#
b00000000000000000000000000000000 $
0%
b00000000000000000000000000000000 &
0'
0(
b00000000 )
0*
0+
b01 ,
0-
b0100010101001101010100000101010001011001 .
00
b00000000 1
02
03
b00000000 4
05
06
07
b00000000 8
09
0:
0;
0<
1=
0>
0?
0@
0A
0B
0C
0D
0E
b00010111111011100000101100100010 F
0G
1H
0I
b000000000 J
b100000000 K
1L
0M
b000000000 N
b100000000 O
1P
1Q
1R
0S
1T
1U
0V
1W
0X
b000000000 Y
b100000000 Z
1[
1\
0]
0^
0_
0`
0a
0b
0c
1d
0e
1f
0g
0h
0i
b00001010111000110010011110111001 j
0k
0l
0m
0n
b00000000 o
0p
0q
b00000000 r
0s
0t
b00000000 u
0v
0w
b00010111111011100000101100100010 x
0y
0z
0{
b00000000 |
0}
0~
b00010111111011100000101100100010 "!
b10000110111101101010100110100011 ""
1"#
b00001010111000110010011110111001 "$
0"%
0"&
0"'
0"(
b11111111 ")
0"*
b11111110 "+
0",
b00000000 "-
0".
b00000000 "/
0"0
1"1
1"2
1"3
b00 "4
0"5
0"6
b0100001001001111010011110101010000100000 "7
b00000000 "9
0":
b00000000 ";
0"<
0"=
b00000000 ">
b00000000 "?
0"@
b00000000 "A
0"B
0"C
b00000000 "D
b11111111 "E
1"F
0"G
b00000000 "H
0"I
b00000000 "J
0"K
0"L
b00000000 "M
0"N
0"O
0"P
0"Q
b00000000000000000000000000000000 "R
0"S
b10000000 "T
0"U
0"V
0"W
b11011100101011000011100000001100 "X
b0000 "Y
b11111110 "Z
b010 "[
b01 "\
b0000 "]
b0000 "^
b000 "_
0"`
0"a
b00001010111000110010011110111001 "b
b1111 "c
0"d
0"e
0"f
b00 "g
b11011100101011000011100000001100 "h
0"i
0"j
0"k
0"l
1"m
0"n
0"o
0"p
b0000 "q
b010 "r
b01 "s
b000 "t
b1111 "u
b00 "v
b10 "w
b11 "x
0"y
b00111111010011001000101000111100 "z
#240
1"i
#255
0=
b11000101100001101101110001001010 F
0P
0d
0f
1h
b01010110001101011111111011111010 j
b11000101100001101101110001001010 x
1y
1z
b11000101100001101101110001001010 "!
b11000100001101110100111100111001 ""
0"#
b01010110001101011111111011111010 "$
1"'
1"(
b10000000 ")
0"3
b01 "4
b0100010101001101010100000101010001011001 "7
0"F
1"G
1"O
1"U
b01010110001101011111111011111010 "b
1"j
0"m
1"n
#262
0"j
#269
0"'
0"(
1"*
b01111111 "+
b10000000 "E
0"G
0"U
1"V
b01111111 "Z
1"j
#275
1d
1e
1f
1"&
1"Q
1"S
#276
0"j
#280
1#
b00000000000000000000000001101000 $
b00000000000000000000000001101000 &
1'
b00000001 )
10
b00000001 1
12
1A
1"P
b00000000000000000000000001101000 "R
0"S
1"k
#283
0#
b00000000000000000000000001000100 $
b00000000000000000000000001000100 &
0'
00
02
16
0A
b000000001 J
b011111111 K
0Q
0R
1"#
b00000001 "-
b00000001 "9
1"=
b00000001 ">
0"P
b00000000000000000000000001000100 "R
1"W
1"a
1"j
0"k
1"o
#290
0"j
#297
b00000000000000000000000010111101 $
b00000000000000000000000010111101 &
b00000000000000000000000001101000 F
1I
b00000000000000000000000001101000 x
b00000000000000000000000001101000 "!
0"*
b00000000000000000000000010111101 "R
0"V
1"j
0"o
#304
0"j
#311
1#
b00000000000000000000000000101010 $
b00000000000000000000000000101010 &
1'
b00000010 )
10
b00000010 1
12
06
1A
1"P
b00000000000000000000000000101010 "R
0"W
0"a
1"j
1"k
#318
0"j
#325
b00000000000000000000000010110000 $
b00000000000000000000000010110000 &
b00000011 )
b00000011 1
b000000010 J
b011111110 K
b00000010 "-
b00000010 "9
b00000010 ">
b00000000000000000000000010110000 "R
1"j
#332
0"j
#339
b00000000000000000000000001010110 $
b00000000000000000000000001010110 &
b00000100 )
b00000100 1
b000000011 J
b011111101 K
b00000011 "-
b00000011 "9
b00000011 ">
b00000000000000000000000001010110 "R
1"j
#346
0"j
#353
b00000000000000000000000011001110 $
b00000000000000000000000011001110 &
b00000101 )
b00000101 1
b000000100 J
b011111100 K
b00000100 "-
b00000100 "9
b00000100 ">
b00000000000000000000000011001110 "R
1"j
#360
0"j
#367
0#
b00000000000000000000000010000001 $
b00000000000000000000000010000001 &
0'
00
02
16
0A
b000000101 J
b011111011 K
b00000101 "-
b00000101 "9
b00000101 ">
0"P
b00000000000000000000000010000001 "R
1"W
1"a
1"j
0"k
#374
0"j
#381
1#
b00000000000000000000000000001111 $
b00000000000000000000000000001111 &
1'
b00000110 )
10
b00000110 1
12
06
1A
1"P
b00000000000000000000000000001111 "R
0"W
0"a
1"j
1"k
#388
0"j
#395
b00000000000000000000000000000001 $
b00000000000000000000000000000001 &
b00000111 )
b00000111 1
b000000110 J
b011111010 K
b00000110 "-
b00000110 "9
b00000110 ">
b00000000000000000000000000000001 "R
1"j
#402
0"j
#409
b00000000000000000000000010100001 $
b00000000000000000000000010100001 &
b00001000 )
b00001000 1
b000000111 J
b011111001 K
b00000111 "-
b00000111 "9
b00000111 ">
b00000000000000000000000010100001 "R
1"j
#416
0"j
#423
b00000000000000000000000001110101 $
b00000000000000000000000001110101 &
b00001001 )
b00001001 1
16
b000001000 J
b011111000 K
b00001000 "-
b00001000 "9
b00001000 ">
b00000000000000000000000001110101 "R
1"W
1"a
1"j
#430
0"j
#437
b00000000000000000000000011010100 $
b00000000000000000000000011010100 &
b00001010 )
b00001010 1
06
b000001001 J
b011110111 K
b00001001 "-
b00001001 "9
b00001001 ">
b00000000000000000000000011010100 "R
0"W
0"a
1"j
#444
0"j
#451
0#
b00000000000000000000000000010000 $
b00000000000000000000000000010000 &
0'
00
02
0A
b000001010 J
b011110110 K
b00001010 "-
b00001010 "9
b00001010 ">
0"P
b00000000000000000000000000010000 "R
1"j
0"k
#458
0"j
#465
1#
b00000000000000000000000000100001 $
b00000000000000000000000000100001 &
1'
b00001011 )
10
b00001011 1
12
16
1A
1"P
b00000000000000000000000000100001 "R
1"W
1"a
1"j
1"k
#472
0"j
#479
0#
b00000000000000000000000001001011 $
b00000000000000000000000001001011 &
0'
00
02
06
0A
b000001011 J
b011110101 K
b00001011 "-
b00001011 "9
b00001011 ">
0"P
b00000000000000000000000001001011 "R
0"W
0"a
1"j
0"k
#486
0"j
#493
1#
b00000000000000000000000000001010 $
b00000000000000000000000000001010 &
1'
b00001100 )
10
b00001100 1
12
16
1A
1"P
b00000000000000000000000000001010 "R
1"W
1"a
1"j
1"k
#500
0"j
#507
0#
b00000000000000000000000001100111 $
b00000000000000000000000001100111 &
0'
00
02
06
0A
b000001100 J
b011110100 K
b00001100 "-
b00001100 "9
b00001100 ">
0"P
b00000000000000000000000001100111 "R
0"W
0"a
1"j
0"k
#514
0"j
#521
1#
b00000000000000000000000000000110 $
b00000000000000000000000000000110 &
1'
b00001101 )
10
b00001101 1
12
16
1A
1"P
b00000000000000000000000000000110 "R
1"W
1"a
1"j
1"k
#528
0"j
#535
0#
b00000000000000000000000011110001 $
b00000000000000000000000011110001 &
0'
00
02
06
0A
b000001101 J
b011110011 K
b00001101 "-
b00001101 "9
b00001101 ">
0"P
b00000000000000000000000011110001 "R
0"W
0"a
1"j
0"k
#542
0"j
#549
1#
b00000000000000000000000001000001 $
b00000000000000000000000001000001 &
1'
b00001110 )
10
b00001110 1
12
16
1A
1"P
b00000000000000000000000001000001 "R
1"W
1"a
1"j
1"k
#556
0"j
#563
0#
b00000000000000000000000010100101 $
b00000000000000000000000010100101 &
0'
00
02
06
0A
b000001110 J
b011110010 K
b00001110 "-
b00001110 "9
b00001110 ">
0"P
b00000000000000000000000010100101 "R
0"W
0"a
1"j
0"k
#570
0"j
#577
b00000000000000000000000000110101 $
b00000000000000000000000000110101 &
b00000000000000000000000000110101 "R
1"j
#584
0"j
#591
b00000000000000000000000010100110 $
b00000000000000000000000010100110 &
b00000000000000000000000010100110 "R
1"j
#598
0"j
#605
1#
b00000000000000000000000000010000 $
b00000000000000000000000000010000 &
1'
b00001111 )
10
b00001111 1
12
16
1A
1"P
b00000000000000000000000000010000 "R
1"W
1"a
1"j
1"k
#612
0"j
#619
0#
b00000000000000000000000010100111 $
b00000000000000000000000010100111 &
0'
00
02
0A
b000001111 J
b011110001 K
b00001111 "-
b00001111 "9
b00001111 ">
0"P
b00000000000000000000000010100111 "R
1"j
0"k
#626
0"j
#633
1#
b00000000000000000000000011010100 $
b00000000000000000000000011010100 &
1'
b00010000 )
10
b00010000 1
12
1A
1"P
b00000000000000000000000011010100 "R
1"j
1"k
#640
0"j
#647
b00000000000000000000000001010101 $
b00000000000000000000000001010101 &
b00010001 )
b00010001 1
06
b000010000 J
b011110000 K
b00010000 "-
b00010000 "9
b00010000 ">
b00000000000000000000000001010101 "R
0"W
0"a
1"j
#654
0"j
#661
b00000000000000000000000010110101 $
b00000000000000000000000010110101 &
b00010010 )
b00010010 1
b000010001 J
b011101111 K
b00010001 "-
b00010001 "9
b00010001 ">
b00000000000000000000000010110101 "R
1"j
#668
0"j
#675
0#
b00000000000000000000000000000011 $
b00000000000000000000000000000011 &
0'
00
02
0A
b000010010 J
b011101110 K
b00010010 "-
b00010010 "9
b00010010 ">
0"P
b00000000000000000000000000000011 "R
1"j
0"k
#682
0"j
#689
b00000000000000000000000010111111 $
b00000000000000000000000010111111 &
b00000000000000000000000010111111 "R
1"j
#696
0"j
#703
b00000000000000000000000010011100 $
b00000000000000000000000010011100 &
16
b00000000000000000000000010011100 "R
1"W
1"a
1"j
#710
0"j
#717
1#
b00000000000000000000000011101110 $
b00000000000000000000000011101110 &
1'
b00010011 )
10
b00010011 1
12
1A
1"P
b00000000000000000000000011101110 "R
1"j
1"k
#724
0"j
#731
0#
b00000000000000000000000001010110 $
b00000000000000000000000001010110 &
0'
00
02
0A
b000010011 J
b011101101 K
b00010011 "-
b00010011 "9
b00010011 ">
0"P
b00000000000000000000000001010110 "R
1"j
0"k
#738
0"j
#745
1#
b00000000000000000000000011000101 $
b00000000000000000000000011000101 &
1'
b00010100 )
10
b00010100 1
12
1A
1"P
b00000000000000000000000011000101 "R
1"j
1"k
#752
0"j
#759
0#
b00000000000000000000000000111111 $
b00000000000000000000000000111111 &
0'
00
02
06
0A
b000010100 J
b011101100 K
b00010100 "-
b00010100 "9
b00010100 ">
0"P
b00000000000000000000000000111111 "R
0"W
0"a
1"j
0"k
#766
0"j
#773
b00000000000000000000000001000011 $
b00000000000000000000000001000011 &
b00000000000000000000000001000011 "R
1"j
#780
0"j
#787
b00000000000000000000000000100100 $
b00000000000000000000000000100100 &
16
b00000000000000000000000000100100 "R
1"W
1"a
1"j
#794
0"j
#801
1#
b00000000000000000000000001111111 $
b00000000000000000000000001111111 &
1'
b00010101 )
10
b00010101 1
12
06
1A
1"P
b00000000000000000000000001111111 "R
0"W
0"a
1"j
1"k
#808
0"j
#815
b00000000000000000000000001010010 $
b00000000000000000000000001010010 &
b00010110 )
b00010110 1
16
b000010101 J
b011101011 K
b00010101 "-
b00010101 "9
b00010101 ">
b00000000000000000000000001010010 "R
1"W
1"a
1"j
#822
0"j
#829
0#
b00000000000000000000000011000010 $
b00000000000000000000000011000010 &
0'
00
02
06
0A
b000010110 J
b011101010 K
b00010110 "-
b00010110 "9
b00010110 ">
0"P
b00000000000000000000000011000010 "R
0"W
0"a
1"j
0"k
#836
0"j
#843
1#
b00000000000000000000000000000100 $
b00000000000000000000000000000100 &
1'
b00010111 )
10
b00010111 1
12
16
1A
1"P
b00000000000000000000000000000100 "R
1"W
1"a
1"j
1"k
#850
0"j
#857
0#
b00000000000000000000000000000000 $
b00000000000000000000000000000000 &
0'
00
02
0A
b000010111 J
b011101001 K
b00010111 "-
b00010111 "9
b00010111 ">
0"P
b00000000000000000000000000000000 "R
1"j
0"k
#864
0"j
#871
b00000000000000000000000011111010 $
b00000000000000000000000011111010 &
b00000000000000000000000011111010 "R
1"j
#878
0"j
#885
b00000000000000000000000010100100 $
b00000000000000000000000010100100 &
b00000000000000000000000010100100 "R
1"j
#892
0"j
#899
1#
b00000000000000000000000010000101 $
b00000000000000000000000010000101 &
1'
b00011000 )
10
b00011000 1
12
06
1A
1"P
b00000000000000000000000010000101 "R
0"W
0"a
1"j
1"k
#906
0"j
#913
b00000000000000000000000001011011 $
b00000000000000000000000001011011 &
b00011001 )
b00011001 1
b000011000 J
b011101000 K
b00011000 "-
b00011000 "9
b00011000 ">
b00000000000000000000000001011011 "R
1"j
#920
0"j
#927
b00000000000000000000000011111000 $
b00000000000000000000000011111000 &
b00011010 )
b00011010 1
b000011001 J
b011100111 K
b00011001 "-
b00011001 "9
b00011001 ">
b00000000000000000000000011111000 "R
1"j
#934
0"j
#941
0#
b00000000000000000000000000100100 $
b00000000000000000000000000100100 &
0'
00
02
0A
b000011010 J
b011100110 K
b00011010 "-
b00011010 "9
b00011010 ">
0"P
b00000000000000000000000000100100 "R
1"j
0"k
#948
0"j
#955
b00000000000000000000000010010111 $
b00000000000000000000000010010111 &
b00000000000000000000000010010111 "R
1"j
#962
0"j
#969
1#
b00000000000000000000000001000001 $
b00000000000000000000000001000001 &
1'
b00011011 )
10
b00011011 1
12
1A
1"P
b00000000000000000000000001000001 "R
1"j
1"k
#976
0"j
#983
b00000000000000000000000000100000 $
b00000000000000000000000000100000 &
b00011100 )
b00011100 1
16
b000011011 J
b011100101 K
b00011011 "-
b00011011 "9
b00011011 ">
b00000000000000000000000000100000 "R
1"W
1"a
1"j
#990
0"j
#997
b00000000000000000000000011011110 $
b00000000000000000000000011011110 &
b00011101 )
b00011101 1
b000011100 J
b011100100 K
b00011100 "-
b00011100 "9
b00011100 ">
b00000000000000000000000011011110 "R
1"j
#1004
0"j
#1011
b00000000000000000000000000111101 $
b00000000000000000000000000111101 &
b00011110 )
b00011110 1
06
b000011101 J
b011100011 K
b00011101 "-
b00011101 "9
b00011101 ">
b00000000000000000000000000111101 "R
0"W
0"a
1"j
#1018
0"j
#1025
0#
b00000000000000000000000011111000 $
b00000000000000000000000011111000 &
0'
00
02
0A
b000011110 J
b011100010 K
b00011110 "-
b00011110 "9
b00011110 ">
0"P
b00000000000000000000000011111000 "R
1"j
0"k
#1032
0"j
