simWorkspace/PingPongBufferWithWriteOnlyMaster/test.vcd
$version Generated by VerilatedVcd $end
$date Tue Dec 28 04:13:37 2021
 $end
$timescale   1ns $end

 $scope module TOP $end
  $var wire  1 "f aclk $end
  $var wire  1 "e aresetn $end
  $var wire  8 "P bufferDepthIn [7:0] $end
  $var wire 32 "T full_aw_payload_addr [31:0] $end
  $var wire  2 "X full_aw_payload_burst [1:0] $end
  $var wire  4 "Y full_aw_payload_cache [3:0] $end
  $var wire  8 "V full_aw_payload_len [7:0] $end
  $var wire  3 "[ full_aw_payload_prot [2:0] $end
  $var wire  4 "Z full_aw_payload_qos [3:0] $end
  $var wire  4 "U full_aw_payload_region [3:0] $end
  $var wire  3 "W full_aw_payload_size [2:0] $end
  $var wire  1 "S full_aw_ready $end
  $var wire  1 "R full_aw_valid $end
  $var wire  2 "c full_b_payload_resp [1:0] $end
  $var wire  1 "b full_b_ready $end
  $var wire  1 "a full_b_valid $end
  $var wire 32 "^ full_w_payload_data [31:0] $end
  $var wire  1 "` full_w_payload_last $end
  $var wire  4 "_ full_w_payload_strb [3:0] $end
  $var wire  1 "] full_w_ready $end
  $var wire  1 "\ full_w_valid $end
  $var wire  1 "Q interruptOut $end
  $var wire 32 "d offset [31:0] $end
  $var wire  1 "O startIn $end
  $var wire 32 "N streamIn_payload [31:0] $end
  $var wire  1 "M streamIn_ready $end
  $var wire  1 "L streamIn_valid $end
  $scope module PingPongBufferWithWriteOnlyMaster $end
   $var wire  1 "f aclk $end
   $var wire  1 "e aresetn $end
   $var wire  8 "P bufferDepthIn [7:0] $end
   $var wire 32 "T full_aw_payload_addr [31:0] $end
   $var wire  2 "X full_aw_payload_burst [1:0] $end
   $var wire  4 "Y full_aw_payload_cache [3:0] $end
   $var wire  8 "V full_aw_payload_len [7:0] $end
   $var wire  3 "[ full_aw_payload_prot [2:0] $end
   $var wire  4 "Z full_aw_payload_qos [3:0] $end
   $var wire  4 "U full_aw_payload_region [3:0] $end
   $var wire  3 "W full_aw_payload_size [2:0] $end
   $var wire  1 "S full_aw_ready $end
   $var wire  1 "R full_aw_valid $end
   $var wire  2 "c full_b_payload_resp [1:0] $end
   $var wire  1 "b full_b_ready $end
   $var wire  1 "a full_b_valid $end
   $var wire 32 "^ full_w_payload_data [31:0] $end
   $var wire  1 "` full_w_payload_last $end
   $var wire  4 "_ full_w_payload_strb [3:0] $end
   $var wire  1 "] full_w_ready $end
   $var wire  1 "\ full_w_valid $end
   $var wire  1 "Q interruptOut $end
   $var wire 32 "d offset [31:0] $end
   $var wire  8 "P pingPongBuffer_1_bufferDepthOut [7:0] $end
   $var wire  1 "& pingPongBuffer_1_interruptOut $end
   $var wire 32 g pingPongBuffer_1_m_axis_payload [31:0] $end
   $var wire  1 f pingPongBuffer_1_m_axis_valid $end
   $var wire  1 # pingPongBuffer_1_s_axis_ready $end
   $var wire  1 "' pingPongBuffer_1_startOut $end
   $var wire  1 "O startIn $end
   $var wire 32 "N streamIn_payload [31:0] $end
   $var wire  1 "M streamIn_ready $end
   $var wire  1 "L streamIn_valid $end
   $var wire 32 "d writeOnlyMater_m_axi_awaddr [31:0] $end
   $var wire  2 "p writeOnlyMater_m_axi_awburst [1:0] $end
   $var wire  4 "n writeOnlyMater_m_axi_awcache [3:0] $end
   $var wire  8 "g writeOnlyMater_m_axi_awlen [7:0] $end
   $var wire  3 "q writeOnlyMater_m_axi_awprot [2:0] $end
   $var wire  4 "n writeOnlyMater_m_axi_awqos [3:0] $end
   $var wire  4 "n writeOnlyMater_m_axi_awregion [3:0] $end
   $var wire  3 "o writeOnlyMater_m_axi_awsize [2:0] $end
   $var wire  1 "( writeOnlyMater_m_axi_awvalid $end
   $var wire  1 ") writeOnlyMater_m_axi_bready $end
   $var wire 32 & writeOnlyMater_m_axi_wdata [31:0] $end
   $var wire  1 ' writeOnlyMater_m_axi_wlast $end
   $var wire  4 "r writeOnlyMater_m_axi_wstrb [3:0] $end
   $var wire  1 % writeOnlyMater_m_axi_wvalid $end
   $var wire  1 $ writeOnlyMater_s_axis_ready $end
   $var wire  1 ~ writeOnlyMater_transInterrupt $end
   $scope module pingPongBuffer_1 $end
    $var wire  1 "f aclk $end
    $var wire  1 "e aresetn $end
    $var wire  8 "P bufferDepthIn [7:0] $end
    $var wire  8 "P bufferDepthOut [7:0] $end
    $var wire  9 k bufferFifoA_io_availability [8:0] $end
    $var wire  9 j bufferFifoA_io_occupancy [8:0] $end
    $var wire 32 "! bufferFifoA_io_pop_payload [31:0] $end
    $var wire  1 * bufferFifoA_io_pop_ready $end
    $var wire  1 i bufferFifoA_io_pop_valid $end
    $var wire 32 ) bufferFifoA_io_push_payload [31:0] $end
    $var wire  1 h bufferFifoA_io_push_ready $end
    $var wire  1 ( bufferFifoA_io_push_valid $end
    $var wire  9 o bufferFifoB_io_availability [8:0] $end
    $var wire  9 n bufferFifoB_io_occupancy [8:0] $end
    $var wire 32 "" bufferFifoB_io_pop_payload [31:0] $end
    $var wire  1 - bufferFifoB_io_pop_ready $end
    $var wire  1 m bufferFifoB_io_pop_valid $end
    $var wire 32 , bufferFifoB_io_push_payload [31:0] $end
    $var wire  1 l bufferFifoB_io_push_ready $end
    $var wire  1 + bufferFifoB_io_push_valid $end
    $var wire  1 4 inCounterWillOverflow $end
    $var wire  8 "* inCounter_value [7:0] $end
    $var wire  8 0 inCounter_valueNext [7:0] $end
    $var wire  1 / inCounter_willClear $end
    $var wire  1 . inCounter_willIncrement $end
    $var wire  1 Y inCounter_willOverflow $end
    $var wire  1 "+ inCounter_willOverflowIfInc $end
    $var wire  1 ~ interruptIn $end
    $var wire  1 "& interruptOut $end
    $var wire  1 "0 isAfterResetState $end
    $var wire  1 "/ isReadBufferA $end
    $var wire  1 ". isWriteBufferA $end
    $var wire  1 "J lastBurstCompleteSignal $end
    $var wire 32 g m_axis_payload [31:0] $end
    $var wire  1 $ m_axis_ready $end
    $var wire  1 f m_axis_valid $end
    $var wire  1 5 outCounterWillOverflow $end
    $var wire  8 ", outCounter_value [7:0] $end
    $var wire  8 3 outCounter_valueNext [7:0] $end
    $var wire  1 2 outCounter_willClear $end
    $var wire  1 1 outCounter_willIncrement $end
    $var wire  1 Z outCounter_willOverflow $end
    $var wire  1 "- outCounter_willOverflowIfInc $end
    $var wire  1 "& outputInterruptSignalState $end
    $var wire  1 "' outputStartSignalState $end
    $var wire  2 "s pingPongBufferStateMachine_enumDef_BOOT [1:0] $end
    $var wire  2 "p pingPongBufferStateMachine_enumDef_EMPTY [1:0] $end
    $var wire  2 "u pingPongBufferStateMachine_enumDef_FULL [1:0] $end
    $var wire  2 "t pingPongBufferStateMachine_enumDef_HALF [1:0] $end
    $var wire  2 8 pingPongBufferStateMachine_stateNext [1:0] $end
    $var wire 40 < pingPongBufferStateMachine_stateNext_string [39:0] $end
    $var wire  2 "1 pingPongBufferStateMachine_stateReg [1:0] $end
    $var wire 40 "4 pingPongBufferStateMachine_stateReg_string [39:0] $end
    $var wire  1 "v pingPongBufferStateMachine_wantExit $end
    $var wire  1 "v pingPongBufferStateMachine_wantKill $end
    $var wire  1 p pingPongBufferStateMachine_wantStart $end
    $var wire  1 7 realStartSignal $end
    $var wire 32 "N s_axis_payload [31:0] $end
    $var wire  1 # s_axis_ready $end
    $var wire  1 "L s_axis_valid $end
    $var wire  1 "O startIn $end
    $var wire  1 "' startOut $end
    $var wire  1 6 startReceiveResetSignal $end
    $var wire  1 "% startReceiveSignal $end
    $var wire  1 "h streamIn_fire $end
    $var wire  1 "h streamIn_fire_1 $end
    $var wire  1 [ streamOut_fire $end
    $var wire  1 [ streamOut_fire_1 $end
    $var wire  1 9 when_PingPongBuffer_l135 $end
    $var wire  1 : when_PingPongBuffer_l142 $end
    $var wire  1 ; when_PingPongBuffer_l155 $end
    $var wire  1 "2 when_PingPongBuffer_l164 $end
    $var wire  1 9 when_PingPongBuffer_l167 $end
    $var wire  1 : when_PingPongBuffer_l168 $end
    $var wire  1 "3 when_PingPongBuffer_l179 $end
    $var wire  1 \ when_StateMachine_l219 $end
    $var wire  1 ] when_StateMachine_l219_1 $end
    $var wire  1 ^ when_StateMachine_l235 $end
    $scope module bufferFifoA $end
     $var wire  1 "f aclk $end
     $var wire  1 "e aresetn $end
     $var wire  9 k io_availability [8:0] $end
     $var wire  1 "v io_flush $end
     $var wire  9 j io_occupancy [8:0] $end
     $var wire 32 "! io_pop_payload [31:0] $end
     $var wire  1 * io_pop_ready $end
     $var wire  1 i io_pop_valid $end
     $var wire 32 ) io_push_payload [31:0] $end
     $var wire  1 h io_push_ready $end
     $var wire  1 ( io_push_valid $end
     $var wire  1 r logic_empty $end
     $var wire  1 s logic_full $end
     $var wire  8 "8 logic_popPtr_value [7:0] $end
     $var wire  8 A logic_popPtr_valueNext [7:0] $end
     $var wire  1 "v logic_popPtr_willClear $end
     $var wire  1 @ logic_popPtr_willIncrement $end
     $var wire  1 ` logic_popPtr_willOverflow $end
     $var wire  1 "9 logic_popPtr_willOverflowIfInc $end
     $var wire  1 C logic_popping $end
     $var wire  8 "; logic_ptrDif [7:0] $end
     $var wire  1 q logic_ptrMatch $end
     $var wire  8 "6 logic_pushPtr_value [7:0] $end
     $var wire  8 ? logic_pushPtr_valueNext [7:0] $end
     $var wire  1 "v logic_pushPtr_willClear $end
     $var wire  1 > logic_pushPtr_willIncrement $end
     $var wire  1 _ logic_pushPtr_willOverflow $end
     $var wire  1 "7 logic_pushPtr_willOverflowIfInc $end
     $var wire  1 B logic_pushing $end
     $var wire  1 ": logic_risingOccupancy $end
     $var wire  1 D when_Stream_l946 $end
    $upscope $end
    $scope module bufferFifoB $end
     $var wire  1 "f aclk $end
     $var wire  1 "e aresetn $end
     $var wire  9 o io_availability [8:0] $end
     $var wire  1 "v io_flush $end
     $var wire  9 n io_occupancy [8:0] $end
     $var wire 32 "" io_pop_payload [31:0] $end
     $var wire  1 - io_pop_ready $end
     $var wire  1 m io_pop_valid $end
     $var wire 32 , io_push_payload [31:0] $end
     $var wire  1 l io_push_ready $end
     $var wire  1 + io_push_valid $end
     $var wire  1 u logic_empty $end
     $var wire  1 v logic_full $end
     $var wire  8 "> logic_popPtr_value [7:0] $end
     $var wire  8 H logic_popPtr_valueNext [7:0] $end
     $var wire  1 "v logic_popPtr_willClear $end
     $var wire  1 G logic_popPtr_willIncrement $end
     $var wire  1 b logic_popPtr_willOverflow $end
     $var wire  1 "? logic_popPtr_willOverflowIfInc $end
     $var wire  1 J logic_popping $end
     $var wire  8 "A logic_ptrDif [7:0] $end
     $var wire  1 t logic_ptrMatch $end
     $var wire  8 "< logic_pushPtr_value [7:0] $end
     $var wire  8 F logic_pushPtr_valueNext [7:0] $end
     $var wire  1 "v logic_pushPtr_willClear $end
     $var wire  1 E logic_pushPtr_willIncrement $end
     $var wire  1 a logic_pushPtr_willOverflow $end
     $var wire  1 "= logic_pushPtr_willOverflowIfInc $end
     $var wire  1 I logic_pushing $end
     $var wire  1 "@ logic_risingOccupancy $end
     $var wire  1 K when_Stream_l946 $end
    $upscope $end
   $upscope $end
   $scope module writeOnlyMater $end
    $var wire  1 "f aclk $end
    $var wire  1 "e aresetn $end
    $var wire  1 "( axi4Interface_controlAwValidSignal $end
    $var wire  1 ") axi4Interface_controlBReady $end
    $var wire  1 "l axi4Interface_full_aw_fire $end
    $var wire  1 "i axi4Interface_full_b_fire $end
    $var wire  1 "i axi4Interface_full_b_fire_1 $end
    $var wire  1 "i axi4Interface_full_b_fire_2 $end
    $var wire  1 "i axi4Interface_full_b_fire_3 $end
    $var wire  1 "i axi4Interface_full_b_fire_4 $end
    $var wire  1 "m axi4Interface_full_w_fire $end
    $var wire  1 ~ axi4Interface_isBurstComplete $end
    $var wire  1 "B axi4Interface_isTransferAfterReset $end
    $var wire  1 "C axi4Interface_lastBurstComplete $end
    $var wire  1 X axi4Interface_resetStartSendSignal $end
    $var wire 32 "w axi4Interface_transferDataType [31:0] $end
    $var wire  8 "P burstLen [7:0] $end
    $var wire 32 "d m_axi_awaddr [31:0] $end
    $var wire  2 "p m_axi_awburst [1:0] $end
    $var wire  4 "n m_axi_awcache [3:0] $end
    $var wire  8 "g m_axi_awlen [7:0] $end
    $var wire  3 "q m_axi_awprot [2:0] $end
    $var wire  4 "n m_axi_awqos [3:0] $end
    $var wire  1 "S m_axi_awready $end
    $var wire  4 "n m_axi_awregion [3:0] $end
    $var wire  3 "o m_axi_awsize [2:0] $end
    $var wire  1 "( m_axi_awvalid $end
    $var wire  1 ") m_axi_bready $end
    $var wire  2 "c m_axi_bresp [1:0] $end
    $var wire  1 "a m_axi_bvalid $end
    $var wire 32 & m_axi_wdata [31:0] $end
    $var wire  1 ' m_axi_wlast $end
    $var wire  1 "$ m_axi_wlast_regNext $end
    $var wire  1 "] m_axi_wready $end
    $var wire  4 "r m_axi_wstrb [3:0] $end
    $var wire  1 % m_axi_wvalid $end
    $var wire 32 "d offset [31:0] $end
    $var wire 32 g s_axis_payload [31:0] $end
    $var wire  1 $ s_axis_ready $end
    $var wire  1 f s_axis_valid $end
    $var wire  1 "' start $end
    $var wire  1 "K startSendSignal $end
    $var wire  9 z streamFifo_3_io_availability [8:0] $end
    $var wire  9 y streamFifo_3_io_occupancy [8:0] $end
    $var wire 32 "# streamFifo_3_io_pop_payload [31:0] $end
    $var wire  1 N streamFifo_3_io_pop_ready $end
    $var wire  1 x streamFifo_3_io_pop_valid $end
    $var wire  1 c streamFifo_3_io_push_fire $end
    $var wire 32 M streamFifo_3_io_push_payload [31:0] $end
    $var wire  1 w streamFifo_3_io_push_ready $end
    $var wire  1 L streamFifo_3_io_push_valid $end
    $var wire  1 ~ transInterrupt $end
    $var wire  1 "j when_Axi4WriteOnlyMaster_l119 $end
    $var wire  1 "k when_Axi4WriteOnlyMaster_l122 $end
    $var wire  1 P when_Axi4WriteOnlyMaster_l156 $end
    $var wire  1 O when_Axi4WriteOnlyMaster_l93 $end
    $scope module streamFifo_3 $end
     $var wire  1 "f aclk $end
     $var wire  1 "e aresetn $end
     $var wire  9 z io_availability [8:0] $end
     $var wire  1 "v io_flush $end
     $var wire  9 y io_occupancy [8:0] $end
     $var wire 32 "# io_pop_payload [31:0] $end
     $var wire  1 N io_pop_ready $end
     $var wire  1 x io_pop_valid $end
     $var wire 32 M io_push_payload [31:0] $end
     $var wire  1 w io_push_ready $end
     $var wire  1 L io_push_valid $end
     $var wire  1 | logic_empty $end
     $var wire  1 } logic_full $end
     $var wire  8 "F logic_popPtr_value [7:0] $end
     $var wire  8 T logic_popPtr_valueNext [7:0] $end
     $var wire  1 "v logic_popPtr_willClear $end
     $var wire  1 S logic_popPtr_willIncrement $end
     $var wire  1 e logic_popPtr_willOverflow $end
     $var wire  1 "G logic_popPtr_willOverflowIfInc $end
     $var wire  1 V logic_popping $end
     $var wire  8 "I logic_ptrDif [7:0] $end
     $var wire  1 { logic_ptrMatch $end
     $var wire  8 "D logic_pushPtr_value [7:0] $end
     $var wire  8 R logic_pushPtr_valueNext [7:0] $end
     $var wire  1 "v logic_pushPtr_willClear $end
     $var wire  1 Q logic_pushPtr_willIncrement $end
     $var wire  1 d logic_pushPtr_willOverflow $end
     $var wire  1 "E logic_pushPtr_willOverflowIfInc $end
     $var wire  1 U logic_pushing $end
     $var wire  1 "H logic_risingOccupancy $end
     $var wire  1 W when_Stream_l946 $end
    $upscope $end
   $upscope $end
  $upscope $end
 $upscope $end
$enddefinitions $end


#0
0#
0$
0%
b11000011110000100111001011110111 &
0'
0(
b00000000000000000000000000000000 )
0*
0+
b00000000000000000000000000000000 ,
0-
0.
0/
b00000000 0
01
02
b00000000 3
04
05
06
07
b01 8
09
0:
0;
b0100010101001101010100000101010001011001 <
0>
b00000000 ?
0@
b00000000 A
0B
0C
0D
0E
b00000000 F
0G
b00000000 H
0I
0J
0K
0L
b00010001001100101000010111110101 M
0N
0O
0P
0Q
b00000000 R
0S
b00000000 T
0U
0V
0W
0X
0Y
0Z
0[
0\
0]
1^
0_
0`
0a
0b
0c
0d
0e
0f
b00010001001100101000010111110101 g
1h
0i
b000000000 j
b100000000 k
1l
0m
b000000000 n
b100000000 o
1p
1q
1r
0s
1t
1u
0v
1w
0x
b000000000 y
b100000000 z
1{
1|
0}
0~
b00010001001100101000010111110101 "!
b00001010000001110100000000110110 ""
b11000011110000100111001011110111 "#
0"$
0"%
0"&
0"'
0"(
0")
b00000000 "*
0"+
b00000000 ",
0"-
1".
1"/
1"0
b00 "1
0"2
0"3
b0100001001001111010011110101010000100000 "4
b00000000 "6
0"7
b00000000 "8
0"9
0":
b00000000 ";
b00000000 "<
0"=
b00000000 ">
0"?
0"@
b00000000 "A
1"B
0"C
b00000000 "D
0"E
b00000000 "F
0"G
0"H
b00000000 "I
0"J
0"K
0"L
0"M
b00000000000000000000000000000000 "N
0"O
b10000000 "P
0"Q
0"R
0"S
b10110100111111011110010110100011 "T
b0000 "U
b01111111 "V
b010 "W
b01 "X
b0000 "Y
b0000 "Z
b000 "[
0"\
0"]
b11000011110000100111001011110111 "^
b1111 "_
0"`
0"a
0"b
b00 "c
b10110100111111011110010110100011 "d
0"e
0"f
b01111111 "g
0"h
0"i
1"j
0"k
0"l
0"m
b0000 "n
b010 "o
b01 "p
b000 "q
b1111 "r
b00 "s
b10 "t
b11 "u
0"v
b11000111001100001011111000010101 "w
#240
1"e
#255
1$
b10110100010110100000011101011010 &
b01111110111000111110010011110010 M
1O
1P
0^
b01111110111000111110010011110010 g
0p
b01111110111000111110010011110010 "!
b10011011001110101001010110111110 ""
b10110100010110100000011101011010 "#
1"&
1"'
0"0
b01 "1
b0100010101001101010100000101010001011001 "4
0"B
1"C
1"K
1"Q
b10110100010110100000011101011010 "^
1"f
0"j
1"k
#262
0"f
#269
0"&
0"'
1"(
0"C
0"Q
1"R
1"f
#275
1#
17
19
1"%
1"M
1"O
#276
0"f
#280
1(
b00000000000000000000000000010001 )
b00000000000000000000000000010001 ,
1.
b00000001 0
1>
b00000001 ?
1B
1D
1N
1"L
b00000000000000000000000000010001 "N
0"O
1"S
1"]
1"h
1"l
#283
b00000000000000000000000000100011 )
b00000000000000000000000000100011 ,
b00000010 0
b00000010 ?
b000000001 j
b011111111 k
0q
0r
0"(
b00000001 "*
b00000001 "6
1":
b00000001 ";
b00000000000000000000000000100011 "N
0"R
1"f
0"l
#290
0"f
#297
b00000000000000000000000000100100 )
b00000000000000000000000000100100 ,
b00000011 0
b00000011 ?
b00000000000000000000000000010001 M
b00000000000000000000000000010001 g
1i
b000000010 j
b011111110 k
b00000000000000000000000000010001 "!
b00000010 "*
b00000010 "6
b00000010 ";
b00000000000000000000000000100100 "N
1"f
#304
0"f
#311
0(
b00000000000000000000000000101101 )
b00000000000000000000000000101101 ,
0.
0>
0B
0D
0N
b000000011 j
b011111101 k
b00000011 "*
b00000011 "6
b00000011 ";
0"L
b00000000000000000000000000101101 "N
0"S
0"]
1"f
0"h
#318
0"f
#325
b00000000000000000000000010100011 )
b00000000000000000000000010100011 ,
1N
b00000000000000000000000010100011 "N
1"S
1"]
1"f
#332
0"f
#339
b00000000000000000000000010010010 )
b00000000000000000000000010010010 ,
b00000000000000000000000010010010 "N
1"f
#346
0"f
#353
b00000000000000000000000000001111 )
b00000000000000000000000000001111 ,
b00000000000000000000000000001111 "N
1"f
#360
0"f
#367
b00000000000000000000000001010100 )
b00000000000000000000000001010100 ,
b00000000000000000000000001010100 "N
1"f
#374
0"f
#381
b00000000000000000000000001000000 )
b00000000000000000000000001000000 ,
b00000000000000000000000001000000 "N
1"f
#388
0"f
#395
1(
b00000000000000000000000000100011 )
b00000000000000000000000000100011 ,
1.
b00000100 0
1>
b00000100 ?
1B
1D
0N
1"L
b00000000000000000000000000100011 "N
0"S
0"]
1"f
1"h
#402
0"f
#409
0(
b00000000000000000000000000001011 )
b00000000000000000000000000001011 ,
0.
0>
0B
0D
b000000100 j
b011111100 k
b00000100 "*
b00000100 "6
b00000100 ";
0"L
b00000000000000000000000000001011 "N
1"f
0"h
#416
0"f
#423
1(
b00000000000000000000000000101110 )
b00000000000000000000000000101110 ,
1.
b00000101 0
1>
b00000101 ?
1B
1D
1N
1"L
b00000000000000000000000000101110 "N
1"S
1"]
1"f
1"h
#430
0"f
#437
0(
b00000000000000000000000001111111 )
b00000000000000000000000001111111 ,
0.
0>
0B
0D
b000000101 j
b011111011 k
b00000101 "*
b00000101 "6
b00000101 ";
0"L
b00000000000000000000000001111111 "N
1"f
0"h
#444
0"f
#451
b00000000000000000000000011000100 )
b00000000000000000000000011000100 ,
0N
b00000000000000000000000011000100 "N
0"S
0"]
1"f
#458
0"f
#465
1(
b00000000000000000000000001100110 )
b00000000000000000000000001100110 ,
1.
b00000110 0
1>
b00000110 ?
1B
1D
1N
1"L
b00000000000000000000000001100110 "N
1"S
1"]
1"f
1"h
#472
0"f
#479
b00000000000000000000000010001111 )
b00000000000000000000000010001111 ,
b00000111 0
b00000111 ?
0N
b000000110 j
b011111010 k
b00000110 "*
b00000110 "6
b00000110 ";
b00000000000000000000000010001111 "N
0"S
0"]
1"f
#486
0"f
#493
0(
b00000000000000000000000000111111 )
b00000000000000000000000000111111 ,
0.
0>
0B
0D
b000000111 j
b011111001 k
b00000111 "*
b00000111 "6
b00000111 ";
0"L
b00000000000000000000000000111111 "N
1"f
0"h
#500
0"f
#507
b00000000000000000000000011000001 )
b00000000000000000000000011000001 ,
1N
b00000000000000000000000011000001 "N
1"S
1"]
1"f
#514
0"f
#521
b00000000000000000000000001100000 )
b00000000000000000000000001100000 ,
b00000000000000000000000001100000 "N
1"f
#528
0"f
#535
b00000000000000000000000011110010 )
b00000000000000000000000011110010 ,
b00000000000000000000000011110010 "N
1"f
#542
0"f
#549
1(
b00000000000000000000000000101110 )
b00000000000000000000000000101110 ,
1.
b00001000 0
1>
b00001000 ?
1B
1D
1"L
b00000000000000000000000000101110 "N
1"f
1"h
#556
0"f
#563
b00000000000000000000000000011010 )
b00000000000000000000000000011010 ,
b00001001 0
b00001001 ?
b000001000 j
b011111000 k
b00001000 "*
b00001000 "6
b00001000 ";
b00000000000000000000000000011010 "N
1"f
#570
0"f
#577
0(
b00000000000000000000000011111110 )
b00000000000000000000000011111110 ,
0.
0>
0B
0D
b000001001 j
b011110111 k
b00001001 "*
b00001001 "6
b00001001 ";
0"L
b00000000000000000000000011111110 "N
1"f
0"h
#584
0"f
#591
b00000000000000000000000000011101 )
b00000000000000000000000000011101 ,
b00000000000000000000000000011101 "N
1"f
#598
0"f
#605
b00000000000000000000000011101010 )
b00000000000000000000000011101010 ,
0N
b00000000000000000000000011101010 "N
0"S
0"]
1"f
#612
0"f
#619
1(
b00000000000000000000000000101110 )
b00000000000000000000000000101110 ,
1.
b00001010 0
1>
b00001010 ?
1B
1D
1N
1"L
b00000000000000000000000000101110 "N
1"S
1"]
1"f
1"h
#626
0"f
#633
0(
b00000000000000000000000010101011 )
b00000000000000000000000010101011 ,
0.
0>
0B
0D
0N
b000001010 j
b011110110 k
b00001010 "*
b00001010 "6
b00001010 ";
0"L
b00000000000000000000000010101011 "N
0"S
0"]
1"f
0"h
#640
0"f
#647
1(
b00000000000000000000000011110001 )
b00000000000000000000000011110001 ,
1.
b00001011 0
1>
b00001011 ?
1B
1D
1"L
b00000000000000000000000011110001 "N
1"f
1"h
#654
0"f
#661
0(
b00000000000000000000000011111101 )
b00000000000000000000000011111101 ,
0.
0>
0B
0D
b000001011 j
b011110101 k
b00001011 "*
b00001011 "6
b00001011 ";
0"L
b00000000000000000000000011111101 "N
1"f
0"h
#668
0"f
#675
1(
b00000000000000000000000001001101 )
b00000000000000000000000001001101 ,
1.
b00001100 0
1>
b00001100 ?
1B
1D
1"L
b00000000000000000000000001001101 "N
1"f
1"h
#682
0"f
#689
b00000000000000000000000011000011 )
b00000000000000000000000011000011 ,
b00001101 0
b00001101 ?
1N
b000001100 j
b011110100 k
b00001100 "*
b00001100 "6
b00001100 ";
b00000000000000000000000011000011 "N
1"S
1"]
1"f
#696
0"f
#703
0(
b00000000000000000000000010101000 )
b00000000000000000000000010101000 ,
0.
0>
0B
0D
0N
b000001101 j
b011110011 k
b00001101 "*
b00001101 "6
b00001101 ";
0"L
b00000000000000000000000010101000 "N
0"S
0"]
1"f
0"h
#710
0"f
#717
1(
b00000000000000000000000010111110 )
b00000000000000000000000010111110 ,
1.
b00001110 0
1>
b00001110 ?
1B
1D
1"L
b00000000000000000000000010111110 "N
1"f
1"h
#724
0"f
#731
b00000000000000000000000011110001 )
b00000000000000000000000011110001 ,
b00001111 0
b00001111 ?
b000001110 j
b011110010 k
b00001110 "*
b00001110 "6
b00001110 ";
b00000000000000000000000011110001 "N
1"f
#738
0"f
#745
0(
b00000000000000000000000000000101 )
b00000000000000000000000000000101 ,
0.
0>
0B
0D
b000001111 j
b011110001 k
b00001111 "*
b00001111 "6
b00001111 ";
0"L
b00000000000000000000000000000101 "N
1"f
0"h
#752
0"f
#759
b00000000000000000000000001010100 )
b00000000000000000000000001010100 ,
b00000000000000000000000001010100 "N
1"f
#766
0"f
#773
1(
b00000000000000000000000000110001 )
b00000000000000000000000000110001 ,
1.
b00010000 0
1>
b00010000 ?
1B
1D
1"L
b00000000000000000000000000110001 "N
1"f
1"h
#780
0"f
#787
b00000000000000000000000011001000 )
b00000000000000000000000011001000 ,
b00010001 0
b00010001 ?
b000010000 j
b011110000 k
b00010000 "*
b00010000 "6
b00010000 ";
b00000000000000000000000011001000 "N
1"f
#794
0"f
#801
0(
b00000000000000000000000001011010 )
b00000000000000000000000001011010 ,
0.
0>
0B
0D
b000010001 j
b011101111 k
b00010001 "*
b00010001 "6
b00010001 ";
0"L
b00000000000000000000000001011010 "N
1"f
0"h
#808
0"f
#815
b00000000000000000000000000111100 )
b00000000000000000000000000111100 ,
1N
b00000000000000000000000000111100 "N
1"S
1"]
1"f
#822
0"f
#829
b00000000000000000000000000001011 )
b00000000000000000000000000001011 ,
b00000000000000000000000000001011 "N
1"f
#836
0"f
#843
1(
b00000000000000000000000001011110 )
b00000000000000000000000001011110 ,
1.
b00010010 0
1>
b00010010 ?
1B
1D
0N
1"L
b00000000000000000000000001011110 "N
0"S
0"]
1"f
1"h
#850
0"f
#857
b00000000000000000000000011000010 )
b00000000000000000000000011000010 ,
b00010011 0
b00010011 ?
b000010010 j
b011101110 k
b00010010 "*
b00010010 "6
b00010010 ";
b00000000000000000000000011000010 "N
1"f
#864
0"f
#871
b00000000000000000000000011101010 )
b00000000000000000000000011101010 ,
b00010100 0
b00010100 ?
b000010011 j
b011101101 k
b00010011 "*
b00010011 "6
b00010011 ";
b00000000000000000000000011101010 "N
1"f
#878
0"f
#885
b00000000000000000000000001000111 )
b00000000000000000000000001000111 ,
b00010101 0
b00010101 ?
b000010100 j
b011101100 k
b00010100 "*
b00010100 "6
b00010100 ";
b00000000000000000000000001000111 "N
1"f
#892
0"f
#899
0(
b00000000000000000000000000001111 )
b00000000000000000000000000001111 ,
0.
0>
0B
0D
1N
b000010101 j
b011101011 k
b00010101 "*
b00010101 "6
b00010101 ";
0"L
b00000000000000000000000000001111 "N
1"S
1"]
1"f
0"h
#906
0"f
#913
b00000000000000000000000011011111 )
b00000000000000000000000011011111 ,
0N
b00000000000000000000000011011111 "N
0"S
0"]
1"f
#920
0"f
#927
1(
b00000000000000000000000010011001 )
b00000000000000000000000010011001 ,
1.
b00010110 0
1>
b00010110 ?
1B
1D
1N
1"L
b00000000000000000000000010011001 "N
1"S
1"]
1"f
1"h
#934
0"f
#941
0(
b00000000000000000000000001001011 )
b00000000000000000000000001001011 ,
0.
0>
0B
0D
0N
b000010110 j
b011101010 k
b00010110 "*
b00010110 "6
b00010110 ";
0"L
b00000000000000000000000001001011 "N
0"S
0"]
1"f
0"h
#948
0"f
#955
b00000000000000000000000000001000 )
b00000000000000000000000000001000 ,
b00000000000000000000000000001000 "N
1"f
#962
0"f
#969
b00000000000000000000000011100110 )
b00000000000000000000000011100110 ,
b00000000000000000000000011100110 "N
1"f
#976
0"f
#983
1(
b00000000000000000000000011001001 )
b00000000000000000000000011001001 ,
1.
b00010111 0
1>
b00010111 ?
1B
1D
1N
1"L
b00000000000000000000000011001001 "N
1"S
1"]
1"f
1"h
#990
0"f
#997
0(
b00000000000000000000000010100000 )
b00000000000000000000000010100000 ,
0.
0>
0B
0D
b000010111 j
b011101001 k
b00010111 "*
b00010111 "6
b00010111 ";
0"L
b00000000000000000000000010100000 "N
1"f
0"h
#1004
0"f
#1011
b00000000000000000000000001101000 )
b00000000000000000000000001101000 ,
0N
b00000000000000000000000001101000 "N
0"S
0"]
1"f
#1018
0"f
#1025
1(
b00000000000000000000000001011110 )
b00000000000000000000000001011110 ,
1.
b00011000 0
1>
b00011000 ?
1B
1D
1"L
b00000000000000000000000001011110 "N
1"f
1"h
#1032
0"f
#1039
0(
b00000000000000000000000001010001 )
b00000000000000000000000001010001 ,
0.
0>
0B
0D
1N
b000011000 j
b011101000 k
b00011000 "*
b00011000 "6
b00011000 ";
0"L
b00000000000000000000000001010001 "N
1"S
1"]
1"f
0"h
#1046
0"f
#1053
1(
b00000000000000000000000011110000 )
b00000000000000000000000011110000 ,
1.
b00011001 0
1>
b00011001 ?
1B
1D
0N
1"L
b00000000000000000000000011110000 "N
0"S
0"]
1"f
1"h
#1060
0"f
#1067
b00000000000000000000000011100000 )
b00000000000000000000000011100000 ,
b00011010 0
b00011010 ?
b000011001 j
b011100111 k
b00011001 "*
b00011001 "6
b00011001 ";
b00000000000000000000000011100000 "N
1"f
#1074
0"f
