simWorkspace/PingPongBufferWithWriteOnlyMaster/test.vcd
$version Generated by VerilatedVcd $end
$date Sat Dec 25 13:15:46 2021
 $end
$timescale   1ns $end

 $scope module TOP $end
  $var wire  1 "Z aclk $end
  $var wire  1 "Y aresetn $end
  $var wire  8 "D bufferDepthIn [7:0] $end
  $var wire 32 "H full_aw_payload_addr [31:0] $end
  $var wire  2 "L full_aw_payload_burst [1:0] $end
  $var wire  4 "M full_aw_payload_cache [3:0] $end
  $var wire  8 "J full_aw_payload_len [7:0] $end
  $var wire  3 "O full_aw_payload_prot [2:0] $end
  $var wire  4 "N full_aw_payload_qos [3:0] $end
  $var wire  4 "I full_aw_payload_region [3:0] $end
  $var wire  3 "K full_aw_payload_size [2:0] $end
  $var wire  1 "G full_aw_ready $end
  $var wire  1 "F full_aw_valid $end
  $var wire  2 "W full_b_payload_resp [1:0] $end
  $var wire  1 "V full_b_ready $end
  $var wire  1 "U full_b_valid $end
  $var wire 32 "R full_w_payload_data [31:0] $end
  $var wire  1 "T full_w_payload_last $end
  $var wire  4 "S full_w_payload_strb [3:0] $end
  $var wire  1 "Q full_w_ready $end
  $var wire  1 "P full_w_valid $end
  $var wire  1 "E interruptOut $end
  $var wire 32 "X offset [31:0] $end
  $var wire  1 "C startIn $end
  $var wire 32 "B streamIn_payload [31:0] $end
  $var wire  1 "A streamIn_ready $end
  $var wire  1 "@ streamIn_valid $end
  $scope module PingPongBufferWithWriteOnlyMaster $end
   $var wire  1 "Z aclk $end
   $var wire  1 "Y aresetn $end
   $var wire  8 "D bufferDepthIn [7:0] $end
   $var wire 32 "H full_aw_payload_addr [31:0] $end
   $var wire  2 "L full_aw_payload_burst [1:0] $end
   $var wire  4 "M full_aw_payload_cache [3:0] $end
   $var wire  8 "J full_aw_payload_len [7:0] $end
   $var wire  3 "O full_aw_payload_prot [2:0] $end
   $var wire  4 "N full_aw_payload_qos [3:0] $end
   $var wire  4 "I full_aw_payload_region [3:0] $end
   $var wire  3 "K full_aw_payload_size [2:0] $end
   $var wire  1 "G full_aw_ready $end
   $var wire  1 "F full_aw_valid $end
   $var wire  2 "W full_b_payload_resp [1:0] $end
   $var wire  1 "V full_b_ready $end
   $var wire  1 "U full_b_valid $end
   $var wire 32 "R full_w_payload_data [31:0] $end
   $var wire  1 "T full_w_payload_last $end
   $var wire  4 "S full_w_payload_strb [3:0] $end
   $var wire  1 "Q full_w_ready $end
   $var wire  1 "P full_w_valid $end
   $var wire  1 "E interruptOut $end
   $var wire 32 "X offset [31:0] $end
   $var wire  8 "D pingPongBuffer_1_bufferDepthOut [7:0] $end
   $var wire  1 "# pingPongBuffer_1_interruptOut $end
   $var wire  1 "$ pingPongBuffer_1_startOut $end
   $var wire  1 R pingPongBuffer_1_streamIn_ready $end
   $var wire 32 _ pingPongBuffer_1_streamOut_payload [31:0] $end
   $var wire  1 ^ pingPongBuffer_1_streamOut_valid $end
   $var wire  1 "C startIn $end
   $var wire 32 "B streamIn_payload [31:0] $end
   $var wire  1 "A streamIn_ready $end
   $var wire  1 "@ streamIn_valid $end
   $var wire 32 "X writeOnlyMater_axi4Interface_full_aw_payload_addr [31:0] $end
   $var wire  2 "g writeOnlyMater_axi4Interface_full_aw_payload_burst [1:0] $end
   $var wire  4 "e writeOnlyMater_axi4Interface_full_aw_payload_cache [3:0] $end
   $var wire  8 "[ writeOnlyMater_axi4Interface_full_aw_payload_len [7:0] $end
   $var wire  3 "h writeOnlyMater_axi4Interface_full_aw_payload_prot [2:0] $end
   $var wire  4 "e writeOnlyMater_axi4Interface_full_aw_payload_qos [3:0] $end
   $var wire  4 "e writeOnlyMater_axi4Interface_full_aw_payload_region [3:0] $end
   $var wire  3 "f writeOnlyMater_axi4Interface_full_aw_payload_size [2:0] $end
   $var wire  1 "% writeOnlyMater_axi4Interface_full_aw_valid $end
   $var wire  1 "& writeOnlyMater_axi4Interface_full_b_ready $end
   $var wire 32 % writeOnlyMater_axi4Interface_full_w_payload_data [31:0] $end
   $var wire  1 & writeOnlyMater_axi4Interface_full_w_payload_last $end
   $var wire  4 "i writeOnlyMater_axi4Interface_full_w_payload_strb [3:0] $end
   $var wire  1 $ writeOnlyMater_axi4Interface_full_w_valid $end
   $var wire  1 # writeOnlyMater_axi4Interface_stream_ready $end
   $var wire  1 { writeOnlyMater_axi4Interface_transInterrupt $end
   $scope module pingPongBuffer_1 $end
    $var wire  1 "Z aclk $end
    $var wire  1 "( activeFifoA $end
    $var wire  1 ") activeFifoB $end
    $var wire  1 "Y aresetn $end
    $var wire  8 "D bufferDepthIn [7:0] $end
    $var wire  8 "D bufferDepthOut [7:0] $end
    $var wire  8 c bufferFifoA_io_availability [7:0] $end
    $var wire  8 b bufferFifoA_io_occupancy [7:0] $end
    $var wire 32 | bufferFifoA_io_pop_payload [31:0] $end
    $var wire  1 S bufferFifoA_io_pop_ready $end
    $var wire  1 a bufferFifoA_io_pop_valid $end
    $var wire  1 V bufferFifoA_io_push_fire $end
    $var wire  1 V bufferFifoA_io_push_fire_1 $end
    $var wire 32 "\ bufferFifoA_io_push_payload [31:0] $end
    $var wire  1 ` bufferFifoA_io_push_ready $end
    $var wire  1 ' bufferFifoA_io_push_valid $end
    $var wire  8 g bufferFifoB_io_availability [7:0] $end
    $var wire  8 f bufferFifoB_io_occupancy [7:0] $end
    $var wire 32 } bufferFifoB_io_pop_payload [31:0] $end
    $var wire  1 T bufferFifoB_io_pop_ready $end
    $var wire  1 e bufferFifoB_io_pop_valid $end
    $var wire  1 U bufferFifoB_io_push_fire $end
    $var wire 32 "] bufferFifoB_io_push_payload [31:0] $end
    $var wire  1 d bufferFifoB_io_push_ready $end
    $var wire  1 ( bufferFifoB_io_push_valid $end
    $var wire  1 "# controlOutputInterrupt $end
    $var wire  1 "$ controlOutputStartSignal $end
    $var wire  2 "' currentState [1:0] $end
    $var wire  1 { interruptIn $end
    $var wire  1 "# interruptOut $end
    $var wire  1 "> lastBurstCompleteSignal $end
    $var wire  2 "j pingPongBufferStateMachine_enumDef_writeFifoA [1:0] $end
    $var wire  2 "k pingPongBufferStateMachine_enumDef_writeFifoAReadFifoB [1:0] $end
    $var wire  2 "g pingPongBufferStateMachine_enumDef_writeFifoBReadFifoA [1:0] $end
    $var wire  2 , pingPongBufferStateMachine_stateNext [1:0] $end
    $var wire 152 2 pingPongBufferStateMachine_stateNext_string [151:0] $end
    $var wire  2 "' pingPongBufferStateMachine_stateReg [1:0] $end
    $var wire 152 i pingPongBufferStateMachine_stateReg_string [151:0] $end
    $var wire  1 "l pingPongBufferStateMachine_wantExit $end
    $var wire  1 "l pingPongBufferStateMachine_wantKill $end
    $var wire  1 h pingPongBufferStateMachine_wantStart $end
    $var wire  1 * startFifoASignal $end
    $var wire  1 + startFifoBSignal $end
    $var wire  1 "C startIn $end
    $var wire  1 "$ startOut $end
    $var wire  1 ) startReceiveResetSignal $end
    $var wire  1 "" startReceiveSignal $end
    $var wire 32 "B streamIn_payload [31:0] $end
    $var wire  1 R streamIn_ready $end
    $var wire  1 "@ streamIn_valid $end
    $var wire 32 _ streamOut_payload [31:0] $end
    $var wire  1 # streamOut_ready $end
    $var wire  1 ^ streamOut_valid $end
    $var wire  1 "_ when_PingPongBuffer_l108 $end
    $var wire  1 1 when_PingPongBuffer_l111 $end
    $var wire  1 "^ when_PingPongBuffer_l155 $end
    $var wire  1 - when_PingPongBuffer_l159 $end
    $var wire  1 . when_PingPongBuffer_l167 $end
    $var wire  1 "_ when_PingPongBuffer_l202 $end
    $var wire  1 / when_PingPongBuffer_l206 $end
    $var wire  1 0 when_PingPongBuffer_l214 $end
    $scope module bufferFifoA $end
     $var wire  1 "Z aclk $end
     $var wire  1 "Y aresetn $end
     $var wire  8 c io_availability [7:0] $end
     $var wire  1 "l io_flush $end
     $var wire  8 b io_occupancy [7:0] $end
     $var wire 32 | io_pop_payload [31:0] $end
     $var wire  1 S io_pop_ready $end
     $var wire  1 a io_pop_valid $end
     $var wire 32 "\ io_push_payload [31:0] $end
     $var wire  1 ` io_push_ready $end
     $var wire  1 ' io_push_valid $end
     $var wire  1 o logic_empty $end
     $var wire  1 p logic_full $end
     $var wire  7 ", logic_popPtr_value [6:0] $end
     $var wire  7 : logic_popPtr_valueNext [6:0] $end
     $var wire  1 "l logic_popPtr_willClear $end
     $var wire  1 9 logic_popPtr_willIncrement $end
     $var wire  1 X logic_popPtr_willOverflow $end
     $var wire  1 "- logic_popPtr_willOverflowIfInc $end
     $var wire  1 < logic_popping $end
     $var wire  7 "/ logic_ptrDif [6:0] $end
     $var wire  1 n logic_ptrMatch $end
     $var wire  7 "* logic_pushPtr_value [6:0] $end
     $var wire  7 8 logic_pushPtr_valueNext [6:0] $end
     $var wire  1 "l logic_pushPtr_willClear $end
     $var wire  1 7 logic_pushPtr_willIncrement $end
     $var wire  1 W logic_pushPtr_willOverflow $end
     $var wire  1 "+ logic_pushPtr_willOverflowIfInc $end
     $var wire  1 ; logic_pushing $end
     $var wire  1 ". logic_risingOccupancy $end
     $var wire  1 = when_Stream_l946 $end
    $upscope $end
    $scope module bufferFifoB $end
     $var wire  1 "Z aclk $end
     $var wire  1 "Y aresetn $end
     $var wire  8 g io_availability [7:0] $end
     $var wire  1 "l io_flush $end
     $var wire  8 f io_occupancy [7:0] $end
     $var wire 32 } io_pop_payload [31:0] $end
     $var wire  1 T io_pop_ready $end
     $var wire  1 e io_pop_valid $end
     $var wire 32 "] io_push_payload [31:0] $end
     $var wire  1 d io_push_ready $end
     $var wire  1 ( io_push_valid $end
     $var wire  1 r logic_empty $end
     $var wire  1 s logic_full $end
     $var wire  7 "2 logic_popPtr_value [6:0] $end
     $var wire  7 A logic_popPtr_valueNext [6:0] $end
     $var wire  1 "l logic_popPtr_willClear $end
     $var wire  1 @ logic_popPtr_willIncrement $end
     $var wire  1 Z logic_popPtr_willOverflow $end
     $var wire  1 "3 logic_popPtr_willOverflowIfInc $end
     $var wire  1 C logic_popping $end
     $var wire  7 "5 logic_ptrDif [6:0] $end
     $var wire  1 q logic_ptrMatch $end
     $var wire  7 "0 logic_pushPtr_value [6:0] $end
     $var wire  7 ? logic_pushPtr_valueNext [6:0] $end
     $var wire  1 "l logic_pushPtr_willClear $end
     $var wire  1 > logic_pushPtr_willIncrement $end
     $var wire  1 Y logic_pushPtr_willOverflow $end
     $var wire  1 "1 logic_pushPtr_willOverflowIfInc $end
     $var wire  1 B logic_pushing $end
     $var wire  1 "4 logic_risingOccupancy $end
     $var wire  1 D when_Stream_l946 $end
    $upscope $end
   $upscope $end
   $scope module writeOnlyMater $end
    $var wire  1 "Z aclk $end
    $var wire  1 "Y aresetn $end
    $var wire  8 "D axi4Interface_burstLen [7:0] $end
    $var wire  1 "% axi4Interface_controlAwValidSignal $end
    $var wire  1 "& axi4Interface_controlBReady $end
    $var wire  1 "c axi4Interface_full_aw_fire $end
    $var wire 32 "X axi4Interface_full_aw_payload_addr [31:0] $end
    $var wire  2 "g axi4Interface_full_aw_payload_burst [1:0] $end
    $var wire  4 "e axi4Interface_full_aw_payload_cache [3:0] $end
    $var wire  8 "[ axi4Interface_full_aw_payload_len [7:0] $end
    $var wire  3 "h axi4Interface_full_aw_payload_prot [2:0] $end
    $var wire  4 "e axi4Interface_full_aw_payload_qos [3:0] $end
    $var wire  4 "e axi4Interface_full_aw_payload_region [3:0] $end
    $var wire  3 "f axi4Interface_full_aw_payload_size [2:0] $end
    $var wire  1 "G axi4Interface_full_aw_ready $end
    $var wire  1 "% axi4Interface_full_aw_valid $end
    $var wire  1 "` axi4Interface_full_b_fire $end
    $var wire  1 "` axi4Interface_full_b_fire_1 $end
    $var wire  1 "` axi4Interface_full_b_fire_2 $end
    $var wire  1 "` axi4Interface_full_b_fire_3 $end
    $var wire  1 "` axi4Interface_full_b_fire_4 $end
    $var wire  2 "W axi4Interface_full_b_payload_resp [1:0] $end
    $var wire  1 "& axi4Interface_full_b_ready $end
    $var wire  1 "U axi4Interface_full_b_valid $end
    $var wire  1 "d axi4Interface_full_w_fire $end
    $var wire 32 % axi4Interface_full_w_payload_data [31:0] $end
    $var wire  1 & axi4Interface_full_w_payload_last $end
    $var wire  1 "! axi4Interface_full_w_payload_last_regNext $end
    $var wire  4 "i axi4Interface_full_w_payload_strb [3:0] $end
    $var wire  1 "Q axi4Interface_full_w_ready $end
    $var wire  1 $ axi4Interface_full_w_valid $end
    $var wire  1 { axi4Interface_isBurstComplete $end
    $var wire  1 "6 axi4Interface_isTransferAfterReset $end
    $var wire  1 "7 axi4Interface_lastBurstComplete $end
    $var wire 32 "X axi4Interface_offset [31:0] $end
    $var wire  1 Q axi4Interface_resetStartSendSignal $end
    $var wire  1 "$ axi4Interface_start $end
    $var wire 32 _ axi4Interface_stream_payload [31:0] $end
    $var wire  1 # axi4Interface_stream_ready $end
    $var wire  1 ^ axi4Interface_stream_valid $end
    $var wire  1 { axi4Interface_transInterrupt $end
    $var wire 32 "m axi4Interface_transferDataType [31:0] $end
    $var wire  1 "? startSendSignal $end
    $var wire  9 w streamFifo_3_io_availability [8:0] $end
    $var wire  9 v streamFifo_3_io_occupancy [8:0] $end
    $var wire 32 ~ streamFifo_3_io_pop_payload [31:0] $end
    $var wire  1 G streamFifo_3_io_pop_ready $end
    $var wire  1 u streamFifo_3_io_pop_valid $end
    $var wire  1 [ streamFifo_3_io_push_fire $end
    $var wire 32 F streamFifo_3_io_push_payload [31:0] $end
    $var wire  1 t streamFifo_3_io_push_ready $end
    $var wire  1 E streamFifo_3_io_push_valid $end
    $var wire  1 "a when_Axi4WriteOnlyMaster_l119 $end
    $var wire  1 "b when_Axi4WriteOnlyMaster_l122 $end
    $var wire  1 I when_Axi4WriteOnlyMaster_l156 $end
    $var wire  1 H when_Axi4WriteOnlyMaster_l93 $end
    $scope module streamFifo_3 $end
     $var wire  1 "Z aclk $end
     $var wire  1 "Y aresetn $end
     $var wire  9 w io_availability [8:0] $end
     $var wire  1 "l io_flush $end
     $var wire  9 v io_occupancy [8:0] $end
     $var wire 32 ~ io_pop_payload [31:0] $end
     $var wire  1 G io_pop_ready $end
     $var wire  1 u io_pop_valid $end
     $var wire 32 F io_push_payload [31:0] $end
     $var wire  1 t io_push_ready $end
     $var wire  1 E io_push_valid $end
     $var wire  1 y logic_empty $end
     $var wire  1 z logic_full $end
     $var wire  8 ": logic_popPtr_value [7:0] $end
     $var wire  8 M logic_popPtr_valueNext [7:0] $end
     $var wire  1 "l logic_popPtr_willClear $end
     $var wire  1 L logic_popPtr_willIncrement $end
     $var wire  1 ] logic_popPtr_willOverflow $end
     $var wire  1 "; logic_popPtr_willOverflowIfInc $end
     $var wire  1 O logic_popping $end
     $var wire  8 "= logic_ptrDif [7:0] $end
     $var wire  1 x logic_ptrMatch $end
     $var wire  8 "8 logic_pushPtr_value [7:0] $end
     $var wire  8 K logic_pushPtr_valueNext [7:0] $end
     $var wire  1 "l logic_pushPtr_willClear $end
     $var wire  1 J logic_pushPtr_willIncrement $end
     $var wire  1 \ logic_pushPtr_willOverflow $end
     $var wire  1 "9 logic_pushPtr_willOverflowIfInc $end
     $var wire  1 N logic_pushing $end
     $var wire  1 "< logic_risingOccupancy $end
     $var wire  1 P when_Stream_l946 $end
    $upscope $end
   $upscope $end
  $upscope $end
 $upscope $end
$enddefinitions $end


#0
0#
0$
b11100110101000101010111001110000 %
0&
0'
0(
0)
0*
0+
b00 ,
0-
0.
0/
00
01
b01110111011100100110100101110100011001010100011001101001011001100110111101000001001000000010000000100000001000000010000000100000001000000010000000100000 2
07
b0000000 8
09
b0000000 :
0;
0<
0=
0>
b0000000 ?
0@
b0000000 A
0B
0C
0D
0E
b00000000000000000000000000000000 F
0G
0H
0I
0J
b00000000 K
0L
b00000000 M
0N
0O
0P
0Q
0R
0S
0T
0U
0V
0W
0X
0Y
0Z
0[
0\
0]
0^
b00000000000000000000000000000000 _
1`
0a
b00000000 b
b10000000 c
1d
0e
b00000000 f
b10000000 g
1h
b01110111011100100110100101110100011001010100011001101001011001100110111101000001001000000010000000100000001000000010000000100000001000000010000000100000 i
1n
1o
0p
1q
1r
0s
1t
0u
b000000000 v
b100000000 w
1x
1y
0z
0{
b10010011110111000010111101001101 |
b00010010110111000010111011101000 }
b11100110101000101010111001110000 ~
0"!
0""
0"#
0"$
0"%
0"&
b00 "'
1"(
0")
b0000000 "*
0"+
b0000000 ",
0"-
0".
b0000000 "/
b0000000 "0
0"1
b0000000 "2
0"3
0"4
b0000000 "5
1"6
0"7
b00000000 "8
0"9
b00000000 ":
0";
0"<
b00000000 "=
0">
0"?
0"@
0"A
b00000000000000000000000000000000 "B
0"C
b01000000 "D
0"E
0"F
0"G
b11000111111011100100100001001100 "H
b0000 "I
b00111111 "J
b010 "K
b01 "L
b0000 "M
b0000 "N
b000 "O
0"P
0"Q
b11100110101000101010111001110000 "R
b1111 "S
0"T
0"U
0"V
b00 "W
b11000111111011100100100001001100 "X
0"Y
0"Z
b00111111 "[
b00000000000000000000000000000000 "\
b00000000000000000000000000000000 "]
0"^
0"_
0"`
1"a
0"b
0"c
0"d
b0000 "e
b010 "f
b01 "g
b000 "h
b1111 "i
b00 "j
b10 "k
0"l
b11001010110100000000010100011100 "m
#240
1"Y
#255
b01111111100001000000001100001011 %
b11111101011011000011000011000011 |
b00011001111100010101101110101110 }
b01111111100001000000001100001011 ~
0"6
1"7
b01111111100001000000001100001011 "R
1"Z
0"a
#262
0"Z
#269
1"Z
#275
1*
1R
1""
1"A
1"C
#276
0"Z
#280
1'
17
b0000001 8
1;
1=
1V
1"@
b00000000000000000000000011100100 "B
0"C
1"G
1"Q
b00000000000000000000000011100100 "\
#283
b0000010 8
b00000001 b
b01111111 c
0n
0o
b0000001 "*
1".
b0000001 "/
b00000000000000000000000010001000 "B
1"Z
b00000000000000000000000010001000 "\
#290
0"Z
#297
b0000011 8
1a
b00000010 b
b01111110 c
b00000000000000000000000011100100 |
b0000010 "*
b0000010 "/
b00000000000000000000000011100001 "B
1"Z
b00000000000000000000000011100001 "\
#304
0"Z
#311
0'
07
0;
0=
0V
b00000011 b
b01111101 c
b0000011 "*
b0000011 "/
0"@
b00000000000000000000000011101110 "B
1"Z
b00000000000000000000000011101110 "\
#318
0"Z
#325
b00000000000000000000000011100000 "B
1"Z
b00000000000000000000000011100000 "\
#332
0"Z
#339
1'
17
b0000100 8
1;
1=
1V
1"@
b00000000000000000000000011011101 "B
1"Z
b00000000000000000000000011011101 "\
#346
0"Z
#353
0'
07
0;
0=
0V
b00000100 b
b01111100 c
b0000100 "*
b0000100 "/
0"@
b00000000000000000000000011100100 "B
1"Z
b00000000000000000000000011100100 "\
#360
0"Z
#367
1'
17
b0000101 8
1;
1=
1V
1"@
b00000000000000000000000011111111 "B
1"Z
b00000000000000000000000011111111 "\
#374
0"Z
#381
b0000110 8
b00000101 b
b01111011 c
b0000101 "*
b0000101 "/
b00000000000000000000000010000011 "B
1"Z
b00000000000000000000000010000011 "\
#388
0"Z
#395
b0000111 8
b00000110 b
b01111010 c
b0000110 "*
b0000110 "/
b00000000000000000000000010100000 "B
0"G
0"Q
1"Z
b00000000000000000000000010100000 "\
#402
0"Z
#409
0'
07
0;
0=
0V
b00000111 b
b01111001 c
b0000111 "*
b0000111 "/
0"@
b00000000000000000000000010111111 "B
1"Z
b00000000000000000000000010111111 "\
#416
0"Z
#423
1'
17
b0001000 8
1;
1=
1V
1"@
b00000000000000000000000011111001 "B
1"G
1"Q
1"Z
b00000000000000000000000011111001 "\
#430
0"Z
#437
0'
07
0;
0=
0V
b00001000 b
b01111000 c
b0001000 "*
b0001000 "/
0"@
b00000000000000000000000000001001 "B
1"Z
b00000000000000000000000000001001 "\
#444
0"Z
#451
1'
17
b0001001 8
1;
1=
1V
1"@
b00000000000000000000000001101110 "B
1"Z
b00000000000000000000000001101110 "\
#458
0"Z
#465
0'
07
0;
0=
0V
b00001001 b
b01110111 c
b0001001 "*
b0001001 "/
0"@
b00000000000000000000000001000100 "B
1"Z
b00000000000000000000000001000100 "\
#472
0"Z
#479
b00000000000000000000000000111011 "B
1"Z
b00000000000000000000000000111011 "\
#486
0"Z
#493
1'
17
b0001010 8
1;
1=
1V
1"@
b00000000000000000000000000110100 "B
1"Z
b00000000000000000000000000110100 "\
#500
0"Z
#507
0'
07
0;
0=
0V
b00001010 b
b01110110 c
b0001010 "*
b0001010 "/
0"@
b00000000000000000000000011100111 "B
1"Z
b00000000000000000000000011100111 "\
#514
0"Z
#521
b00000000000000000000000010111101 "B
0"G
0"Q
1"Z
b00000000000000000000000010111101 "\
#528
0"Z
#535
1'
17
b0001011 8
1;
1=
1V
1"@
b00000000000000000000000011011001 "B
1"Z
b00000000000000000000000011011001 "\
#542
0"Z
#549
0'
07
0;
0=
0V
b00001011 b
b01110101 c
b0001011 "*
b0001011 "/
0"@
b00000000000000000000000000110110 "B
1"Z
b00000000000000000000000000110110 "\
#556
0"Z
#563
b00000000000000000000000001110101 "B
1"Z
b00000000000000000000000001110101 "\
#570
0"Z
#577
1'
17
b0001100 8
1;
1=
1V
1"@
b00000000000000000000000010000111 "B
1"G
1"Q
1"Z
b00000000000000000000000010000111 "\
#584
0"Z
#591
b0001101 8
b00001100 b
b01110100 c
b0001100 "*
b0001100 "/
b00000000000000000000000000111100 "B
1"Z
b00000000000000000000000000111100 "\
#598
0"Z
#605
b0001110 8
b00001101 b
b01110011 c
b0001101 "*
b0001101 "/
b00000000000000000000000011010000 "B
0"G
0"Q
1"Z
b00000000000000000000000011010000 "\
#612
0"Z
#619
0'
07
0;
0=
0V
b00001110 b
b01110010 c
b0001110 "*
b0001110 "/
0"@
b00000000000000000000000000111101 "B
1"G
1"Q
1"Z
b00000000000000000000000000111101 "\
#626
0"Z
#633
1'
17
b0001111 8
1;
1=
1V
1"@
b00000000000000000000000011110110 "B
1"Z
b00000000000000000000000011110110 "\
#640
0"Z
#647
0'
07
0;
0=
0V
b00001111 b
b01110001 c
b0001111 "*
b0001111 "/
0"@
b00000000000000000000000000111111 "B
0"G
0"Q
1"Z
b00000000000000000000000000111111 "\
#654
0"Z
#661
b00000000000000000000000001010101 "B
1"G
1"Q
1"Z
b00000000000000000000000001010101 "\
#668
0"Z
#675
1'
17
b0010000 8
1;
1=
1V
1"@
b00000000000000000000000000001001 "B
0"G
0"Q
1"Z
b00000000000000000000000000001001 "\
#682
0"Z
#689
0'
07
0;
0=
0V
b00010000 b
b01110000 c
b0010000 "*
b0010000 "/
0"@
b00000000000000000000000011011010 "B
1"Z
b00000000000000000000000011011010 "\
#696
0"Z
#703
1'
17
b0010001 8
1;
1=
1V
1"@
b00000000000000000000000010100001 "B
1"Z
b00000000000000000000000010100001 "\
#710
0"Z
#717
0'
07
0;
0=
0V
b00010001 b
b01101111 c
b0010001 "*
b0010001 "/
0"@
b00000000000000000000000001011100 "B
1"G
1"Q
1"Z
b00000000000000000000000001011100 "\
#724
0"Z
#731
1'
17
b0010010 8
1;
1=
1V
1"@
b00000000000000000000000000110011 "B
1"Z
b00000000000000000000000000110011 "\
#738
0"Z
#745
b0010011 8
b00010010 b
b01101110 c
b0010010 "*
b0010010 "/
b00000000000000000000000000001101 "B
0"G
0"Q
1"Z
b00000000000000000000000000001101 "\
#752
0"Z
#759
b0010100 8
b00010011 b
b01101101 c
b0010011 "*
b0010011 "/
b00000000000000000000000011100011 "B
1"Z
b00000000000000000000000011100011 "\
#766
0"Z
#773
0'
07
0;
0=
0V
b00010100 b
b01101100 c
b0010100 "*
b0010100 "/
0"@
b00000000000000000000000000110100 "B
1"Z
b00000000000000000000000000110100 "\
#780
0"Z
#787
b00000000000000000000000010100000 "B
1"G
1"Q
1"Z
b00000000000000000000000010100000 "\
#794
0"Z
#801
1'
17
b0010101 8
1;
1=
1V
1"@
b00000000000000000000000000111101 "B
1"Z
b00000000000000000000000000111101 "\
#808
0"Z
#815
b0010110 8
b00010101 b
b01101011 c
b0010101 "*
b0010101 "/
b00000000000000000000000011010111 "B
0"G
0"Q
1"Z
b00000000000000000000000011010111 "\
#822
0"Z
#829
b0010111 8
b00010110 b
b01101010 c
b0010110 "*
b0010110 "/
b00000000000000000000000001010110 "B
1"Z
b00000000000000000000000001010110 "\
#836
0"Z
#843
0'
07
0;
0=
0V
b00010111 b
b01101001 c
b0010111 "*
b0010111 "/
0"@
b00000000000000000000000000001100 "B
1"G
1"Q
1"Z
b00000000000000000000000000001100 "\
#850
0"Z
#857
b00000000000000000000000001100000 "B
1"Z
b00000000000000000000000001100000 "\
#864
0"Z
#871
b00000000000000000000000010111011 "B
0"G
0"Q
1"Z
b00000000000000000000000010111011 "\
#878
0"Z
#885
b00000000000000000000000010100011 "B
1"Z
b00000000000000000000000010100011 "\
#892
0"Z
#899
1'
17
b0011000 8
1;
1=
1V
1"@
b00000000000000000000000001010010 "B
1"Z
b00000000000000000000000001010010 "\
#906
0"Z
#913
0'
07
0;
0=
0V
b00011000 b
b01101000 c
b0011000 "*
b0011000 "/
0"@
b00000000000000000000000011110010 "B
1"G
1"Q
1"Z
b00000000000000000000000011110010 "\
#920
0"Z
#927
b00000000000000000000000010011100 "B
0"G
0"Q
1"Z
b00000000000000000000000010011100 "\
#934
0"Z
#941
b00000000000000000000000001011011 "B
1"Z
b00000000000000000000000001011011 "\
#948
0"Z
#955
1'
17
b0011001 8
1;
1=
1V
1"@
b00000000000000000000000001101110 "B
1"Z
b00000000000000000000000001101110 "\
#962
0"Z
#969
b0011010 8
b00011001 b
b01100111 c
b0011001 "*
b0011001 "/
b00000000000000000000000000001001 "B
1"Z
b00000000000000000000000000001001 "\
#976
0"Z
#983
0'
07
0;
0=
0V
b00011010 b
b01100110 c
b0011010 "*
b0011010 "/
0"@
b00000000000000000000000000101110 "B
1"Z
b00000000000000000000000000101110 "\
#990
0"Z
#997
1'
17
b0011011 8
1;
1=
1V
1"@
b00000000000000000000000000111100 "B
1"G
1"Q
1"Z
b00000000000000000000000000111100 "\
#1004
0"Z
#1011
b0011100 8
b00011011 b
b01100101 c
b0011011 "*
b0011011 "/
b00000000000000000000000000000110 "B
1"Z
b00000000000000000000000000000110 "\
#1018
0"Z
#1025
b0011101 8
b00011100 b
b01100100 c
b0011100 "*
b0011100 "/
b00000000000000000000000011011111 "B
0"G
0"Q
1"Z
b00000000000000000000000011011111 "\
#1032
0"Z
#1039
b0011110 8
b00011101 b
b01100011 c
b0011101 "*
b0011101 "/
b00000000000000000000000011011000 "B
1"Z
b00000000000000000000000011011000 "\
#1046
0"Z
#1053
0'
07
0;
0=
0V
b00011110 b
b01100010 c
b0011110 "*
b0011110 "/
0"@
b00000000000000000000000010000110 "B
1"Z
b00000000000000000000000010000110 "\
#1060
0"Z
#1067
1'
17
b0011111 8
1;
1=
1V
1"@
b00000000000000000000000010100110 "B
1"Z
b00000000000000000000000010100110 "\
#1074
0"Z
#1081
0'
07
0;
0=
0V
b00011111 b
b01100001 c
b0011111 "*
b0011111 "/
0"@
b00000000000000000000000011101000 "B
1"Z
b00000000000000000000000011101000 "\
#1088
0"Z
#1095
b00000000000000000000000010111101 "B
1"Z
b00000000000000000000000010111101 "\
#1102
0"Z
#1109
1'
17
b0100000 8
1;
1=
1V
1"@
b00000000000000000000000000001111 "B
1"Z
b00000000000000000000000000001111 "\
#1116
0"Z
#1123
0'
07
0;
0=
0V
b00100000 b
b01100000 c
b0100000 "*
b0100000 "/
0"@
b00000000000000000000000011001001 "B
1"Z
b00000000000000000000000011001001 "\
#1130
0"Z
#1137
b00000000000000000000000000111100 "B
1"G
1"Q
1"Z
b00000000000000000000000000111100 "\
#1144
0"Z
#1151
b00000000000000000000000000110111 "B
0"G
0"Q
1"Z
b00000000000000000000000000110111 "\
#1158
0"Z
#1165
b00000000000000000000000011000001 "B
1"Z
b00000000000000000000000011000001 "\
#1172
0"Z
#1179
1'
17
b0100001 8
1;
1=
1V
1"@
b00000000000000000000000011010010 "B
1"G
1"Q
1"Z
b00000000000000000000000011010010 "\
#1186
0"Z
#1193
b0100010 8
b00100001 b
b01011111 c
b0100001 "*
b0100001 "/
b00000000000000000000000010001101 "B
0"G
0"Q
1"Z
b00000000000000000000000010001101 "\
#1200
0"Z
#1207
0'
07
0;
0=
0V
b00100010 b
b01011110 c
b0100010 "*
b0100010 "/
0"@
b00000000000000000000000010101010 "B
1"G
1"Q
1"Z
b00000000000000000000000010101010 "\
#1214
0"Z
#1221
b00000000000000000000000010000010 "B
0"G
0"Q
1"Z
b00000000000000000000000010000010 "\
#1228
0"Z
#1235
b00000000000000000000000011011001 "B
1"Z
b00000000000000000000000011011001 "\
#1242
0"Z
#1249
1'
17
b0100011 8
1;
1=
1V
1"@
b00000000000000000000000000110110 "B
1"Z
b00000000000000000000000000110110 "\
#1256
0"Z
#1263
b0100100 8
b00100011 b
b01011101 c
b0100011 "*
b0100011 "/
b00000000000000000000000011011110 "B
1"G
1"Q
1"Z
b00000000000000000000000011011110 "\
#1270
0"Z
#1277
0'
07
0;
0=
0V
b00100100 b
b01011100 c
b0100100 "*
b0100100 "/
0"@
b00000000000000000000000010111011 "B
0"G
0"Q
1"Z
b00000000000000000000000010111011 "\
#1284
0"Z
#1291
1'
17
b0100101 8
1;
1=
1V
1"@
b00000000000000000000000001011111 "B
1"Z
b00000000000000000000000001011111 "\
#1298
0"Z
#1305
0'
07
0;
0=
0V
b00100101 b
b01011011 c
b0100101 "*
b0100101 "/
0"@
b00000000000000000000000000100101 "B
1"G
1"Q
1"Z
b00000000000000000000000000100101 "\
#1312
0"Z
#1319
1'
17
b0100110 8
1;
1=
1V
1"@
b00000000000000000000000000101000 "B
1"Z
b00000000000000000000000000101000 "\
#1326
0"Z
