simWorkspace/PingPongBufferWithWriteOnlyMaster/test.vcd
$version Generated by VerilatedVcd $end
$date Thu Dec 30 23:04:54 2021
 $end
$timescale   1ns $end

 $scope module TOP $end
  $var wire  1 "u aclk $end
  $var wire  1 "t aresetn $end
  $var wire  8 "_ bufferDepthIn [7:0] $end
  $var wire 32 "a dataOffsetIn [31:0] $end
  $var wire 32 "d full_aw_payload_addr [31:0] $end
  $var wire  2 "h full_aw_payload_burst [1:0] $end
  $var wire  4 "i full_aw_payload_cache [3:0] $end
  $var wire  8 "f full_aw_payload_len [7:0] $end
  $var wire  3 "k full_aw_payload_prot [2:0] $end
  $var wire  4 "j full_aw_payload_qos [3:0] $end
  $var wire  4 "e full_aw_payload_region [3:0] $end
  $var wire  3 "g full_aw_payload_size [2:0] $end
  $var wire  1 "c full_aw_ready $end
  $var wire  1 "b full_aw_valid $end
  $var wire  2 "s full_b_payload_resp [1:0] $end
  $var wire  1 "r full_b_ready $end
  $var wire  1 "q full_b_valid $end
  $var wire 32 "n full_w_payload_data [31:0] $end
  $var wire  1 "p full_w_payload_last $end
  $var wire  4 "o full_w_payload_strb [3:0] $end
  $var wire  1 "m full_w_ready $end
  $var wire  1 "l full_w_valid $end
  $var wire  1 "` interruptOut $end
  $var wire  1 "^ startIn $end
  $var wire 32 "] streamIn_payload [31:0] $end
  $var wire  1 "\ streamIn_ready $end
  $var wire  1 "[ streamIn_valid $end
  $scope module PingPongBufferWithWriteOnlyMaster $end
   $var wire  1 "u aclk $end
   $var wire  1 "t aresetn $end
   $var wire  8 "_ bufferDepthIn [7:0] $end
   $var wire 32 "a dataOffsetIn [31:0] $end
   $var wire 32 "- full_aw_payload_addr [31:0] $end
   $var wire  2 "~ full_aw_payload_burst [1:0] $end
   $var wire  4 "| full_aw_payload_cache [3:0] $end
   $var wire  8 ". full_aw_payload_len [7:0] $end
   $var wire  3 #! full_aw_payload_prot [2:0] $end
   $var wire  4 "| full_aw_payload_qos [3:0] $end
   $var wire  4 "| full_aw_payload_region [3:0] $end
   $var wire  3 "} full_aw_payload_size [2:0] $end
   $var wire  1 "c full_aw_ready $end
   $var wire  1 ", full_aw_valid $end
   $var wire  2 "s full_b_payload_resp [1:0] $end
   $var wire  1 "/ full_b_ready $end
   $var wire  1 "q full_b_valid $end
   $var wire 32 i full_w_payload_data [31:0] $end
   $var wire  1 $ full_w_payload_last $end
   $var wire  4 #" full_w_payload_strb [3:0] $end
   $var wire  1 "m full_w_ready $end
   $var wire  1 h full_w_valid $end
   $var wire  1 "+ interruptOut $end
   $var wire  8 "1 pingPongBuffer_1_bufferDepthOut [7:0] $end
   $var wire 32 "2 pingPongBuffer_1_dataOffsetOut [31:0] $end
   $var wire  1 "+ pingPongBuffer_1_interruptOut $end
   $var wire 32 & pingPongBuffer_1_m_axis_payload [31:0] $end
   $var wire  1 % pingPongBuffer_1_m_axis_valid $end
   $var wire  1 ~ pingPongBuffer_1_s_axis_ready $end
   $var wire  1 "0 pingPongBuffer_1_startOut $end
   $var wire  1 "^ startIn $end
   $var wire 32 "] streamIn_payload [31:0] $end
   $var wire  1 ~ streamIn_ready $end
   $var wire  1 "[ streamIn_valid $end
   $var wire 32 "- writeOnlyMater_m_axi_awaddr [31:0] $end
   $var wire  2 "~ writeOnlyMater_m_axi_awburst [1:0] $end
   $var wire  4 "| writeOnlyMater_m_axi_awcache [3:0] $end
   $var wire  8 ". writeOnlyMater_m_axi_awlen [7:0] $end
   $var wire  3 #! writeOnlyMater_m_axi_awprot [2:0] $end
   $var wire  4 "| writeOnlyMater_m_axi_awqos [3:0] $end
   $var wire  4 "| writeOnlyMater_m_axi_awregion [3:0] $end
   $var wire  3 "} writeOnlyMater_m_axi_awsize [2:0] $end
   $var wire  1 ", writeOnlyMater_m_axi_awvalid $end
   $var wire  1 "/ writeOnlyMater_m_axi_bready $end
   $var wire 32 i writeOnlyMater_m_axi_wdata [31:0] $end
   $var wire  1 $ writeOnlyMater_m_axi_wlast $end
   $var wire  4 #" writeOnlyMater_m_axi_wstrb [3:0] $end
   $var wire  1 h writeOnlyMater_m_axi_wvalid $end
   $var wire  1 j writeOnlyMater_s_axis_ready $end
   $var wire  1 "# writeOnlyMater_transInterrupt $end
   $scope module pingPongBuffer_1 $end
    $var wire  1 "u aclk $end
    $var wire  1 "t aresetn $end
    $var wire  8 "_ bufferDepthIn [7:0] $end
    $var wire  8 "1 bufferDepthOut [7:0] $end
    $var wire  8 "1 bufferDepthReg [7:0] $end
    $var wire  9 1 bufferFifoA_io_availability [8:0] $end
    $var wire  9 0 bufferFifoA_io_occupancy [8:0] $end
    $var wire 32 "' bufferFifoA_io_pop_payload [31:0] $end
    $var wire  1 r bufferFifoA_io_pop_ready $end
    $var wire  1 / bufferFifoA_io_pop_valid $end
    $var wire 32 R bufferFifoA_io_push_payload [31:0] $end
    $var wire  1 . bufferFifoA_io_push_ready $end
    $var wire  1 Q bufferFifoA_io_push_valid $end
    $var wire  9 5 bufferFifoB_io_availability [8:0] $end
    $var wire  9 4 bufferFifoB_io_occupancy [8:0] $end
    $var wire 32 "( bufferFifoB_io_pop_payload [31:0] $end
    $var wire  1 s bufferFifoB_io_pop_ready $end
    $var wire  1 3 bufferFifoB_io_pop_valid $end
    $var wire 32 T bufferFifoB_io_push_payload [31:0] $end
    $var wire  1 2 bufferFifoB_io_push_ready $end
    $var wire  1 S bufferFifoB_io_push_valid $end
    $var wire  1 7 canReadData $end
    $var wire  2 "G currentState [1:0] $end
    $var wire 32 "a dataOffsetIn [31:0] $end
    $var wire 32 "2 dataOffsetOut [31:0] $end
    $var wire  1 "{ fallSignal $end
    $var wire  1 X inCounterWillOverflow $end
    $var wire  8 "= inCounter_value [7:0] $end
    $var wire  8 W inCounter_valueNext [7:0] $end
    $var wire  1 V inCounter_willClear $end
    $var wire  1 U inCounter_willIncrement $end
    $var wire  1 A inCounter_willOverflow $end
    $var wire  1 "> inCounter_willOverflowIfInc $end
    $var wire  1 "# interruptIn $end
    $var wire  1 "+ interruptOut $end
    $var wire  1 "C isAfterResetState $end
    $var wire  1 "B isReadBufferA $end
    $var wire  1 "A isWriteBufferA $end
    $var wire  1 "Y lastBurstCompleteSignal $end
    $var wire 32 & m_axis_payload [31:0] $end
    $var wire  1 j m_axis_ready $end
    $var wire  1 % m_axis_valid $end
    $var wire 32 "D offsetA [31:0] $end
    $var wire 32 "E offsetB [31:0] $end
    $var wire  1 w outCounterWillOverflow $end
    $var wire  8 "? outCounter_value [7:0] $end
    $var wire  8 v outCounter_valueNext [7:0] $end
    $var wire  1 u outCounter_willClear $end
    $var wire  1 t outCounter_willIncrement $end
    $var wire  1 I outCounter_willOverflow $end
    $var wire  1 "@ outCounter_willOverflowIfInc $end
    $var wire 32 "2 outputDataOffsetReg [31:0] $end
    $var wire  1 "+ outputInterruptSignalState $end
    $var wire  1 "0 outputStartSignalReg $end
    $var wire  2 #% pingPongBufferStateMachine_enumDef_BOOT [1:0] $end
    $var wire  2 "~ pingPongBufferStateMachine_enumDef_EMPTY [1:0] $end
    $var wire  2 #' pingPongBufferStateMachine_enumDef_FULL [1:0] $end
    $var wire  2 #& pingPongBufferStateMachine_enumDef_HALF [1:0] $end
    $var wire  2 Z pingPongBufferStateMachine_stateNext [1:0] $end
    $var wire 40 \ pingPongBufferStateMachine_stateNext_string [39:0] $end
    $var wire  2 "G pingPongBufferStateMachine_stateReg [1:0] $end
    $var wire 40 "J pingPongBufferStateMachine_stateReg_string [39:0] $end
    $var wire  1 #$ pingPongBufferStateMachine_wantExit $end
    $var wire  1 #$ pingPongBufferStateMachine_wantKill $end
    $var wire  1 6 pingPongBufferStateMachine_wantStart $end
    $var wire  1 "H readyForNextTransfer $end
    $var wire  1 g realStartSignal $end
    $var wire 32 "] s_axis_payload [31:0] $end
    $var wire  1 ~ s_axis_ready $end
    $var wire  1 "[ s_axis_valid $end
    $var wire  1 "^ startIn $end
    $var wire  1 "0 startOut $end
    $var wire  1 Y startReceiveResetSignal $end
    $var wire  1 "X startReceiveSignal $end
    $var wire  1 ") startReceiveSignal_regNext $end
    $var wire  1 "* startReceiveSignal_regNext_1 $end
    $var wire  1 "z streamIn_fire $end
    $var wire  1 "z streamIn_fire_1 $end
    $var wire  1 J streamOut_fire $end
    $var wire  1 J streamOut_fire_1 $end
    $var wire  1 "! when_PingPongBuffer_l144 $end
    $var wire  1 "" when_PingPongBuffer_l151 $end
    $var wire  1 [ when_PingPongBuffer_l164 $end
    $var wire  1 "I when_PingPongBuffer_l173 $end
    $var wire  1 "! when_PingPongBuffer_l176 $end
    $var wire  1 "" when_PingPongBuffer_l177 $end
    $var wire  1 "F when_PingPongBuffer_l188 $end
    $var wire  1 "F when_PingPongBuffer_l209 $end
    $var wire  1 8 when_PingPongBuffer_l224 $end
    $var wire  1 9 when_PingPongBuffer_l229 $end
    $var wire  1 B when_StateMachine_l219 $end
    $var wire  1 C when_StateMachine_l219_1 $end
    $var wire  1 D when_StateMachine_l235 $end
    $scope module bufferFifoA $end
     $var wire  1 "u aclk $end
     $var wire  1 "t aresetn $end
     $var wire  9 1 io_availability [8:0] $end
     $var wire  1 #$ io_flush $end
     $var wire  9 0 io_occupancy [8:0] $end
     $var wire 32 "' io_pop_payload [31:0] $end
     $var wire  1 r io_pop_ready $end
     $var wire  1 / io_pop_valid $end
     $var wire 32 R io_push_payload [31:0] $end
     $var wire  1 . io_push_ready $end
     $var wire  1 Q io_push_valid $end
     $var wire  1 ; logic_empty $end
     $var wire  1 < logic_full $end
     $var wire  8 "N logic_popPtr_value [7:0] $end
     $var wire  8 y logic_popPtr_valueNext [7:0] $end
     $var wire  1 #$ logic_popPtr_willClear $end
     $var wire  1 x logic_popPtr_willIncrement $end
     $var wire  1 K logic_popPtr_willOverflow $end
     $var wire  1 "O logic_popPtr_willOverflowIfInc $end
     $var wire  1 z logic_popping $end
     $var wire  8 "Q logic_ptrDif [7:0] $end
     $var wire  1 : logic_ptrMatch $end
     $var wire  8 "L logic_pushPtr_value [7:0] $end
     $var wire  8 _ logic_pushPtr_valueNext [7:0] $end
     $var wire  1 #$ logic_pushPtr_willClear $end
     $var wire  1 ^ logic_pushPtr_willIncrement $end
     $var wire  1 E logic_pushPtr_willOverflow $end
     $var wire  1 "M logic_pushPtr_willOverflowIfInc $end
     $var wire  1 ` logic_pushing $end
     $var wire  1 "P logic_risingOccupancy $end
     $var wire  1 e when_Stream_l946 $end
    $upscope $end
    $scope module bufferFifoB $end
     $var wire  1 "u aclk $end
     $var wire  1 "t aresetn $end
     $var wire  9 5 io_availability [8:0] $end
     $var wire  1 #$ io_flush $end
     $var wire  9 4 io_occupancy [8:0] $end
     $var wire 32 "( io_pop_payload [31:0] $end
     $var wire  1 s io_pop_ready $end
     $var wire  1 3 io_pop_valid $end
     $var wire 32 T io_push_payload [31:0] $end
     $var wire  1 2 io_push_ready $end
     $var wire  1 S io_push_valid $end
     $var wire  1 > logic_empty $end
     $var wire  1 ? logic_full $end
     $var wire  8 "T logic_popPtr_value [7:0] $end
     $var wire  8 | logic_popPtr_valueNext [7:0] $end
     $var wire  1 #$ logic_popPtr_willClear $end
     $var wire  1 { logic_popPtr_willIncrement $end
     $var wire  1 L logic_popPtr_willOverflow $end
     $var wire  1 "U logic_popPtr_willOverflowIfInc $end
     $var wire  1 } logic_popping $end
     $var wire  8 "W logic_ptrDif [7:0] $end
     $var wire  1 = logic_ptrMatch $end
     $var wire  8 "R logic_pushPtr_value [7:0] $end
     $var wire  8 b logic_pushPtr_valueNext [7:0] $end
     $var wire  1 #$ logic_pushPtr_willClear $end
     $var wire  1 a logic_pushPtr_willIncrement $end
     $var wire  1 F logic_pushPtr_willOverflow $end
     $var wire  1 "S logic_pushPtr_willOverflowIfInc $end
     $var wire  1 c logic_pushing $end
     $var wire  1 "V logic_risingOccupancy $end
     $var wire  1 f when_Stream_l946 $end
    $upscope $end
   $upscope $end
   $scope module writeOnlyMater $end
    $var wire  1 "u aclk $end
    $var wire  1 "t aresetn $end
    $var wire  1 ", axi4Interface_controlAwValidSignal $end
    $var wire  1 "/ axi4Interface_controlBReady $end
    $var wire  1 "x axi4Interface_full_aw_fire $end
    $var wire  1 "v axi4Interface_full_b_fire $end
    $var wire  1 "v axi4Interface_full_b_fire_1 $end
    $var wire  1 "v axi4Interface_full_b_fire_2 $end
    $var wire  1 "v axi4Interface_full_b_fire_3 $end
    $var wire  1 "v axi4Interface_full_b_fire_4 $end
    $var wire  1 "y axi4Interface_full_w_fire $end
    $var wire  1 "# axi4Interface_isBurstComplete $end
    $var wire  1 "4 axi4Interface_newBurst $end
    $var wire  1 # axi4Interface_resetStartSendSignal $end
    $var wire 32 ## axi4Interface_transferDataType [31:0] $end
    $var wire  8 "1 burstLen [7:0] $end
    $var wire  8 "3 burstLengthReg [7:0] $end
    $var wire 32 "- m_axi_awaddr [31:0] $end
    $var wire  2 "~ m_axi_awburst [1:0] $end
    $var wire  4 "| m_axi_awcache [3:0] $end
    $var wire  8 ". m_axi_awlen [7:0] $end
    $var wire  3 #! m_axi_awprot [2:0] $end
    $var wire  4 "| m_axi_awqos [3:0] $end
    $var wire  1 "c m_axi_awready $end
    $var wire  4 "| m_axi_awregion [3:0] $end
    $var wire  3 "} m_axi_awsize [2:0] $end
    $var wire  1 ", m_axi_awvalid $end
    $var wire  1 "/ m_axi_bready $end
    $var wire  2 "s m_axi_bresp [1:0] $end
    $var wire  1 "q m_axi_bvalid $end
    $var wire 32 i m_axi_wdata [31:0] $end
    $var wire  1 $ m_axi_wlast $end
    $var wire  1 "% m_axi_wlast_regNext $end
    $var wire  1 "m m_axi_wready $end
    $var wire  4 #" m_axi_wstrb [3:0] $end
    $var wire  1 h m_axi_wvalid $end
    $var wire 32 "2 offset [31:0] $end
    $var wire 32 & s_axis_payload [31:0] $end
    $var wire  1 j s_axis_ready $end
    $var wire  1 % s_axis_valid $end
    $var wire  1 "0 start $end
    $var wire 32 "- startOffsetReg [31:0] $end
    $var wire  1 "Z startSendSignal $end
    $var wire  9 * streamFifo_3_io_availability [8:0] $end
    $var wire  9 ) streamFifo_3_io_occupancy [8:0] $end
    $var wire 32 "& streamFifo_3_io_pop_m2sPipe_payload [31:0] $end
    $var wire  1 "m streamFifo_3_io_pop_m2sPipe_ready $end
    $var wire  1 "5 streamFifo_3_io_pop_m2sPipe_valid $end
    $var wire 32 "$ streamFifo_3_io_pop_payload [31:0] $end
    $var wire 32 "& streamFifo_3_io_pop_rData [31:0] $end
    $var wire  1 "5 streamFifo_3_io_pop_rValid $end
    $var wire  1 M streamFifo_3_io_pop_ready $end
    $var wire  1 ( streamFifo_3_io_pop_valid $end
    $var wire  1 G streamFifo_3_io_push_fire $end
    $var wire 32 l streamFifo_3_io_push_payload [31:0] $end
    $var wire  1 ' streamFifo_3_io_push_ready $end
    $var wire  1 k streamFifo_3_io_push_valid $end
    $var wire  1 "# transInterrupt $end
    $var wire  1 "w when_Axi4WriteOnlyMaster_l123 $end
    $var wire  1 n when_Axi4WriteOnlyMaster_l160 $end
    $var wire  1 m when_Axi4WriteOnlyMaster_l97 $end
    $var wire  1 "6 when_Stream_l342 $end
    $scope module streamFifo_3 $end
     $var wire  1 "u aclk $end
     $var wire  1 "t aresetn $end
     $var wire  9 * io_availability [8:0] $end
     $var wire  1 #$ io_flush $end
     $var wire  9 ) io_occupancy [8:0] $end
     $var wire 32 "$ io_pop_payload [31:0] $end
     $var wire  1 M io_pop_ready $end
     $var wire  1 ( io_pop_valid $end
     $var wire 32 l io_push_payload [31:0] $end
     $var wire  1 ' io_push_ready $end
     $var wire  1 k io_push_valid $end
     $var wire  1 , logic_empty $end
     $var wire  1 - logic_full $end
     $var wire  8 "9 logic_popPtr_value [7:0] $end
     $var wire  8 O logic_popPtr_valueNext [7:0] $end
     $var wire  1 #$ logic_popPtr_willClear $end
     $var wire  1 N logic_popPtr_willIncrement $end
     $var wire  1 @ logic_popPtr_willOverflow $end
     $var wire  1 ": logic_popPtr_willOverflowIfInc $end
     $var wire  1 P logic_popping $end
     $var wire  8 "< logic_ptrDif [7:0] $end
     $var wire  1 + logic_ptrMatch $end
     $var wire  8 "7 logic_pushPtr_value [7:0] $end
     $var wire  8 p logic_pushPtr_valueNext [7:0] $end
     $var wire  1 #$ logic_pushPtr_willClear $end
     $var wire  1 o logic_pushPtr_willIncrement $end
     $var wire  1 H logic_pushPtr_willOverflow $end
     $var wire  1 "8 logic_pushPtr_willOverflowIfInc $end
     $var wire  1 q logic_pushing $end
     $var wire  1 "; logic_risingOccupancy $end
     $var wire  1 d when_Stream_l946 $end
    $upscope $end
   $upscope $end
  $upscope $end
 $upscope $end
$enddefinitions $end


#0
0#
0$
0%
b00010000001101000001010001101011 &
1'
0(
b000000000 )
b100000000 *
1+
1,
0-
1.
0/
b000000000 0
b100000000 1
12
03
b000000000 4
b100000000 5
16
07
08
09
1:
1;
0<
1=
1>
0?
0@
0A
0B
0C
1D
0E
0F
0G
0H
0I
0J
0K
0L
0M
0N
b00000000 O
0P
0Q
b00000000000000000000000000000000 R
0S
b00000000000000000000000000000000 T
0U
0V
b00000000 W
0X
0Y
b01 Z
0[
b0100010101001101010100000101010001011001 \
0^
b00000000 _
0`
0a
b00000000 b
0c
0d
0e
0f
0g
0h
b11000000101101101100010011011011 i
0j
0k
b00010000001101000001010001101011 l
0m
0n
0o
b00000000 p
0q
0r
0s
0t
0u
b00000000 v
0w
0x
b00000000 y
0z
0{
b00000000 |
0}
0~
0"!
0""
0"#
b11000000101101101100010011011011 "$
0"%
b10000000101101010100010100001000 "&
b00010000001101000001010001101011 "'
b10010010101010011001110001110101 "(
0")
0"*
0"+
0",
b00000000000000000000000000000000 "-
b11111110 ".
0"/
0"0
b11111111 "1
b00000000000000000000000000000000 "2
b11111111 "3
1"4
0"5
1"6
b00000000 "7
0"8
b00000000 "9
0":
0";
b00000000 "<
b00000000 "=
0">
b00000000 "?
0"@
1"A
1"B
1"C
b00000000000000000000000000000000 "D
b00000000000000000000000000000000 "E
0"F
b00 "G
0"H
0"I
b0100001001001111010011110101010000100000 "J
b00000000 "L
0"M
b00000000 "N
0"O
0"P
b00000000 "Q
b00000000 "R
0"S
b00000000 "T
0"U
0"V
b00000000 "W
0"X
0"Y
0"Z
0"[
0"\
b00000000000000000000000000000000 "]
0"^
b10110000 "_
0"`
b00000000000000000000000000000000 "a
0"b
0"c
b00000000000000000000000000000000 "d
b0000 "e
b11111110 "f
b010 "g
b01 "h
b0000 "i
b0000 "j
b000 "k
0"l
0"m
b11000000101101101100010011011011 "n
b1111 "o
0"p
0"q
0"r
b00 "s
0"t
0"u
0"v
0"w
0"x
0"y
0"z
0"{
b0000 "|
b010 "}
b01 "~
b000 #!
b1111 #"
b10010011110110010101001011010111 ##
0#$
b00 #%
b10 #&
b11 #'
#240
1"t
#255
b00101001001000010000100010011111 &
06
0D
b01000110100111011000010000001111 i
b00101001001000010000100010011111 l
b01000110100111011000010000001111 "$
b00101001001000010000100010011111 "'
b11100000110011101101011000111110 "(
1"+
b10110000 "1
0"C
b01 "G
1"H
b0100010101001101010100000101010001011001 "J
1"`
b01000110100111011000010000001111 "n
1"u
#262
0"u
#269
0"+
b10101111 ".
b10110000 "3
0"`
b10101111 "f
1"u
#276
0"u
#283
1"u
#285
1g
1~
1"!
1"X
1"\
1"^
b10000000 "_
#290
1Q
b00000000000000000000000011000001 R
b00000000000000000000000011000001 T
1U
b00000001 W
1^
b00000001 _
1`
1e
1"[
b00000000000000000000000011000001 "]
0"^
1"c
1"m
0"u
1"z
#297
b000000001 0
b011111111 1
0:
0;
b00000000000000000000000001010101 R
b00000000000000000000000001010101 T
b00000010 W
b00000010 _
1")
1"*
b10000000 "1
b00000001 "=
b00000001 "L
1"P
b00000001 "Q
b00000000000000000000000001010101 "]
0"c
0"m
1"u
#304
0"u
#311
b00000000000000000000000011000001 &
1/
b000000010 0
b011111110 1
b00000000000000000000000000111000 R
b00000000000000000000000000111000 T
b00000011 W
b00000011 _
b00000000000000000000000011000001 l
b00000000000000000000000011000001 "'
b01111111 ".
b10000000 "3
b00000010 "=
b00000010 "L
b00000010 "Q
b00000000000000000000000000111000 "]
1"c
b01111111 "f
1"m
1"u
#318
0"u
#325
b000000011 0
b011111101 1
0Q
b00000000000000000000000010011100 R
b00000000000000000000000010011100 T
0U
0^
0`
0e
b00000011 "=
b00000011 "L
b00000011 "Q
0"[
b00000000000000000000000010011100 "]
0"c
0"m
1"u
0"z
#332
0"u
#339
b00000000000000000000000001000100 R
b00000000000000000000000001000100 T
b00000000000000000000000001000100 "]
1"u
#346
0"u
#353
1Q
b00000000000000000000000001110010 R
b00000000000000000000000001110010 T
1U
b00000100 W
1^
b00000100 _
1`
1e
1"[
b00000000000000000000000001110010 "]
1"c
1"m
1"u
1"z
#360
0"u
#367
b000000100 0
b011111100 1
0Q
b00000000000000000000000010011001 R
b00000000000000000000000010011001 T
0U
0^
0`
0e
b00000100 "=
b00000100 "L
b00000100 "Q
0"[
b00000000000000000000000010011001 "]
0"c
0"m
1"u
0"z
#374
0"u
#381
b00000000000000000000000011000001 R
b00000000000000000000000011000001 T
b00000000000000000000000011000001 "]
1"u
#388
0"u
#395
b00000000000000000000000000001100 R
b00000000000000000000000000001100 T
b00000000000000000000000000001100 "]
1"c
1"m
1"u
#402
0"u
#409
b00000000000000000000000010100000 R
b00000000000000000000000010100000 T
b00000000000000000000000010100000 "]
1"u
#416
0"u
#423
1Q
b00000000000000000000000001001100 R
b00000000000000000000000001001100 T
1U
b00000101 W
1^
b00000101 _
1`
1e
1"[
b00000000000000000000000001001100 "]
0"c
0"m
1"u
1"z
#430
0"u
#437
b000000101 0
b011111011 1
0Q
b00000000000000000000000011111010 R
b00000000000000000000000011111010 T
0U
0^
0`
0e
b00000101 "=
b00000101 "L
b00000101 "Q
0"[
b00000000000000000000000011111010 "]
1"c
1"m
1"u
0"z
#444
0"u
#451
b00000000000000000000000001000100 R
b00000000000000000000000001000100 T
b00000000000000000000000001000100 "]
1"u
#458
0"u
#465
b00000000000000000000000011111101 R
b00000000000000000000000011111101 T
b00000000000000000000000011111101 "]
1"u
#472
0"u
#479
b00000000000000000000000010001101 R
b00000000000000000000000010001101 T
b00000000000000000000000010001101 "]
1"u
#486
0"u
#493
1Q
b00000000000000000000000010110101 R
b00000000000000000000000010110101 T
1U
b00000110 W
1^
b00000110 _
1`
1e
1"[
b00000000000000000000000010110101 "]
1"u
1"z
#500
0"u
#507
b000000110 0
b011111010 1
0Q
b00000000000000000000000001101101 R
b00000000000000000000000001101101 T
0U
0^
0`
0e
b00000110 "=
b00000110 "L
b00000110 "Q
0"[
b00000000000000000000000001101101 "]
1"u
0"z
#514
0"u
#521
b00000000000000000000000011001011 R
b00000000000000000000000011001011 T
b00000000000000000000000011001011 "]
1"u
#528
0"u
#535
1Q
b00000000000000000000000000110011 R
b00000000000000000000000000110011 T
1U
b00000111 W
1^
b00000111 _
1`
1e
1"[
b00000000000000000000000000110011 "]
0"c
0"m
1"u
1"z
#542
0"u
#549
b000000111 0
b011111001 1
0Q
b00000000000000000000000011111100 R
b00000000000000000000000011111100 T
0U
0^
0`
0e
b00000111 "=
b00000111 "L
b00000111 "Q
0"[
b00000000000000000000000011111100 "]
1"u
0"z
#556
0"u
#563
b00000000000000000000000001100111 R
b00000000000000000000000001100111 T
b00000000000000000000000001100111 "]
1"c
1"m
1"u
#570
0"u
#577
b00000000000000000000000000110110 R
b00000000000000000000000000110110 T
b00000000000000000000000000110110 "]
1"u
#584
0"u
#591
b00000000000000000000000000001101 R
b00000000000000000000000000001101 T
b00000000000000000000000000001101 "]
1"u
#598
0"u
#605
b00000000000000000000000000011111 R
b00000000000000000000000000011111 T
b00000000000000000000000000011111 "]
0"c
0"m
1"u
#612
0"u
#619
1Q
b00000000000000000000000000110011 R
b00000000000000000000000000110011 T
1U
b00001000 W
1^
b00001000 _
1`
1e
1"[
b00000000000000000000000000110011 "]
1"c
1"m
1"u
1"z
#626
0"u
#633
b000001000 0
b011111000 1
b00000000000000000000000010010100 R
b00000000000000000000000010010100 T
b00001001 W
b00001001 _
b00001000 "=
b00001000 "L
b00001000 "Q
b00000000000000000000000010010100 "]
0"c
0"m
1"u
#640
0"u
#647
b000001001 0
b011110111 1
b00000000000000000000000000001101 R
b00000000000000000000000000001101 T
b00001010 W
b00001010 _
b00001001 "=
b00001001 "L
b00001001 "Q
b00000000000000000000000000001101 "]
1"c
1"m
1"u
#654
0"u
#661
b000001010 0
b011110110 1
b00000000000000000000000001111110 R
b00000000000000000000000001111110 T
b00001011 W
b00001011 _
b00001010 "=
b00001010 "L
b00001010 "Q
b00000000000000000000000001111110 "]
1"u
#668
0"u
#675
b000001011 0
b011110101 1
b00000000000000000000000001001101 R
b00000000000000000000000001001101 T
b00001100 W
b00001100 _
b00001011 "=
b00001011 "L
b00001011 "Q
b00000000000000000000000001001101 "]
1"u
#682
0"u
#689
b000001100 0
b011110100 1
b00000000000000000000000000001111 R
b00000000000000000000000000001111 T
b00001101 W
b00001101 _
b00001100 "=
b00001100 "L
b00001100 "Q
b00000000000000000000000000001111 "]
1"u
#696
0"u
#703
b000001101 0
b011110011 1
0Q
b00000000000000000000000010100111 R
b00000000000000000000000010100111 T
0U
0^
0`
0e
b00001101 "=
b00001101 "L
b00001101 "Q
0"[
b00000000000000000000000010100111 "]
1"u
0"z
#710
0"u
#717
b00000000000000000000000001000100 R
b00000000000000000000000001000100 T
b00000000000000000000000001000100 "]
1"u
#724
0"u
#731
1Q
b00000000000000000000000000111011 R
b00000000000000000000000000111011 T
1U
b00001110 W
1^
b00001110 _
1`
1e
1"[
b00000000000000000000000000111011 "]
1"u
1"z
#738
0"u
#745
b000001110 0
b011110010 1
0Q
b00000000000000000000000001101100 R
b00000000000000000000000001101100 T
0U
0^
0`
0e
b00001110 "=
b00001110 "L
b00001110 "Q
0"[
b00000000000000000000000001101100 "]
1"u
0"z
#752
0"u
#759
b00000000000000000000000010001110 R
b00000000000000000000000010001110 T
b00000000000000000000000010001110 "]
1"u
#766
0"u
#773
1Q
b00000000000000000000000011100000 R
b00000000000000000000000011100000 T
1U
b00001111 W
1^
b00001111 _
1`
1e
1"[
b00000000000000000000000011100000 "]
1"u
1"z
#780
0"u
#787
b000001111 0
b011110001 1
b00000000000000000000000000010010 R
b00000000000000000000000000010010 T
b00010000 W
b00010000 _
b00001111 "=
b00001111 "L
b00001111 "Q
b00000000000000000000000000010010 "]
0"c
0"m
1"u
#794
0"u
#801
b000010000 0
b011110000 1
0Q
b00000000000000000000000011111001 R
b00000000000000000000000011111001 T
0U
0^
0`
0e
b00010000 "=
b00010000 "L
b00010000 "Q
0"[
b00000000000000000000000011111001 "]
1"u
0"z
#808
0"u
#815
b00000000000000000000000001001001 R
b00000000000000000000000001001001 T
b00000000000000000000000001001001 "]
1"c
1"m
1"u
#822
0"u
#829
b00000000000000000000000010101111 R
b00000000000000000000000010101111 T
b00000000000000000000000010101111 "]
0"c
0"m
1"u
#836
0"u
#843
b00000000000000000000000011111111 R
b00000000000000000000000011111111 T
b00000000000000000000000011111111 "]
1"u
#850
0"u
#857
1Q
b00000000000000000000000000101111 R
b00000000000000000000000000101111 T
1U
b00010001 W
1^
b00010001 _
1`
1e
1"[
b00000000000000000000000000101111 "]
1"u
1"z
#864
0"u
#871
b000010001 0
b011101111 1
b00000000000000000000000001111100 R
b00000000000000000000000001111100 T
b00010010 W
b00010010 _
b00010001 "=
b00010001 "L
b00010001 "Q
b00000000000000000000000001111100 "]
1"c
1"m
1"u
#878
0"u
#885
b000010010 0
b011101110 1
0Q
b00000000000000000000000011010111 R
b00000000000000000000000011010111 T
0U
0^
0`
0e
b00010010 "=
b00010010 "L
b00010010 "Q
0"[
b00000000000000000000000011010111 "]
1"u
0"z
#892
0"u
#899
b00000000000000000000000010111011 R
b00000000000000000000000010111011 T
b00000000000000000000000010111011 "]
0"c
0"m
1"u
#906
0"u
#913
1Q
b00000000000000000000000011001000 R
b00000000000000000000000011001000 T
1U
b00010011 W
1^
b00010011 _
1`
1e
1"[
b00000000000000000000000011001000 "]
1"c
1"m
1"u
1"z
#920
0"u
#927
b000010011 0
b011101101 1
b00000000000000000000000001011111 R
b00000000000000000000000001011111 T
b00010100 W
b00010100 _
b00010011 "=
b00010011 "L
b00010011 "Q
b00000000000000000000000001011111 "]
1"u
#934
0"u
#941
b000010100 0
b011101100 1
0Q
b00000000000000000000000010110110 R
b00000000000000000000000010110110 T
0U
0^
0`
0e
b00010100 "=
b00010100 "L
b00010100 "Q
0"[
b00000000000000000000000010110110 "]
1"u
0"z
#948
0"u
#955
b00000000000000000000000010111111 R
b00000000000000000000000010111111 T
b00000000000000000000000010111111 "]
1"u
#962
0"u
#969
1Q
b00000000000000000000000011011101 R
b00000000000000000000000011011101 T
1U
b00010101 W
1^
b00010101 _
1`
1e
1"[
b00000000000000000000000011011101 "]
1"u
1"z
#976
0"u
#983
b000010101 0
b011101011 1
b00000000000000000000000000000111 R
b00000000000000000000000000000111 T
b00010110 W
b00010110 _
b00010101 "=
b00010101 "L
b00010101 "Q
b00000000000000000000000000000111 "]
1"u
#990
0"u
#997
b000010110 0
b011101010 1
0Q
b00000000000000000000000010011000 R
b00000000000000000000000010011000 T
0U
0^
0`
0e
b00010110 "=
b00010110 "L
b00010110 "Q
0"[
b00000000000000000000000010011000 "]
0"c
0"m
1"u
0"z
#1004
0"u
#1011
b00000000000000000000000001001101 R
b00000000000000000000000001001101 T
b00000000000000000000000001001101 "]
1"c
1"m
1"u
#1018
0"u
#1025
b00000000000000000000000000000000 R
b00000000000000000000000000000000 T
b00000000000000000000000000000000 "]
0"c
0"m
1"u
#1032
0"u
