simWorkspace/PingPongBufferWithWriteOnlyMaster/test.vcd
$version Generated by VerilatedVcd $end
$date 2022年01月27日 星期四 20时16分28秒 $end
$timescale 1ps $end

 $scope module TOP $end
  $var wire  1 y! aclk $end
  $var wire  1 x! aresetn $end
  $var wire  8 a! bufferDepthIn [7:0] $end
  $var wire 32 h! full_aw_payload_addr [31:0] $end
  $var wire  2 l! full_aw_payload_burst [1:0] $end
  $var wire  4 m! full_aw_payload_cache [3:0] $end
  $var wire  8 j! full_aw_payload_len [7:0] $end
  $var wire  3 o! full_aw_payload_prot [2:0] $end
  $var wire  4 n! full_aw_payload_qos [3:0] $end
  $var wire  4 i! full_aw_payload_region [3:0] $end
  $var wire  3 k! full_aw_payload_size [2:0] $end
  $var wire  1 g! full_aw_ready $end
  $var wire  1 f! full_aw_valid $end
  $var wire  2 w! full_b_payload_resp [1:0] $end
  $var wire  1 v! full_b_ready $end
  $var wire  1 u! full_b_valid $end
  $var wire 32 r! full_w_payload_data [31:0] $end
  $var wire  1 t! full_w_payload_last $end
  $var wire  4 s! full_w_payload_strb [3:0] $end
  $var wire  1 q! full_w_ready $end
  $var wire  1 p! full_w_valid $end
  $var wire  1 b! interruptOut $end
  $var wire 32 d! offset [31:0] $end
  $var wire  8 e! pathNumb [7:0] $end
  $var wire 32 c! startAddr [31:0] $end
  $var wire  1 `! startIn $end
  $var wire 32 _! streamIn_payload [31:0] $end
  $var wire  1 ^! streamIn_ready $end
  $var wire  1 ]! streamIn_valid $end
  $scope module PingPongBufferWithWriteOnlyMaster $end
   $var wire  1 y! aclk $end
   $var wire  1 x! aresetn $end
   $var wire  8 a! bufferDepthIn [7:0] $end
   $var wire 32 . full_aw_payload_addr [31:0] $end
   $var wire  2 +" full_aw_payload_burst [1:0] $end
   $var wire  4 )" full_aw_payload_cache [3:0] $end
   $var wire  8 / full_aw_payload_len [7:0] $end
   $var wire  3 ," full_aw_payload_prot [2:0] $end
   $var wire  4 )" full_aw_payload_qos [3:0] $end
   $var wire  4 )" full_aw_payload_region [3:0] $end
   $var wire  3 *" full_aw_payload_size [2:0] $end
   $var wire  1 g! full_aw_ready $end
   $var wire  1 - full_aw_valid $end
   $var wire  2 w! full_b_payload_resp [1:0] $end
   $var wire  1 1 full_b_ready $end
   $var wire  1 u! full_b_valid $end
   $var wire 32 A! full_w_payload_data [31:0] $end
   $var wire  1 0 full_w_payload_last $end
   $var wire  4 -" full_w_payload_strb [3:0] $end
   $var wire  1 q! full_w_ready $end
   $var wire  1 @! full_w_valid $end
   $var wire  1 , interruptOut $end
   $var wire 32 d! offset [31:0] $end
   $var wire  8 e! pathNumb [7:0] $end
   $var wire  8 5 pingPongBuffer_1_bufferDepthOut [7:0] $end
   $var wire  1 , pingPongBuffer_1_interruptOut $end
   $var wire 32 3 pingPongBuffer_1_m_axis_payload [31:0] $end
   $var wire  1 2 pingPongBuffer_1_m_axis_valid $end
   $var wire  1 Z! pingPongBuffer_1_s_axis_ready $end
   $var wire  1 4 pingPongBuffer_1_startOut $end
   $var wire 32 c! startAddr [31:0] $end
   $var wire  1 `! startIn $end
   $var wire 32 _! streamIn_payload [31:0] $end
   $var wire  1 Z! streamIn_ready $end
   $var wire  1 ]! streamIn_valid $end
   $var wire 32 . writeOnlyMater_m_axi_awaddr [31:0] $end
   $var wire  2 +" writeOnlyMater_m_axi_awburst [1:0] $end
   $var wire  4 )" writeOnlyMater_m_axi_awcache [3:0] $end
   $var wire  8 / writeOnlyMater_m_axi_awlen [7:0] $end
   $var wire  3 ," writeOnlyMater_m_axi_awprot [2:0] $end
   $var wire  4 )" writeOnlyMater_m_axi_awqos [3:0] $end
   $var wire  4 )" writeOnlyMater_m_axi_awregion [3:0] $end
   $var wire  3 *" writeOnlyMater_m_axi_awsize [2:0] $end
   $var wire  1 - writeOnlyMater_m_axi_awvalid $end
   $var wire  1 1 writeOnlyMater_m_axi_bready $end
   $var wire 32 A! writeOnlyMater_m_axi_wdata [31:0] $end
   $var wire  1 0 writeOnlyMater_m_axi_wlast $end
   $var wire  4 -" writeOnlyMater_m_axi_wstrb [3:0] $end
   $var wire  1 @! writeOnlyMater_m_axi_wvalid $end
   $var wire  1 B! writeOnlyMater_s_axis_ready $end
   $var wire  1 # writeOnlyMater_transInterrupt $end
   $scope module pingPongBuffer_1 $end
    $var wire  1 y! aclk $end
    $var wire  1 x! aresetn $end
    $var wire  8 a! bufferDepthIn [7:0] $end
    $var wire  8 5 bufferDepthOut [7:0] $end
    $var wire  8 5 bufferDepthReg [7:0] $end
    $var wire  9 9 bufferFifoA_io_availability [8:0] $end
    $var wire  9 8 bufferFifoA_io_occupancy [8:0] $end
    $var wire 32 $ bufferFifoA_io_pop_payload [31:0] $end
    $var wire 32 ' bufferFifoA_io_pop_rData [31:0] $end
    $var wire  1 E bufferFifoA_io_pop_rValid $end
    $var wire  1 C! bufferFifoA_io_pop_ready $end
    $var wire  1 7 bufferFifoA_io_pop_valid $end
    $var wire 32 (! bufferFifoA_io_push_payload [31:0] $end
    $var wire  1 6 bufferFifoA_io_push_ready $end
    $var wire  1 '! bufferFifoA_io_push_valid $end
    $var wire  9 = bufferFifoB_io_availability [8:0] $end
    $var wire  9 < bufferFifoB_io_occupancy [8:0] $end
    $var wire 32 % bufferFifoB_io_pop_payload [31:0] $end
    $var wire 32 ( bufferFifoB_io_pop_rData [31:0] $end
    $var wire  1 G bufferFifoB_io_pop_rValid $end
    $var wire  1 D! bufferFifoB_io_pop_ready $end
    $var wire  1 ; bufferFifoB_io_pop_valid $end
    $var wire 32 *! bufferFifoB_io_push_payload [31:0] $end
    $var wire  1 : bufferFifoB_io_push_ready $end
    $var wire  1 )! bufferFifoB_io_push_valid $end
    $var wire  1 K canReadData $end
    $var wire  2 J currentState [1:0] $end
    $var wire  1 .! inCounterWillOverflow $end
    $var wire  8 > inCounter_value [7:0] $end
    $var wire  8 -! inCounter_valueNext [7:0] $end
    $var wire  1 ,! inCounter_willClear $end
    $var wire  1 +! inCounter_willIncrement $end
    $var wire  1 x inCounter_willOverflow $end
    $var wire  1 ? inCounter_willOverflowIfInc $end
    $var wire  1 # interruptIn $end
    $var wire  1 , interruptOut $end
    $var wire  1 D isAfterResetState $end
    $var wire  1 C isReadBufferA $end
    $var wire  1 B isWriteBufferA $end
    $var wire  1 }! lastBurstCompleteSignal $end
    $var wire 32 3 m_axis_payload [31:0] $end
    $var wire  1 B! m_axis_ready $end
    $var wire  1 2 m_axis_valid $end
    $var wire  1 H! outCounterWillOverflow $end
    $var wire  8 @ outCounter_value [7:0] $end
    $var wire  8 G! outCounter_valueNext [7:0] $end
    $var wire  1 F! outCounter_willClear $end
    $var wire  1 E! outCounter_willIncrement $end
    $var wire  1 !! outCounter_willOverflow $end
    $var wire  1 A outCounter_willOverflowIfInc $end
    $var wire  1 , outputInterruptSignalState $end
    $var wire  1 4 outputStartSignalReg $end
    $var wire  2 ." pingPongBufferStateMachine_enumDef_BOOT [1:0] $end
    $var wire  2 +" pingPongBufferStateMachine_enumDef_EMPTY [1:0] $end
    $var wire  2 0" pingPongBufferStateMachine_enumDef_FULL [1:0] $end
    $var wire  2 /" pingPongBufferStateMachine_enumDef_HALF [1:0] $end
    $var wire  2 0! pingPongBufferStateMachine_stateNext [1:0] $end
    $var wire 40 2! pingPongBufferStateMachine_stateNext_string [39:0] $end
    $var wire  2 J pingPongBufferStateMachine_stateReg [1:0] $end
    $var wire 40 Q pingPongBufferStateMachine_stateReg_string [39:0] $end
    $var wire  1 1" pingPongBufferStateMachine_wantExit $end
    $var wire  1 1" pingPongBufferStateMachine_wantKill $end
    $var wire  1 I pingPongBufferStateMachine_wantStart $end
    $var wire 32 ' pipedBufferAPop_payload [31:0] $end
    $var wire  1 I! pipedBufferAPop_ready $end
    $var wire  1 E pipedBufferAPop_valid $end
    $var wire 32 ( pipedBufferBPop_payload [31:0] $end
    $var wire  1 J! pipedBufferBPop_ready $end
    $var wire  1 G pipedBufferBPop_valid $end
    $var wire  1 L readyForNextTransfer $end
    $var wire  1 |! realStartSignal $end
    $var wire 32 _! s_axis_payload [31:0] $end
    $var wire  1 Z! s_axis_ready $end
    $var wire  1 ]! s_axis_valid $end
    $var wire  1 `! startIn $end
    $var wire  1 4 startOut $end
    $var wire  1 /! startReceiveResetSignal $end
    $var wire  1 {! startReceiveSignal $end
    $var wire  1 & startReceiveSignal_regNext $end
    $var wire  1 z! streamIn_fire $end
    $var wire  1 z! streamIn_fire_1 $end
    $var wire  1 "! streamOut_fire $end
    $var wire  1 "! streamOut_fire_1 $end
    $var wire  1 [! when_PingPongBuffer_l146 $end
    $var wire  1 \! when_PingPongBuffer_l153 $end
    $var wire  1 1! when_PingPongBuffer_l166 $end
    $var wire  1 O when_PingPongBuffer_l175 $end
    $var wire  1 [! when_PingPongBuffer_l178 $end
    $var wire  1 \! when_PingPongBuffer_l179 $end
    $var wire  1 P when_PingPongBuffer_l190 $end
    $var wire  1 M when_PingPongBuffer_l226 $end
    $var wire  1 N when_PingPongBuffer_l231 $end
    $var wire  1 y when_StateMachine_l219 $end
    $var wire  1 z when_StateMachine_l219_1 $end
    $var wire  1 { when_StateMachine_l235 $end
    $var wire  1 F when_Stream_l342 $end
    $var wire  1 H when_Stream_l342_1 $end
    $scope module bufferFifoA $end
     $var wire  1 y! aclk $end
     $var wire  1 x! aresetn $end
     $var wire  9 9 io_availability [8:0] $end
     $var wire  1 1" io_flush $end
     $var wire  9 8 io_occupancy [8:0] $end
     $var wire 32 $ io_pop_payload [31:0] $end
     $var wire  1 C! io_pop_ready $end
     $var wire  1 7 io_pop_valid $end
     $var wire 32 (! io_push_payload [31:0] $end
     $var wire  1 6 io_push_ready $end
     $var wire  1 '! io_push_valid $end
     $var wire  1 Y logic_empty $end
     $var wire  1 Z logic_full $end
     $var wire  8 U logic_popPtr_value [7:0] $end
     $var wire  8 L! logic_popPtr_valueNext [7:0] $end
     $var wire  1 1" logic_popPtr_willClear $end
     $var wire  1 K! logic_popPtr_willIncrement $end
     $var wire  1 #! logic_popPtr_willOverflow $end
     $var wire  1 V logic_popPtr_willOverflowIfInc $end
     $var wire  1 M! logic_popping $end
     $var wire  8 [ logic_ptrDif [7:0] $end
     $var wire  1 W logic_ptrMatch $end
     $var wire  8 S logic_pushPtr_value [7:0] $end
     $var wire  8 5! logic_pushPtr_valueNext [7:0] $end
     $var wire  1 1" logic_pushPtr_willClear $end
     $var wire  1 4! logic_pushPtr_willIncrement $end
     $var wire  1 | logic_pushPtr_willOverflow $end
     $var wire  1 T logic_pushPtr_willOverflowIfInc $end
     $var wire  1 6! logic_pushing $end
     $var wire  1 X logic_risingOccupancy $end
     $var wire  1 ~! when_Stream_l946 $end
    $upscope $end
    $scope module bufferFifoB $end
     $var wire  1 y! aclk $end
     $var wire  1 x! aresetn $end
     $var wire  9 = io_availability [8:0] $end
     $var wire  1 1" io_flush $end
     $var wire  9 < io_occupancy [8:0] $end
     $var wire 32 % io_pop_payload [31:0] $end
     $var wire  1 D! io_pop_ready $end
     $var wire  1 ; io_pop_valid $end
     $var wire 32 *! io_push_payload [31:0] $end
     $var wire  1 : io_push_ready $end
     $var wire  1 )! io_push_valid $end
     $var wire  1 b logic_empty $end
     $var wire  1 c logic_full $end
     $var wire  8 ^ logic_popPtr_value [7:0] $end
     $var wire  8 O! logic_popPtr_valueNext [7:0] $end
     $var wire  1 1" logic_popPtr_willClear $end
     $var wire  1 N! logic_popPtr_willIncrement $end
     $var wire  1 $! logic_popPtr_willOverflow $end
     $var wire  1 _ logic_popPtr_willOverflowIfInc $end
     $var wire  1 P! logic_popping $end
     $var wire  8 d logic_ptrDif [7:0] $end
     $var wire  1 ` logic_ptrMatch $end
     $var wire  8 \ logic_pushPtr_value [7:0] $end
     $var wire  8 8! logic_pushPtr_valueNext [7:0] $end
     $var wire  1 1" logic_pushPtr_willClear $end
     $var wire  1 7! logic_pushPtr_willIncrement $end
     $var wire  1 } logic_pushPtr_willOverflow $end
     $var wire  1 ] logic_pushPtr_willOverflowIfInc $end
     $var wire  1 9! logic_pushing $end
     $var wire  1 a logic_risingOccupancy $end
     $var wire  1 !" when_Stream_l946 $end
    $upscope $end
   $upscope $end
   $scope module writeOnlyMater $end
    $var wire  1 y! aclk $end
    $var wire  1 x! aresetn $end
    $var wire  1 - axi4Interface_controlAwValidSignal $end
    $var wire  1 1 axi4Interface_controlBReady $end
    $var wire 32 . axi4Interface_finalAddressReg [31:0] $end
    $var wire  1 <! axi4Interface_full_aw_fire $end
    $var wire  1 $" axi4Interface_full_b_fire $end
    $var wire  1 $" axi4Interface_full_b_fire_1 $end
    $var wire  1 $" axi4Interface_full_b_fire_2 $end
    $var wire  1 $" axi4Interface_full_b_fire_3 $end
    $var wire  1 $" axi4Interface_full_b_fire_4 $end
    $var wire  1 $" axi4Interface_full_b_fire_5 $end
    $var wire  1 $" axi4Interface_full_b_fire_6 $end
    $var wire  1 $" axi4Interface_full_b_fire_7 $end
    $var wire  1 '" axi4Interface_full_w_fire $end
    $var wire  1 # axi4Interface_isBurstComplete $end
    $var wire  1 %" axi4Interface_isInitialIterate $end
    $var wire  1 k axi4Interface_isRefreshAddr $end
    $var wire  1 j axi4Interface_newBurst $end
    $var wire  1 "" axi4Interface_resetStartSendSignal $end
    $var wire 32 2" axi4Interface_transferDataType [31:0] $end
    $var wire  8 5 burstLen [7:0] $end
    $var wire  8 i burstLengthReg [7:0] $end
    $var wire 32 . m_axi_awaddr [31:0] $end
    $var wire  2 +" m_axi_awburst [1:0] $end
    $var wire  4 )" m_axi_awcache [3:0] $end
    $var wire  8 / m_axi_awlen [7:0] $end
    $var wire  3 ," m_axi_awprot [2:0] $end
    $var wire  4 )" m_axi_awqos [3:0] $end
    $var wire  1 g! m_axi_awready $end
    $var wire  4 )" m_axi_awregion [3:0] $end
    $var wire  3 *" m_axi_awsize [2:0] $end
    $var wire  1 - m_axi_awvalid $end
    $var wire  1 1 m_axi_bready $end
    $var wire  2 w! m_axi_bresp [1:0] $end
    $var wire  1 u! m_axi_bvalid $end
    $var wire 32 A! m_axi_wdata [31:0] $end
    $var wire  1 0 m_axi_wlast $end
    $var wire  1 * m_axi_wlast_regNext $end
    $var wire  1 q! m_axi_wready $end
    $var wire  4 -" m_axi_wstrb [3:0] $end
    $var wire  1 @! m_axi_wvalid $end
    $var wire 32 d! offset [31:0] $end
    $var wire 32 l offsetAddressReg [31:0] $end
    $var wire  8 e! pathNumb [7:0] $end
    $var wire 32 3 s_axis_payload [31:0] $end
    $var wire  1 B! s_axis_ready $end
    $var wire  1 2 s_axis_valid $end
    $var wire  1 4 start $end
    $var wire 32 c! startAddr [31:0] $end
    $var wire  1 #" startSendSignal $end
    $var wire  9 h streamFifo_3_io_availability [8:0] $end
    $var wire  9 g streamFifo_3_io_occupancy [8:0] $end
    $var wire 32 + streamFifo_3_io_pop_m2sPipe_payload [31:0] $end
    $var wire  1 q! streamFifo_3_io_pop_m2sPipe_ready $end
    $var wire  1 m streamFifo_3_io_pop_m2sPipe_valid $end
    $var wire 32 ) streamFifo_3_io_pop_payload [31:0] $end
    $var wire 32 + streamFifo_3_io_pop_rData [31:0] $end
    $var wire  1 m streamFifo_3_io_pop_rValid $end
    $var wire  1 :! streamFifo_3_io_pop_ready $end
    $var wire  1 f streamFifo_3_io_pop_valid $end
    $var wire  1 %! streamFifo_3_io_push_fire $end
    $var wire 32 R! streamFifo_3_io_push_payload [31:0] $end
    $var wire  1 e streamFifo_3_io_push_ready $end
    $var wire  1 Q! streamFifo_3_io_push_valid $end
    $var wire  1 # transInterrupt $end
    $var wire  1 S! when_Axi4WriteOnlyMaster_l105 $end
    $var wire  1 ;! when_Axi4WriteOnlyMaster_l131 $end
    $var wire  1 &" when_Axi4WriteOnlyMaster_l152 $end
    $var wire  1 T! when_Axi4WriteOnlyMaster_l159 $end
    $var wire  1 U! when_Axi4WriteOnlyMaster_l164 $end
    $var wire  1 V! when_Axi4WriteOnlyMaster_l187 $end
    $var wire  1 n when_Stream_l342 $end
    $scope module streamFifo_3 $end
     $var wire  1 y! aclk $end
     $var wire  1 x! aresetn $end
     $var wire  9 h io_availability [8:0] $end
     $var wire  1 1" io_flush $end
     $var wire  9 g io_occupancy [8:0] $end
     $var wire 32 ) io_pop_payload [31:0] $end
     $var wire  1 :! io_pop_ready $end
     $var wire  1 f io_pop_valid $end
     $var wire 32 R! io_push_payload [31:0] $end
     $var wire  1 e io_push_ready $end
     $var wire  1 Q! io_push_valid $end
     $var wire  1 u logic_empty $end
     $var wire  1 v logic_full $end
     $var wire  8 q logic_popPtr_value [7:0] $end
     $var wire  8 >! logic_popPtr_valueNext [7:0] $end
     $var wire  1 1" logic_popPtr_willClear $end
     $var wire  1 =! logic_popPtr_willIncrement $end
     $var wire  1 ~ logic_popPtr_willOverflow $end
     $var wire  1 r logic_popPtr_willOverflowIfInc $end
     $var wire  1 ?! logic_popping $end
     $var wire  8 w logic_ptrDif [7:0] $end
     $var wire  1 s logic_ptrMatch $end
     $var wire  8 o logic_pushPtr_value [7:0] $end
     $var wire  8 X! logic_pushPtr_valueNext [7:0] $end
     $var wire  1 1" logic_pushPtr_willClear $end
     $var wire  1 W! logic_pushPtr_willIncrement $end
     $var wire  1 &! logic_pushPtr_willOverflow $end
     $var wire  1 p logic_pushPtr_willOverflowIfInc $end
     $var wire  1 Y! logic_pushing $end
     $var wire  1 t logic_risingOccupancy $end
     $var wire  1 (" when_Stream_l946 $end
    $upscope $end
   $upscope $end
  $upscope $end
 $upscope $end
$enddefinitions $end


#0
1#
b01101001001111000011010011011100 $
b01110011011011100111101001010101 %
0&
b00101110100110110000011011000110 '
b11101000101011000101100100101001 (
b10101100101010111100100111111101 )
1*
b11101001001101110001010101100011 +
0,
0-
b00000000000000000000000000000000 .
b11111110 /
00
01
02
b00101110100110110000011011000110 3
04
b11111111 5
16
07
b000000000 8
b100000000 9
1:
0;
b000000000 <
b100000000 =
b00000000 >
0?
b00000000 @
0A
1B
1C
1D
0E
1F
0G
1H
1I
b00 J
0K
0L
0M
0N
0O
0P
b0100001001001111010011110101010000100000 Q
b00000000 S
0T
b00000000 U
0V
1W
0X
1Y
0Z
b00000000 [
b00000000 \
0]
b00000000 ^
0_
1`
0a
1b
0c
b00000000 d
1e
0f
b000000000 g
b100000000 h
b11111111 i
1j
1k
b00000000000000000000000000000000 l
0m
1n
b00000000 o
0p
b00000000 q
0r
1s
0t
1u
0v
b00000000 w
0x
0y
0z
1{
0|
0}
0~
0!!
0"!
0#!
0$!
0%!
0&!
0'!
b00000000000000000000000000000000 (!
0)!
b00000000000000000000000000000000 *!
0+!
0,!
b00000000 -!
0.!
0/!
b01 0!
01!
b0100010101001101010100000101010001011001 2!
04!
b00000000 5!
06!
07!
b00000000 8!
09!
0:!
0;!
0<!
0=!
b00000000 >!
0?!
0@!
b10101100101010111100100111111101 A!
0B!
1C!
1D!
0E!
0F!
b00000000 G!
0H!
0I!
0J!
0K!
b00000000 L!
0M!
0N!
b00000000 O!
0P!
0Q!
b00101110100110110000011011000110 R!
0S!
0T!
0U!
0V!
0W!
b00000000 X!
0Y!
0Z!
0[!
0\!
0]!
0^!
b00000000000000000000000000000000 _!
0`!
b00010011 a!
0b!
b00000000000000000000000000000000 c!
b00000000000000000000001000000000 d!
b00100000 e!
0f!
0g!
b00000000000000000000000000000000 h!
b0000 i!
b11111110 j!
b010 k!
b01 l!
b0000 m!
b0000 n!
b000 o!
0p!
0q!
b10101100101010111100100111111101 r!
b1111 s!
0t!
0u!
0v!
b00 w!
0x!
0y!
0z!
0{!
0|!
0}!
0~!
0!"
1""
0#"
0$"
1%"
0&"
0'"
0("
b0000 )"
b010 *"
b01 +"
b000 ,"
b1111 -"
b00 ."
b10 /"
b11 0"
01"
b11011011100011000001011000100101 2"
#240
1x!
#255
0#
b00110110011100001101100111010000 $
b00110000001010001000111001100101 %
b01101001001111000011010011011100 '
b01110011011011100111101001010101 (
b01001111111011110111110110001100 )
0*
1,
b01101001001111000011010011011100 3
b00010011 5
0D
0I
b01 J
1L
b0100010101001101010100000101010001011001 Q
0{
b01001111111011110111110110001100 A!
b01101001001111000011010011011100 R!
1b!
b01001111111011110111110110001100 r!
1y!
0""
#262
0y!
#269
b00110110011100001101100111010000 '
b00110000001010001000111001100101 (
0,
b00010010 /
b00110110011100001101100111010000 3
b00010011 i
b00110110011100001101100111010000 R!
0b!
b00010010 j!
1y!
#276
0y!
#283
1y!
#285
1Z!
1[!
1^!
1`!
b10000000 a!
1{!
1|!
#290
1'!
b00000000000000000000000010001110 (!
b00000000000000000000000010001110 *!
1+!
b00000001 -!
14!
b00000001 5!
16!
1]!
b00000000000000000000000010001110 _!
0`!
b00000000000000000000000000000110 c!
0y!
1z!
1~!
#297
1&
b10000000 5
b000000001 8
b011111111 9
b00000001 >
b00000001 S
0W
1X
0Y
b00000001 [
b00000000000000000000000001011110 (!
b00000000000000000000000001011110 *!
b00000010 -!
b00000010 5!
b00000000000000000000000001011110 _!
b00000000000000000000000000000011 c!
1g!
1q!
1y!
#304
0y!
#311
b00000000000000000000000010001110 $
b01111111 /
17
b000000010 8
b011111110 9
b00000010 >
b00000010 S
b00000010 [
b10000000 i
b00000000000000000000000001111010 (!
b00000000000000000000000001111010 *!
b00000011 -!
b00000011 5!
1K!
b00000001 L!
1M!
b00000000000000000000000001111010 _!
b00000000000000000000000000001111 c!
0g!
b01111111 j!
0q!
1y!
0~!
#318
0y!
#325
b00000000000000000000000001011110 $
b00000000000000000000000010001110 '
b00000000000000000000000010001110 3
b00000011 >
1E
0F
b00000011 S
b00000001 U
b00000000000000000000000011000101 (!
b00000000000000000000000011000101 *!
b00000100 -!
b00000100 5!
0C!
0K!
0M!
b00000000000000000000000010001110 R!
b00000000000000000000000011000101 _!
b00000000000000000000000000000011 c!
1g!
1q!
1y!
1~!
#332
0y!
#339
b000000011 8
b011111101 9
b00000100 >
b00000100 S
b00000011 [
0'!
b00000000000000000000000001101011 (!
b00000000000000000000000001101011 *!
0+!
04!
06!
0]!
b00000000000000000000000001101011 _!
b00000000000000000000000000000000 c!
0g!
0q!
1y!
0z!
0~!
#346
0y!
#353
b00000000000000000000000000011010 (!
b00000000000000000000000000011010 *!
b00000000000000000000000000011010 _!
b00000000000000000000000000000011 c!
1y!
#360
0y!
#367
1'!
b00000000000000000000000011100110 (!
b00000000000000000000000011100110 *!
1+!
b00000101 -!
14!
b00000101 5!
16!
1]!
b00000000000000000000000011100110 _!
b00000000000000000000000000001111 c!
1y!
1z!
1~!
#374
0y!
#381
b000000100 8
b011111100 9
b00000101 >
b00000101 S
b00000100 [
0'!
b00000000000000000000000000100011 (!
b00000000000000000000000000100011 *!
0+!
04!
06!
0]!
b00000000000000000000000000100011 _!
b00000000000000000000000000001010 c!
1y!
0z!
0~!
#388
0y!
#395
b00000000000000000000000011001011 (!
b00000000000000000000000011001011 *!
b00000000000000000000000011001011 _!
b00000000000000000000000000000010 c!
1y!
#402
0y!
#409
1'!
b00000000000000000000000011011100 (!
b00000000000000000000000011011100 *!
1+!
b00000110 -!
14!
b00000110 5!
16!
1]!
b00000000000000000000000011011100 _!
b00000000000000000000000000000111 c!
1y!
1z!
1~!
#416
0y!
#423
b000000101 8
b011111011 9
b00000110 >
b00000110 S
b00000101 [
0'!
b00000000000000000000000010100011 (!
b00000000000000000000000010100011 *!
0+!
04!
06!
0]!
b00000000000000000000000010100011 _!
b00000000000000000000000000000000 c!
1g!
1q!
1y!
0z!
0~!
#430
0y!
#437
1'!
b00000000000000000000000001110010 (!
b00000000000000000000000001110010 *!
1+!
b00000111 -!
14!
b00000111 5!
16!
1]!
b00000000000000000000000001110010 _!
b00000000000000000000000000001101 c!
1y!
1z!
1~!
#444
0y!
#451
b000000110 8
b011111010 9
b00000111 >
b00000111 S
b00000110 [
b00000000000000000000000000011000 (!
b00000000000000000000000000011000 *!
b00001000 -!
b00001000 5!
b00000000000000000000000000011000 _!
b00000000000000000000000000000011 c!
0g!
0q!
1y!
#458
0y!
#465
b000000111 8
b011111001 9
b00001000 >
b00001000 S
b00000111 [
b00000000000000000000000000111000 (!
b00000000000000000000000000111000 *!
b00001001 -!
b00001001 5!
b00000000000000000000000000111000 _!
b00000000000000000000000000001000 c!
1y!
#472
0y!
#479
b000001000 8
b011111000 9
b00001001 >
b00001001 S
b00001000 [
0'!
b00000000000000000000000010100011 (!
b00000000000000000000000010100011 *!
0+!
04!
06!
0]!
b00000000000000000000000010100011 _!
1y!
0z!
0~!
#486
0y!
#493
1'!
b00000000000000000000000011111100 (!
b00000000000000000000000011111100 *!
1+!
b00001010 -!
14!
b00001010 5!
16!
1]!
b00000000000000000000000011111100 _!
1g!
1q!
1y!
1z!
1~!
#500
0y!
#507
b000001001 8
b011110111 9
b00001010 >
b00001010 S
b00001001 [
0'!
b00000000000000000000000010011010 (!
b00000000000000000000000010011010 *!
0+!
04!
06!
0]!
b00000000000000000000000010011010 _!
b00000000000000000000000000000011 c!
0g!
0q!
1y!
0z!
0~!
#514
0y!
#521
1'!
b00000000000000000000000011101000 (!
b00000000000000000000000011101000 *!
1+!
b00001011 -!
14!
b00001011 5!
16!
1]!
b00000000000000000000000011101000 _!
b00000000000000000000000000000010 c!
1y!
1z!
1~!
#528
0y!
#535
b000001010 8
b011110110 9
b00001011 >
b00001011 S
b00001010 [
b00000000000000000000000011001100 (!
b00000000000000000000000011001100 *!
b00001100 -!
b00001100 5!
b00000000000000000000000011001100 _!
b00000000000000000000000000001000 c!
1y!
#542
0y!
#549
b000001011 8
b011110101 9
b00001100 >
b00001100 S
b00001011 [
0'!
b00000000000000000000000010011110 (!
b00000000000000000000000010011110 *!
0+!
04!
06!
0]!
b00000000000000000000000010011110 _!
b00000000000000000000000000000011 c!
1y!
0z!
0~!
#556
0y!
#563
b00000000000000000000000011001001 (!
b00000000000000000000000011001001 *!
b00000000000000000000000011001001 _!
b00000000000000000000000000001111 c!
1g!
1q!
1y!
#570
0y!
#577
1'!
b00000000000000000000000011010101 (!
b00000000000000000000000011010101 *!
1+!
b00001101 -!
14!
b00001101 5!
16!
1]!
b00000000000000000000000011010101 _!
b00000000000000000000000000000100 c!
1y!
1z!
1~!
#584
0y!
#591
b000001100 8
b011110100 9
b00001101 >
b00001101 S
b00001100 [
0'!
b00000000000000000000000011010110 (!
b00000000000000000000000011010110 *!
0+!
04!
06!
0]!
b00000000000000000000000011010110 _!
b00000000000000000000000000001010 c!
1y!
0z!
0~!
#598
0y!
#605
b00000000000000000000000000100111 (!
b00000000000000000000000000100111 *!
b00000000000000000000000000100111 _!
b00000000000000000000000000000011 c!
1y!
#612
0y!
#619
1'!
b00000000000000000000000001001010 (!
b00000000000000000000000001001010 *!
1+!
b00001110 -!
14!
b00001110 5!
16!
1]!
b00000000000000000000000001001010 _!
1y!
1z!
1~!
#626
0y!
#633
b000001101 8
b011110011 9
b00001110 >
b00001110 S
b00001101 [
0'!
b00000000000000000000000000010110 (!
b00000000000000000000000000010110 *!
0+!
04!
06!
0]!
b00000000000000000000000000010110 _!
b00000000000000000000000000001111 c!
1y!
0z!
0~!
#640
0y!
#647
b00000000000000000000000010110001 (!
b00000000000000000000000010110001 *!
b00000000000000000000000010110001 _!
b00000000000000000000000000000110 c!
0g!
0q!
1y!
#654
0y!
#661
b00000000000000000000000001110111 (!
b00000000000000000000000001110111 *!
b00000000000000000000000001110111 _!
b00000000000000000000000000000101 c!
1g!
1q!
1y!
#668
0y!
#675
b00000000000000000000000010110110 (!
b00000000000000000000000010110110 *!
b00000000000000000000000010110110 _!
b00000000000000000000000000000110 c!
0g!
0q!
1y!
#682
0y!
#689
1'!
b00000000000000000000000011001111 (!
b00000000000000000000000011001111 *!
1+!
b00001111 -!
14!
b00001111 5!
16!
1]!
b00000000000000000000000011001111 _!
1y!
1z!
1~!
#696
0y!
#703
b000001110 8
b011110010 9
b00001111 >
b00001111 S
b00001110 [
b00000000000000000000000000111111 (!
b00000000000000000000000000111111 *!
b00010000 -!
b00010000 5!
b00000000000000000000000000111111 _!
b00000000000000000000000000000000 c!
1g!
1q!
1y!
#710
0y!
#717
b000001111 8
b011110001 9
b00010000 >
b00010000 S
b00001111 [
b00000000000000000000000011100101 (!
b00000000000000000000000011100101 *!
b00010001 -!
b00010001 5!
b00000000000000000000000011100101 _!
b00000000000000000000000000000101 c!
1y!
#724
0y!
#731
b000010000 8
b011110000 9
b00010001 >
b00010001 S
b00010000 [
0'!
b00000000000000000000000010000100 (!
b00000000000000000000000010000100 *!
0+!
04!
06!
0]!
b00000000000000000000000010000100 _!
b00000000000000000000000000000111 c!
0g!
0q!
1y!
0z!
0~!
#738
0y!
#745
b00000000000000000000000000011111 (!
b00000000000000000000000000011111 *!
b00000000000000000000000000011111 _!
b00000000000000000000000000000101 c!
1g!
1q!
1y!
#752
0y!
#759
b00000000000000000000000001010100 (!
b00000000000000000000000001010100 *!
b00000000000000000000000001010100 _!
b00000000000000000000000000001111 c!
1y!
#766
0y!
#773
b00000000000000000000000011001100 (!
b00000000000000000000000011001100 *!
b00000000000000000000000011001100 _!
b00000000000000000000000000000000 c!
0g!
0q!
1y!
#780
0y!
#787
1'!
b00000000000000000000000010110001 (!
b00000000000000000000000010110001 *!
1+!
b00010010 -!
14!
b00010010 5!
16!
1]!
b00000000000000000000000010110001 _!
b00000000000000000000000000000001 c!
1y!
1z!
1~!
#794
0y!
#801
b000010001 8
b011101111 9
b00010010 >
b00010010 S
b00010001 [
b00000000000000000000000010000011 (!
b00000000000000000000000010000011 *!
b00010011 -!
b00010011 5!
b00000000000000000000000010000011 _!
b00000000000000000000000000000011 c!
1y!
#808
0y!
