simWorkspace/TestFifo2Axi4WriteOnlyMaster/test.vcd
$version Generated by VerilatedVcd $end
$date Tue Dec 14 12:43:46 2021
 $end
$timescale   1ns $end

 $scope module TOP $end
  $var wire 32 "( axi4WriteOnlyMasterInterface_aw_payload_addr [31:0] $end
  $var wire  2 "- axi4WriteOnlyMasterInterface_aw_payload_burst [1:0] $end
  $var wire  4 "/ axi4WriteOnlyMasterInterface_aw_payload_cache [3:0] $end
  $var wire  1 ") axi4WriteOnlyMasterInterface_aw_payload_id [0:0] $end
  $var wire  8 "+ axi4WriteOnlyMasterInterface_aw_payload_len [7:0] $end
  $var wire  1 ". axi4WriteOnlyMasterInterface_aw_payload_lock [0:0] $end
  $var wire  3 "1 axi4WriteOnlyMasterInterface_aw_payload_prot [2:0] $end
  $var wire  4 "0 axi4WriteOnlyMasterInterface_aw_payload_qos [3:0] $end
  $var wire  4 "* axi4WriteOnlyMasterInterface_aw_payload_region [3:0] $end
  $var wire  3 ", axi4WriteOnlyMasterInterface_aw_payload_size [2:0] $end
  $var wire  1 "' axi4WriteOnlyMasterInterface_aw_ready $end
  $var wire  1 "& axi4WriteOnlyMasterInterface_aw_valid $end
  $var wire  1 "9 axi4WriteOnlyMasterInterface_b_payload_id [0:0] $end
  $var wire  2 ": axi4WriteOnlyMasterInterface_b_payload_resp [1:0] $end
  $var wire  1 "8 axi4WriteOnlyMasterInterface_b_ready $end
  $var wire  1 "7 axi4WriteOnlyMasterInterface_b_valid $end
  $var wire 32 "4 axi4WriteOnlyMasterInterface_w_payload_data [31:0] $end
  $var wire  1 "6 axi4WriteOnlyMasterInterface_w_payload_last $end
  $var wire  4 "5 axi4WriteOnlyMasterInterface_w_payload_strb [3:0] $end
  $var wire  1 "3 axi4WriteOnlyMasterInterface_w_ready $end
  $var wire  1 "2 axi4WriteOnlyMasterInterface_w_valid $end
  $var wire  1 "< clk $end
  $var wire 32 "% fifoInterface_payload [31:0] $end
  $var wire  1 "$ fifoInterface_ready $end
  $var wire  1 "# fifoInterface_valid $end
  $var wire  1 "; resetn $end
  $scope module TestFifo2Axi4WriteOnlyMaster $end
   $var wire  1 7 axi4Interconnection_awValid $end
   $var wire 32 "= axi4Interconnection_awaddr [31:0] $end
   $var wire  2 "O axi4Interconnection_awburst [1:0] $end
   $var wire  4 "L axi4Interconnection_awcache [3:0] $end
   $var wire  1 "K axi4Interconnection_awid [0:0] $end
   $var wire  8 "M axi4Interconnection_awlen [7:0] $end
   $var wire  1 "K axi4Interconnection_awlock [0:0] $end
   $var wire  3 "P axi4Interconnection_awprot [2:0] $end
   $var wire  4 "L axi4Interconnection_awqos [3:0] $end
   $var wire  4 "L axi4Interconnection_awregion [3:0] $end
   $var wire  3 "N axi4Interconnection_awsize [2:0] $end
   $var wire  1 "R axi4Interconnection_bReady $end
   $var wire  1 & axi4Interconnection_fifoReady $end
   $var wire  1 $ axi4Interconnection_wValid $end
   $var wire 32 % axi4Interconnection_wdata [31:0] $end
   $var wire  1 "> axi4Interconnection_wlast $end
   $var wire  4 "Q axi4Interconnection_wstrb [3:0] $end
   $var wire 32 "= axi4WriteOnlyMasterInterface_aw_payload_addr [31:0] $end
   $var wire  2 "O axi4WriteOnlyMasterInterface_aw_payload_burst [1:0] $end
   $var wire  4 "L axi4WriteOnlyMasterInterface_aw_payload_cache [3:0] $end
   $var wire  1 "K axi4WriteOnlyMasterInterface_aw_payload_id [0:0] $end
   $var wire  8 "M axi4WriteOnlyMasterInterface_aw_payload_len [7:0] $end
   $var wire  1 "K axi4WriteOnlyMasterInterface_aw_payload_lock [0:0] $end
   $var wire  3 "P axi4WriteOnlyMasterInterface_aw_payload_prot [2:0] $end
   $var wire  4 "L axi4WriteOnlyMasterInterface_aw_payload_qos [3:0] $end
   $var wire  4 "L axi4WriteOnlyMasterInterface_aw_payload_region [3:0] $end
   $var wire  3 "N axi4WriteOnlyMasterInterface_aw_payload_size [2:0] $end
   $var wire  1 "' axi4WriteOnlyMasterInterface_aw_ready $end
   $var wire  1 7 axi4WriteOnlyMasterInterface_aw_valid $end
   $var wire  1 "9 axi4WriteOnlyMasterInterface_b_payload_id [0:0] $end
   $var wire  2 ": axi4WriteOnlyMasterInterface_b_payload_resp [1:0] $end
   $var wire  1 "R axi4WriteOnlyMasterInterface_b_ready $end
   $var wire  1 "7 axi4WriteOnlyMasterInterface_b_valid $end
   $var wire 32 % axi4WriteOnlyMasterInterface_w_payload_data [31:0] $end
   $var wire  1 "> axi4WriteOnlyMasterInterface_w_payload_last $end
   $var wire  4 "Q axi4WriteOnlyMasterInterface_w_payload_strb [3:0] $end
   $var wire  1 "3 axi4WriteOnlyMasterInterface_w_ready $end
   $var wire  1 $ axi4WriteOnlyMasterInterface_w_valid $end
   $var wire  1 "< clk $end
   $var wire  6 ) fifoInstance_io_availability [5:0] $end
   $var wire  6 ( fifoInstance_io_occupancy [5:0] $end
   $var wire 32 ` fifoInstance_io_pop_payload [31:0] $end
   $var wire  1 ' fifoInstance_io_pop_valid $end
   $var wire  1 # fifoInstance_io_push_ready $end
   $var wire 32 "% fifoInterface_payload [31:0] $end
   $var wire  1 # fifoInterface_ready $end
   $var wire  1 "# fifoInterface_valid $end
   $var wire  1 "; resetn $end
   $scope module axi4Interconnection $end
    $var wire 12 "V Axi4Incr_alignMask [11:0] $end
    $var wire 12 "F Axi4Incr_base [11:0] $end
    $var wire 12 "G Axi4Incr_baseIncr [11:0] $end
    $var wire 20 "E Axi4Incr_highCat [19:0] $end
    $var wire 32 "D Axi4Incr_result [31:0] $end
    $var wire  3 "U Axi4Incr_sizeValue [2:0] $end
    $var wire  2 "T Axi4Incr_validSize [1:0] $end
    $var wire  3 "W Axi4Incr_wrapCase [2:0] $end
    $var wire  1 "' awReady $end
    $var wire  1 7 awValid $end
    $var wire 32 "= awaddr [31:0] $end
    $var wire  2 "O awburst [1:0] $end
    $var wire  4 "L awcache [3:0] $end
    $var wire  1 "S awid [0:0] $end
    $var wire  8 "M awlen [7:0] $end
    $var wire  1 "S awlock [0:0] $end
    $var wire  3 "P awprot [2:0] $end
    $var wire  4 "L awqos [3:0] $end
    $var wire  4 "L awregion [3:0] $end
    $var wire  3 "N awsize [2:0] $end
    $var wire  1 7 axi4Interface_controlAwValid $end
    $var wire  1 0 axi4Interface_fifo_fire $end
    $var wire 32 _ axi4Interface_initialAddress [31:0] $end
    $var wire  1 ^ axi4Interface_isTransferAfterReset $end
    $var wire  1 "H axi4Interface_t_aw_fire $end
    $var wire  1 "C axi4Interface_t_w_fire $end
    $var wire  1 "C axi4Interface_t_w_fire_1 $end
    $var wire  1 "R bReady $end
    $var wire  1 "7 bValid $end
    $var wire  1 "9 bid [0:0] $end
    $var wire  2 ": bresp [1:0] $end
    $var wire  1 "< clk $end
    $var wire 32 "B debugAddress [31:0] $end
    $var wire 32 > fifoDataBuffer_0 [31:0] $end
    $var wire 32 ? fifoDataBuffer_1 [31:0] $end
    $var wire 32 H fifoDataBuffer_10 [31:0] $end
    $var wire 32 I fifoDataBuffer_11 [31:0] $end
    $var wire 32 J fifoDataBuffer_12 [31:0] $end
    $var wire 32 K fifoDataBuffer_13 [31:0] $end
    $var wire 32 L fifoDataBuffer_14 [31:0] $end
    $var wire 32 M fifoDataBuffer_15 [31:0] $end
    $var wire 32 N fifoDataBuffer_16 [31:0] $end
    $var wire 32 O fifoDataBuffer_17 [31:0] $end
    $var wire 32 P fifoDataBuffer_18 [31:0] $end
    $var wire 32 Q fifoDataBuffer_19 [31:0] $end
    $var wire 32 @ fifoDataBuffer_2 [31:0] $end
    $var wire 32 R fifoDataBuffer_20 [31:0] $end
    $var wire 32 S fifoDataBuffer_21 [31:0] $end
    $var wire 32 T fifoDataBuffer_22 [31:0] $end
    $var wire 32 U fifoDataBuffer_23 [31:0] $end
    $var wire 32 V fifoDataBuffer_24 [31:0] $end
    $var wire 32 W fifoDataBuffer_25 [31:0] $end
    $var wire 32 X fifoDataBuffer_26 [31:0] $end
    $var wire 32 Y fifoDataBuffer_27 [31:0] $end
    $var wire 32 Z fifoDataBuffer_28 [31:0] $end
    $var wire 32 [ fifoDataBuffer_29 [31:0] $end
    $var wire 32 A fifoDataBuffer_3 [31:0] $end
    $var wire 32 \ fifoDataBuffer_30 [31:0] $end
    $var wire 32 ] fifoDataBuffer_31 [31:0] $end
    $var wire 32 B fifoDataBuffer_4 [31:0] $end
    $var wire 32 C fifoDataBuffer_5 [31:0] $end
    $var wire 32 D fifoDataBuffer_6 [31:0] $end
    $var wire 32 E fifoDataBuffer_7 [31:0] $end
    $var wire 32 F fifoDataBuffer_8 [31:0] $end
    $var wire 32 G fifoDataBuffer_9 [31:0] $end
    $var wire 32 ` fifoPayload [31:0] $end
    $var wire  1 & fifoReady $end
    $var wire  1 ' fifoValid $end
    $var wire  6 "@ handshakeCounter [5:0] $end
    $var wire  1 "; resetn $end
    $var wire  1 "3 wReady $end
    $var wire  1 $ wValid $end
    $var wire 32 % wdata [31:0] $end
    $var wire  1 "J when_Axi4WriteOnlyMaster_l144 $end
    $var wire  1 "A when_Axi4WriteOnlyMaster_l54 $end
    $var wire  1 "I when_Axi4WriteOnlyMaster_l92 $end
    $var wire  1 "> wlast $end
    $var wire  6 "? writeCounter [5:0] $end
    $var wire  4 "Q wstrb [3:0] $end
   $upscope $end
   $scope module fifoInstance $end
    $var wire  1 "< clk $end
    $var wire  6 ) io_availability [5:0] $end
    $var wire  1 "S io_flush $end
    $var wire  6 ( io_occupancy [5:0] $end
    $var wire 32 ` io_pop_payload [31:0] $end
    $var wire  1 & io_pop_ready $end
    $var wire  1 ' io_pop_valid $end
    $var wire 32 "% io_push_payload [31:0] $end
    $var wire  1 # io_push_ready $end
    $var wire  1 "# io_push_valid $end
    $var wire  1 . logic_empty $end
    $var wire  1 / logic_full $end
    $var wire  5 : logic_popPtr_value [4:0] $end
    $var wire  5 6 logic_popPtr_valueNext [4:0] $end
    $var wire  1 "S logic_popPtr_willClear $end
    $var wire  1 * logic_popPtr_willIncrement $end
    $var wire  1 + logic_popPtr_willOverflow $end
    $var wire  1 ; logic_popPtr_willOverflowIfInc $end
    $var wire  1 - logic_popping $end
    $var wire  5 = logic_ptrDif [4:0] $end
    $var wire  1 , logic_ptrMatch $end
    $var wire  5 8 logic_pushPtr_value [4:0] $end
    $var wire  5 4 logic_pushPtr_valueNext [4:0] $end
    $var wire  1 "S logic_pushPtr_willClear $end
    $var wire  1 3 logic_pushPtr_willIncrement $end
    $var wire  1 1 logic_pushPtr_willOverflow $end
    $var wire  1 9 logic_pushPtr_willOverflowIfInc $end
    $var wire  1 5 logic_pushing $end
    $var wire 32 a logic_ram(0) [31:0] $end
    $var wire 32 b logic_ram(1) [31:0] $end
    $var wire 32 k logic_ram(10) [31:0] $end
    $var wire 32 l logic_ram(11) [31:0] $end
    $var wire 32 m logic_ram(12) [31:0] $end
    $var wire 32 n logic_ram(13) [31:0] $end
    $var wire 32 o logic_ram(14) [31:0] $end
    $var wire 32 p logic_ram(15) [31:0] $end
    $var wire 32 q logic_ram(16) [31:0] $end
    $var wire 32 r logic_ram(17) [31:0] $end
    $var wire 32 s logic_ram(18) [31:0] $end
    $var wire 32 t logic_ram(19) [31:0] $end
    $var wire 32 c logic_ram(2) [31:0] $end
    $var wire 32 u logic_ram(20) [31:0] $end
    $var wire 32 v logic_ram(21) [31:0] $end
    $var wire 32 w logic_ram(22) [31:0] $end
    $var wire 32 x logic_ram(23) [31:0] $end
    $var wire 32 y logic_ram(24) [31:0] $end
    $var wire 32 z logic_ram(25) [31:0] $end
    $var wire 32 { logic_ram(26) [31:0] $end
    $var wire 32 | logic_ram(27) [31:0] $end
    $var wire 32 } logic_ram(28) [31:0] $end
    $var wire 32 ~ logic_ram(29) [31:0] $end
    $var wire 32 d logic_ram(3) [31:0] $end
    $var wire 32 "! logic_ram(30) [31:0] $end
    $var wire 32 "" logic_ram(31) [31:0] $end
    $var wire 32 e logic_ram(4) [31:0] $end
    $var wire 32 f logic_ram(5) [31:0] $end
    $var wire 32 g logic_ram(6) [31:0] $end
    $var wire 32 h logic_ram(7) [31:0] $end
    $var wire 32 i logic_ram(8) [31:0] $end
    $var wire 32 j logic_ram(9) [31:0] $end
    $var wire  1 < logic_risingOccupancy $end
    $var wire  1 "; resetn $end
    $var wire  1 2 when_Stream_l933 $end
   $upscope $end
  $upscope $end
 $upscope $end
$enddefinitions $end


#0
1#
0$
b00000000000000000000000000000000 %
1&
0'
b000000 (
b100000 )
0*
0+
1,
0-
1.
0/
00
01
02
03
b00000 4
05
b00000 6
07
b00000 8
09
b00000 :
0;
0<
b00000 =
b00000000000000000000000000000000 >
b00000000000000000000000000000000 ?
b00000000000000000000000000000000 @
b00000000000000000000000000000000 A
b00000000000000000000000000000000 B
b00000000000000000000000000000000 C
b00000000000000000000000000000000 D
b00000000000000000000000000000000 E
b00000000000000000000000000000000 F
b00000000000000000000000000000000 G
b00000000000000000000000000000000 H
b00000000000000000000000000000000 I
b00000000000000000000000000000000 J
b00000000000000000000000000000000 K
b00000000000000000000000000000000 L
b00000000000000000000000000000000 M
b00000000000000000000000000000000 N
b00000000000000000000000000000000 O
b00000000000000000000000000000000 P
b00000000000000000000000000000000 Q
b00000000000000000000000000000000 R
b00000000000000000000000000000000 S
b00000000000000000000000000000000 T
b00000000000000000000000000000000 U
b00000000000000000000000000000000 V
b00000000000000000000000000000000 W
b00000000000000000000000000000000 X
b00000000000000000000000000000000 Y
b00000000000000000000000000000000 Z
b00000000000000000000000000000000 [
b00000000000000000000000000000000 \
b00000000000000000000000000000000 ]
1^
b00000000000000000000000000000000 _
b01100110000100101011110110011011 `
b01000111000100011001110010010001 a
b00101111111010101010001101110001 b
b10111111111010110100010110111111 c
b11001111011110000100111011001010 d
b10010010001000011000000100000111 e
b00001001000010100001100001100100 f
b00111100111101101011111000010000 g
b00100000011000110001010100010100 h
b11000001110100001001011001100101 i
b10100111100010100110011100010111 j
b01000110110101010011010010000110 k
b10000011101110010011100001110011 l
b01000000010011111101101000011001 m
b10101100011100111011100101111100 n
b11010001011111110101011100111110 o
b10000110011111100100010101110010 p
b00100110010110110110010100000000 q
b10001101111011011110111101001000 r
b01101111101110011111010011100111 s
b01011101001010001101100010000000 t
b01001110100110001010011110101010 u
b10010000001010101101010000110001 v
b01000011010100101011110100000001 w
b10001111110111101111100000101010 x
b10011000010000101110111010011001 y
b10011011011000001101111000110001 z
b11101110100011111100100000100001 {
b01010101011011110111011101100100 |
b10010000011001010010111010000001 }
b11001110011011000111001111000001 ~
b10010110100000001110100000101011 "!
b01111100101011000101111111000001 ""
0"#
1"$
b00000000000000000000000000100000 "%
0"&
0"'
b00000000000000000000000000000000 "(
b0 ")
b0000 "*
b00011111 "+
b010 ",
b01 "-
b0 ".
b0000 "/
b0000 "0
b000 "1
0"2
0"3
b00000000000000000000000000000000 "4
b1111 "5
0"6
0"7
1"8
b0 "9
b00 ":
0";
0"<
b00000000000000000000000000000000 "=
0">
b000000 "?
b000000 "@
1"A
b00000000000000000000000000000000 "B
0"C
b00000000000000000000000000000100 "D
b00000000000000000000 "E
b000000000000 "F
b000000000100 "G
0"H
1"I
0"J
b0 "K
b0000 "L
b00011111 "M
b010 "N
b01 "O
b000 "P
b1111 "Q
1"R
0"S
b10 "T
b100 "U
b000000000011 "V
b101 "W
#160
1";
#170
12
13
b00001 4
15
17
0^
b01000111000100011001110010010001 `
1"#
b00000000000000000000000000111010 "%
1"&
1"<
0"I
#175
0"<
#180
b000001 (
b011111 )
0,
0.
02
03
05
b00001 8
1<
b00001 =
b00000000000000000000000000111010 a
0"#
b00000000000000000000000011001100 "%
1"'
1"3
1"<
1"H
#185
0"<
#190
1'
1*
1-
10
12
b00001 6
07
b00000000000000000000000000111010 `
b00000000000000000000000000101000 "%
0"&
0"'
0"3
1"<
0"H
#195
0"<
#200
1$
b00000000000000000000000000111010 %
0'
b000000 (
b100000 )
0*
1,
0-
1.
00
02
b00001 :
0<
b00000 =
b00000000000000000000000000111010 >
b00101111111010101010001101110001 `
b00000000000000000000000010001100 "%
1"2
b00000000000000000000000000111010 "4
1"<
b000001 "@
1"J
#205
0"<
#210
b00000000000000000000000000101111 "%
1"'
1"3
1"<
1"C
#215
0"<
#220
0$
b00000000000000000000000000000000 %
b00000000000000000000000000111110 "%
0"2
b00000000000000000000000000000000 "4
1"<
b000001 "?
b00000000000000000000000000000100 "B
0"C
b00000000000000000000000000001000 "D
b000000000100 "F
b000000001000 "G
0"J
#225
0"<
#230
12
13
b00010 4
15
1"#
b00000000000000000000000011010011 "%
1"<
#235
0"<
#240
b000001 (
b011111 )
0,
0.
b00011 4
b00010 8
1<
b00001 =
b00000000000000000000000011010011 b
b00000000000000000000000011101011 "%
1"<
#245
0"<
#250
1'
b000010 (
b011110 )
1*
1-
10
03
05
b00010 6
b00011 8
b00010 =
b00000000000000000000000011010011 `
b00000000000000000000000011101011 c
0"#
b00000000000000000000000000010101 "%
1"<
#255
0"<
#260
1$
b00000000000000000000000011010011 %
b000001 (
b011111 )
b00011 6
b00010 :
0<
b00001 =
b00000000000000000000000011010011 ?
b00000000000000000000000011101011 `
b00000000000000000000000010101100 "%
0"'
1"2
0"3
b00000000000000000000000011010011 "4
1"<
b000010 "@
1"J
#265
0"<
#270
0'
b000000 (
b100000 )
0*
1,
0-
1.
00
02
b00011 :
b00000 =
b00000000000000000000000011101011 @
b11001111011110000100111011001010 `
b00000000000000000000000011001010 "%
1"'
1"3
1"<
b000011 "@
1"C
#275
0"<
#280
b00000000000000000000000011101011 %
12
13
b00100 4
15
1"#
b00000000000000000000000001100000 "%
b00000000000000000000000011101011 "4
1"<
b000010 "?
b00000000000000000000000000001000 "B
b00000000000000000000000000001100 "D
b000000001000 "F
b000000001100 "G
#285
0"<
#290
0$
b00000000000000000000000000000000 %
b000001 (
b011111 )
0,
0.
b00101 4
b00100 8
1<
b00001 =
b00000000000000000000000001100000 d
b00000000000000000000000010010001 "%
0"2
b00000000000000000000000000000000 "4
1"<
b000011 "?
b00000000000000000000000000001100 "B
0"C
b00000000000000000000000000010000 "D
b000000001100 "F
b000000010000 "G
0"J
#295
0"<
#300
1'
b000010 (
b011110 )
1*
1-
10
03
05
b00100 6
b00101 8
b00010 =
b00000000000000000000000001100000 `
b00000000000000000000000010010001 e
0"#
b00000000000000000000000010101010 "%
0"'
0"3
1"<
#305
0"<
#310
1$
b00000000000000000000000001100000 %
b000001 (
b011111 )
b00101 6
b00100 :
0<
b00001 =
b00000000000000000000000001100000 A
b00000000000000000000000010010001 `
b00000000000000000000000000110001 "%
1"2
b00000000000000000000000001100000 "4
1"<
b000100 "@
1"J
#315
0"<
#320
0'
b000000 (
b100000 )
0*
1,
0-
1.
00
13
b00110 4
15
b00101 :
b00000 =
b00000000000000000000000010010001 B
b00001001000010100001100001100100 `
1"#
b00000000000000000000000010100010 "%
1"'
1"3
1"<
b000101 "@
1"C
#325
0"<
#330
b00000000000000000000000010010001 %
b000001 (
b011111 )
0,
0.
02
03
05
b00110 8
1<
b00001 =
b00000000000000000000000010100010 f
0"#
b00000000000000000000000001101110 "%
0"'
0"3
b00000000000000000000000010010001 "4
1"<
b000100 "?
b00000000000000000000000000010000 "B
0"C
b00000000000000000000000000010100 "D
b000000010000 "F
b000000010100 "G
#335
0"<
#340
1'
1*
1-
10
13
b00111 4
15
b00110 6
b00000000000000000000000010100010 `
1"#
b00000000000000000000000011000011 "%
1"<
#345
0"<
#350
0'
0*
0-
00
12
b01000 4
b00111 8
b00110 :
b00000000000000000000000010100010 C
b00111100111101101011111000010000 `
b00000000000000000000000011000011 g
b00000000000000000000000011011011 "%
1"'
1"3
1"<
b000110 "@
1"C
#355
0"<
#360
b00000000000000000000000010100010 %
1'
b000010 (
b011110 )
1*
1-
10
02
b01001 4
b00111 6
b01000 8
b00010 =
b00000000000000000000000011000011 `
b00000000000000000000000011011011 h
b00000000000000000000000000001000 "%
b00000000000000000000000010100010 "4
1"<
b000101 "?
b00000000000000000000000000010100 "B
b00000000000000000000000000011000 "D
b000000010100 "F
b000000011000 "G
#365
0"<
#370
b00000000000000000000000011000011 %
12
03
05
b01000 6
b01001 8
b00111 :
b00000000000000000000000011000011 D
b00000000000000000000000011011011 `
b00000000000000000000000000001000 i
0"#
b00000000000000000000000001110100 "%
0"'
0"3
b00000000000000000000000011000011 "4
1"<
b000110 "?
b000111 "@
b00000000000000000000000000011000 "B
0"C
b00000000000000000000000000011100 "D
b000000011000 "F
b000000011100 "G
#375
0"<
#380
b000001 (
b011111 )
b01001 6
b01000 :
0<
b00001 =
b00000000000000000000000011011011 E
b00000000000000000000000000001000 `
b00000000000000000000000010110000 "%
1"'
1"3
1"<
b001000 "@
1"C
#385
0"<
#390
b00000000000000000000000011011011 %
0'
b000000 (
b100000 )
0*
1,
0-
1.
00
13
b01010 4
15
b01001 :
b00000 =
b00000000000000000000000000001000 F
b10100111100010100110011100010111 `
1"#
b00000000000000000000000001100111 "%
0"'
0"3
b00000000000000000000000011011011 "4
1"<
b000111 "?
b001001 "@
b00000000000000000000000000011100 "B
0"C
b00000000000000000000000000100000 "D
b000000011100 "F
b000000100000 "G
#395
0"<
#400
b000001 (
b011111 )
0,
0.
02
03
05
b01010 8
1<
b00001 =
b00000000000000000000000001100111 j
0"#
b00000000000000000000000011000100 "%
1"'
1"3
1"<
1"C
#405
0"<
#410
b00000000000000000000000000001000 %
1'
1*
1-
10
12
b01010 6
b00000000000000000000000001100111 `
b00000000000000000000000011110011 "%
b00000000000000000000000000001000 "4
1"<
b001000 "?
b00000000000000000000000000100000 "B
b00000000000000000000000000100100 "D
b000000100000 "F
b000000100100 "G
#415
0"<
#420
b00000000000000000000000001100111 %
0'
b000000 (
b100000 )
0*
1,
0-
1.
00
02
b01010 :
0<
b00000 =
b00000000000000000000000001100111 G
b01000110110101010011010010000110 `
b00000000000000000000000010101111 "%
0"'
0"3
b00000000000000000000000001100111 "4
1"<
b001001 "?
b001010 "@
b00000000000000000000000000100100 "B
0"C
b00000000000000000000000000101000 "D
b000000100100 "F
b000000101000 "G
#425
0"<
#430
12
13
b01011 4
15
1"#
b00000000000000000000000010001010 "%
1"<
#435
0"<
#440
b000001 (
b011111 )
0,
0.
b01100 4
b01011 8
1<
b00001 =
b00000000000000000000000010001010 k
b00000000000000000000000010101010 "%
1"'
1"3
1"<
1"C
#445
0"<
#450
0$
b00000000000000000000000000000000 %
1'
b000010 (
b011110 )
1*
1-
10
02
b01101 4
b01011 6
b01100 8
b00010 =
b00000000000000000000000010001010 `
b00000000000000000000000010101010 l
b00000000000000000000000001000101 "%
0"2
b00000000000000000000000000000000 "4
1"<
b001010 "?
b00000000000000000000000000101000 "B
0"C
b00000000000000000000000000101100 "D
b000000101000 "F
b000000101100 "G
0"J
#455
0"<
#460
1$
b00000000000000000000000010001010 %
b01110 4
b01100 6
b01101 8
b01011 :
b00000000000000000000000010001010 H
b00000000000000000000000010101010 `
b00000000000000000000000001000101 m
b00000000000000000000000011000111 "%
0"'
1"2
0"3
b00000000000000000000000010001010 "4
1"<
b001011 "@
1"J
#465
0"<
#470
12
03
05
b01101 6
b01110 8
b01100 :
b00000000000000000000000010101010 I
b00000000000000000000000001000101 `
b00000000000000000000000011000111 n
0"#
b00000000000000000000000000111011 "%
1"<
b001100 "@
#475
0"<
#480
b000001 (
b011111 )
02
13
b01111 4
15
b01110 6
b01101 :
0<
b00001 =
b00000000000000000000000001000101 J
b00000000000000000000000011000111 `
1"#
b00000000000000000000000010000000 "%
1"<
b001101 "@
#485
0"<
#490
0'
0*
0-
00
12
b10000 4
b01111 8
b01110 :
b00000000000000000000000011000111 K
b11010001011111110101011100111110 `
b00000000000000000000000010000000 o
b00000000000000000000000010110001 "%
1"<
b001110 "@
#495
0"<
#500
1'
b000010 (
b011110 )
1*
1-
10
02
b10001 4
b01111 6
b10000 8
1<
b00010 =
b00000000000000000000000010000000 `
b00000000000000000000000010110001 p
b00000000000000000000000010100011 "%
1"'
1"3
1"<
1"C
#505
0"<
#510
b00000000000000000000000010101010 %
12
03
05
b10000 6
b10001 8
b01111 :
b00000000000000000000000010000000 L
b00000000000000000000000010110001 `
b00000000000000000000000010100011 q
0"#
b00000000000000000000000011011101 "%
b00000000000000000000000010101010 "4
1"<
b001011 "?
b001111 "@
b00000000000000000000000000101100 "B
b00000000000000000000000000110000 "D
b000000101100 "F
b000000110000 "G
#515
0"<
#520
b00000000000000000000000001000101 %
b000001 (
b011111 )
02
13
b10010 4
15
b10001 6
b10000 :
0<
b00001 =
b00000000000000000000000010110001 M
b00000000000000000000000010100011 `
1"#
b00000000000000000000000010101100 "%
b00000000000000000000000001000101 "4
1"<
b001100 "?
b010000 "@
b00000000000000000000000000110000 "B
b00000000000000000000000000110100 "D
b000000110000 "F
b000000110100 "G
#525
0"<
#530
b00000000000000000000000011000111 %
0'
0*
0-
00
12
b10011 4
b10010 8
b10001 :
b00000000000000000000000010100011 N
b10001101111011011110111101001000 `
b00000000000000000000000010101100 r
b00000000000000000000000010110111 "%
b00000000000000000000000011000111 "4
1"<
b001101 "?
b010001 "@
b00000000000000000000000000110100 "B
b00000000000000000000000000111000 "D
b000000110100 "F
b000000111000 "G
#535
0"<
#540
b00000000000000000000000010000000 %
1'
b000010 (
b011110 )
1*
1-
10
02
b10100 4
b10010 6
b10011 8
1<
b00010 =
b00000000000000000000000010101100 `
b00000000000000000000000010110111 s
b00000000000000000000000010111001 "%
0"'
0"3
b00000000000000000000000010000000 "4
1"<
b001110 "?
b00000000000000000000000000111000 "B
0"C
b00000000000000000000000000111100 "D
b000000111000 "F
b000000111100 "G
#545
0"<
#550
b10101 4
b10011 6
b10100 8
b10010 :
b00000000000000000000000010101100 O
b00000000000000000000000010110111 `
b00000000000000000000000010111001 t
b00000000000000000000000001100110 "%
1"'
1"3
1"<
b010010 "@
1"C
#555
0"<
#560
b00000000000000000000000010110001 %
b10110 4
b10100 6
b10101 8
b10011 :
b00000000000000000000000010110111 P
b00000000000000000000000010111001 `
b00000000000000000000000001100110 u
b00000000000000000000000001001000 "%
0"'
0"3
b00000000000000000000000010110001 "4
1"<
b001111 "?
b010011 "@
b00000000000000000000000000111100 "B
0"C
b00000000000000000000000001000000 "D
b000000111100 "F
b000001000000 "G
#565
0"<
#570
12
03
05
b10101 6
b10110 8
b10100 :
b00000000000000000000000010111001 Q
b00000000000000000000000001100110 `
b00000000000000000000000001001000 v
0"#
b00000000000000000000000000110101 "%
1"<
b010100 "@
#575
0"<
#580
b000001 (
b011111 )
02
13
b10111 4
15
b10110 6
b10101 :
0<
b00001 =
b00000000000000000000000001100110 R
b00000000000000000000000001001000 `
1"#
b00000000000000000000000010101001 "%
1"'
1"3
1"<
b010101 "@
1"C
#585
0"<
#590
b00000000000000000000000010100011 %
0'
0*
0-
00
03
05
b10111 8
b10110 :
b00000000000000000000000001001000 S
b01000011010100101011110100000001 `
b00000000000000000000000010101001 w
0"#
b00000000000000000000000001000100 "%
0"'
0"3
b00000000000000000000000010100011 "4
1"<
b010000 "?
b010110 "@
b00000000000000000000000001000000 "B
0"C
b00000000000000000000000001000100 "D
b000001000000 "F
b000001000100 "G
#595
0"<
#600
1'
1*
1-
10
12
b10111 6
b00000000000000000000000010101001 `
b00000000000000000000000001001011 "%
1"<
#605
0"<
#610
0'
b000000 (
b100000 )
0*
1,
0-
1.
00
02
b10111 :
b00000 =
b00000000000000000000000010101001 T
b10001111110111101111100000101010 `
b00000000000000000000000000111011 "%
1"'
1"3
1"<
b010111 "@
1"C
#615
0"<
#620
b00000000000000000000000010101100 %
b00000000000000000000000001111110 "%
0"'
0"3
b00000000000000000000000010101100 "4
1"<
b010001 "?
b00000000000000000000000001000100 "B
0"C
b00000000000000000000000001001000 "D
b000001000100 "F
b000001001000 "G
#625
0"<
#630
b00000000000000000000000010110001 "%
1"'
1"3
1"<
1"C
#635
0"<
#640
b00000000000000000000000010110111 %
b00000000000000000000000010000001 "%
b00000000000000000000000010110111 "4
1"<
b010010 "?
b00000000000000000000000001001000 "B
b00000000000000000000000001001100 "D
b000001001000 "F
b000001001100 "G
#645
0"<
#650
b00000000000000000000000010111001 %
12
13
b11000 4
15
1"#
b00000000000000000000000000111111 "%
0"'
0"3
b00000000000000000000000010111001 "4
1"<
b010011 "?
b00000000000000000000000001001100 "B
0"C
b00000000000000000000000001010000 "D
b000001001100 "F
b000001010000 "G
#655
0"<
#660
b000001 (
b011111 )
0,
0.
b11001 4
b11000 8
1<
b00001 =
b00000000000000000000000000111111 x
b00000000000000000000000000100011 "%
1"<
#665
0"<
#670
1'
b000010 (
b011110 )
1*
1-
10
02
b11010 4
b11000 6
b11001 8
b00010 =
b00000000000000000000000000111111 `
b00000000000000000000000000100011 y
b00000000000000000000000011110010 "%
1"<
#675
0"<
#680
12
03
05
b11001 6
b11010 8
b11000 :
b00000000000000000000000000111111 U
b00000000000000000000000000100011 `
b00000000000000000000000011110010 z
0"#
b00000000000000000000000010000001 "%
1"<
b011000 "@
#685
0"<
#690
b000001 (
b011111 )
02
13
b11011 4
15
b11010 6
b11001 :
0<
b00001 =
b00000000000000000000000000100011 V
b00000000000000000000000011110010 `
1"#
b00000000000000000000000001001111 "%
1"'
1"3
1"<
b011001 "@
1"C
#695
0"<
#700
b00000000000000000000000001100110 %
0'
0*
0-
00
03
05
b11011 8
b11010 :
b00000000000000000000000011110010 W
b11101110100011111100100000100001 `
b00000000000000000000000001001111 {
0"#
b00000000000000000000000000111110 "%
b00000000000000000000000001100110 "4
1"<
b010100 "?
b011010 "@
b00000000000000000000000001010000 "B
b00000000000000000000000001010100 "D
b000001010000 "F
b000001010100 "G
#705
0"<
