simWorkspace/Fifo2Axi4WriteOnlyMasterInterface/test.vcd
$version Generated by VerilatedVcd $end
$date Wed Dec 15 19:46:30 2021
 $end
$timescale   1ns $end

 $scope module TOP $end
  $var wire 32 "( aw_payload_addr [31:0] $end
  $var wire  2 ", aw_payload_burst [1:0] $end
  $var wire  4 "- aw_payload_cache [3:0] $end
  $var wire  8 "* aw_payload_len [7:0] $end
  $var wire  3 "/ aw_payload_prot [2:0] $end
  $var wire  4 ". aw_payload_qos [3:0] $end
  $var wire  4 ") aw_payload_region [3:0] $end
  $var wire  3 "+ aw_payload_size [2:0] $end
  $var wire  1 "' aw_ready $end
  $var wire  1 "& aw_valid $end
  $var wire  2 "7 b_payload_resp [1:0] $end
  $var wire  1 "6 b_ready $end
  $var wire  1 "5 b_valid $end
  $var wire  1 "9 clk $end
  $var wire 32 "% fifoInterface_payload [31:0] $end
  $var wire  1 "$ fifoInterface_ready $end
  $var wire  1 "# fifoInterface_valid $end
  $var wire  1 "8 resetn $end
  $var wire 32 "2 w_payload_data [31:0] $end
  $var wire  1 "4 w_payload_last $end
  $var wire  4 "3 w_payload_strb [3:0] $end
  $var wire  1 "1 w_ready $end
  $var wire  1 "0 w_valid $end
  $scope module Fifo2Axi4WriteOnlyMasterInterface $end
   $var wire 32 ": aw_payload_addr [31:0] $end
   $var wire  2 "K aw_payload_burst [1:0] $end
   $var wire  4 "H aw_payload_cache [3:0] $end
   $var wire  8 "I aw_payload_len [7:0] $end
   $var wire  3 "L aw_payload_prot [2:0] $end
   $var wire  4 "H aw_payload_qos [3:0] $end
   $var wire  4 "H aw_payload_region [3:0] $end
   $var wire  3 "J aw_payload_size [2:0] $end
   $var wire  1 "' aw_ready $end
   $var wire  1 7 aw_valid $end
   $var wire  1 7 axi4Interconnection_awValid $end
   $var wire 32 ": axi4Interconnection_awaddr [31:0] $end
   $var wire  2 "K axi4Interconnection_awburst [1:0] $end
   $var wire  4 "H axi4Interconnection_awcache [3:0] $end
   $var wire  8 "I axi4Interconnection_awlen [7:0] $end
   $var wire  3 "L axi4Interconnection_awprot [2:0] $end
   $var wire  4 "H axi4Interconnection_awqos [3:0] $end
   $var wire  4 "H axi4Interconnection_awregion [3:0] $end
   $var wire  3 "J axi4Interconnection_awsize [2:0] $end
   $var wire  1 "N axi4Interconnection_bReady $end
   $var wire  1 & axi4Interconnection_fifoReady $end
   $var wire  1 $ axi4Interconnection_wValid $end
   $var wire 32 % axi4Interconnection_wdata [31:0] $end
   $var wire  1 "; axi4Interconnection_wlast $end
   $var wire  4 "M axi4Interconnection_wstrb [3:0] $end
   $var wire  2 "7 b_payload_resp [1:0] $end
   $var wire  1 "N b_ready $end
   $var wire  1 "5 b_valid $end
   $var wire  1 "9 clk $end
   $var wire  6 ) fifoInstance_io_availability [5:0] $end
   $var wire  6 ( fifoInstance_io_occupancy [5:0] $end
   $var wire 32 ` fifoInstance_io_pop_payload [31:0] $end
   $var wire  1 ' fifoInstance_io_pop_valid $end
   $var wire  1 # fifoInstance_io_push_ready $end
   $var wire 32 "% fifoInterface_payload [31:0] $end
   $var wire  1 # fifoInterface_ready $end
   $var wire  1 "# fifoInterface_valid $end
   $var wire  1 "8 resetn $end
   $var wire 32 % w_payload_data [31:0] $end
   $var wire  1 "; w_payload_last $end
   $var wire  4 "M w_payload_strb [3:0] $end
   $var wire  1 "1 w_ready $end
   $var wire  1 $ w_valid $end
   $scope module axi4Interconnection $end
    $var wire 12 "R Axi4Incr_alignMask [11:0] $end
    $var wire 12 "C Axi4Incr_base [11:0] $end
    $var wire 12 "D Axi4Incr_baseIncr [11:0] $end
    $var wire 20 "B Axi4Incr_highCat [19:0] $end
    $var wire 32 "A Axi4Incr_result [31:0] $end
    $var wire  3 "Q Axi4Incr_sizeValue [2:0] $end
    $var wire  2 "P Axi4Incr_validSize [1:0] $end
    $var wire  3 "S Axi4Incr_wrapCase [2:0] $end
    $var wire  1 "' awReady $end
    $var wire  1 7 awValid $end
    $var wire 32 ": awaddr [31:0] $end
    $var wire  2 "K awburst [1:0] $end
    $var wire  4 "H awcache [3:0] $end
    $var wire  8 "I awlen [7:0] $end
    $var wire  3 "L awprot [2:0] $end
    $var wire  4 "H awqos [3:0] $end
    $var wire  4 "H awregion [3:0] $end
    $var wire  3 "J awsize [2:0] $end
    $var wire  1 7 axi4Interface_controlAwValid $end
    $var wire  1 0 axi4Interface_fifo_fire $end
    $var wire 32 _ axi4Interface_initialAddress [31:0] $end
    $var wire  1 ^ axi4Interface_isTransferAfterReset $end
    $var wire  1 "E axi4Interface_t_aw_fire $end
    $var wire  1 "@ axi4Interface_t_w_fire $end
    $var wire  1 "@ axi4Interface_t_w_fire_1 $end
    $var wire  1 "N bReady $end
    $var wire  1 "5 bValid $end
    $var wire  2 "7 bresp [1:0] $end
    $var wire  1 "9 clk $end
    $var wire 32 "? debugAddress [31:0] $end
    $var wire 32 > fifoDataBuffer_0 [31:0] $end
    $var wire 32 ? fifoDataBuffer_1 [31:0] $end
    $var wire 32 H fifoDataBuffer_10 [31:0] $end
    $var wire 32 I fifoDataBuffer_11 [31:0] $end
    $var wire 32 J fifoDataBuffer_12 [31:0] $end
    $var wire 32 K fifoDataBuffer_13 [31:0] $end
    $var wire 32 L fifoDataBuffer_14 [31:0] $end
    $var wire 32 M fifoDataBuffer_15 [31:0] $end
    $var wire 32 N fifoDataBuffer_16 [31:0] $end
    $var wire 32 O fifoDataBuffer_17 [31:0] $end
    $var wire 32 P fifoDataBuffer_18 [31:0] $end
    $var wire 32 Q fifoDataBuffer_19 [31:0] $end
    $var wire 32 @ fifoDataBuffer_2 [31:0] $end
    $var wire 32 R fifoDataBuffer_20 [31:0] $end
    $var wire 32 S fifoDataBuffer_21 [31:0] $end
    $var wire 32 T fifoDataBuffer_22 [31:0] $end
    $var wire 32 U fifoDataBuffer_23 [31:0] $end
    $var wire 32 V fifoDataBuffer_24 [31:0] $end
    $var wire 32 W fifoDataBuffer_25 [31:0] $end
    $var wire 32 X fifoDataBuffer_26 [31:0] $end
    $var wire 32 Y fifoDataBuffer_27 [31:0] $end
    $var wire 32 Z fifoDataBuffer_28 [31:0] $end
    $var wire 32 [ fifoDataBuffer_29 [31:0] $end
    $var wire 32 A fifoDataBuffer_3 [31:0] $end
    $var wire 32 \ fifoDataBuffer_30 [31:0] $end
    $var wire 32 ] fifoDataBuffer_31 [31:0] $end
    $var wire 32 B fifoDataBuffer_4 [31:0] $end
    $var wire 32 C fifoDataBuffer_5 [31:0] $end
    $var wire 32 D fifoDataBuffer_6 [31:0] $end
    $var wire 32 E fifoDataBuffer_7 [31:0] $end
    $var wire 32 F fifoDataBuffer_8 [31:0] $end
    $var wire 32 G fifoDataBuffer_9 [31:0] $end
    $var wire 32 ` fifoPayload [31:0] $end
    $var wire  1 & fifoReady $end
    $var wire  1 ' fifoValid $end
    $var wire  6 "= handshakeCounter [5:0] $end
    $var wire  1 "8 resetn $end
    $var wire  1 "1 wReady $end
    $var wire  1 $ wValid $end
    $var wire 32 % wdata [31:0] $end
    $var wire  1 "G when_Axi4WriteOnlyMaster_l142 $end
    $var wire  1 "> when_Axi4WriteOnlyMaster_l55 $end
    $var wire  1 "F when_Axi4WriteOnlyMaster_l92 $end
    $var wire  1 "; wlast $end
    $var wire  6 "< writeCounter [5:0] $end
    $var wire  4 "M wstrb [3:0] $end
   $upscope $end
   $scope module fifoInstance $end
    $var wire  1 "9 clk $end
    $var wire  6 ) io_availability [5:0] $end
    $var wire  1 "O io_flush $end
    $var wire  6 ( io_occupancy [5:0] $end
    $var wire 32 ` io_pop_payload [31:0] $end
    $var wire  1 & io_pop_ready $end
    $var wire  1 ' io_pop_valid $end
    $var wire 32 "% io_push_payload [31:0] $end
    $var wire  1 # io_push_ready $end
    $var wire  1 "# io_push_valid $end
    $var wire  1 . logic_empty $end
    $var wire  1 / logic_full $end
    $var wire  5 : logic_popPtr_value [4:0] $end
    $var wire  5 6 logic_popPtr_valueNext [4:0] $end
    $var wire  1 "O logic_popPtr_willClear $end
    $var wire  1 * logic_popPtr_willIncrement $end
    $var wire  1 + logic_popPtr_willOverflow $end
    $var wire  1 ; logic_popPtr_willOverflowIfInc $end
    $var wire  1 - logic_popping $end
    $var wire  5 = logic_ptrDif [4:0] $end
    $var wire  1 , logic_ptrMatch $end
    $var wire  5 8 logic_pushPtr_value [4:0] $end
    $var wire  5 4 logic_pushPtr_valueNext [4:0] $end
    $var wire  1 "O logic_pushPtr_willClear $end
    $var wire  1 3 logic_pushPtr_willIncrement $end
    $var wire  1 1 logic_pushPtr_willOverflow $end
    $var wire  1 9 logic_pushPtr_willOverflowIfInc $end
    $var wire  1 5 logic_pushing $end
    $var wire 32 a logic_ram(0) [31:0] $end
    $var wire 32 b logic_ram(1) [31:0] $end
    $var wire 32 k logic_ram(10) [31:0] $end
    $var wire 32 l logic_ram(11) [31:0] $end
    $var wire 32 m logic_ram(12) [31:0] $end
    $var wire 32 n logic_ram(13) [31:0] $end
    $var wire 32 o logic_ram(14) [31:0] $end
    $var wire 32 p logic_ram(15) [31:0] $end
    $var wire 32 q logic_ram(16) [31:0] $end
    $var wire 32 r logic_ram(17) [31:0] $end
    $var wire 32 s logic_ram(18) [31:0] $end
    $var wire 32 t logic_ram(19) [31:0] $end
    $var wire 32 c logic_ram(2) [31:0] $end
    $var wire 32 u logic_ram(20) [31:0] $end
    $var wire 32 v logic_ram(21) [31:0] $end
    $var wire 32 w logic_ram(22) [31:0] $end
    $var wire 32 x logic_ram(23) [31:0] $end
    $var wire 32 y logic_ram(24) [31:0] $end
    $var wire 32 z logic_ram(25) [31:0] $end
    $var wire 32 { logic_ram(26) [31:0] $end
    $var wire 32 | logic_ram(27) [31:0] $end
    $var wire 32 } logic_ram(28) [31:0] $end
    $var wire 32 ~ logic_ram(29) [31:0] $end
    $var wire 32 d logic_ram(3) [31:0] $end
    $var wire 32 "! logic_ram(30) [31:0] $end
    $var wire 32 "" logic_ram(31) [31:0] $end
    $var wire 32 e logic_ram(4) [31:0] $end
    $var wire 32 f logic_ram(5) [31:0] $end
    $var wire 32 g logic_ram(6) [31:0] $end
    $var wire 32 h logic_ram(7) [31:0] $end
    $var wire 32 i logic_ram(8) [31:0] $end
    $var wire 32 j logic_ram(9) [31:0] $end
    $var wire  1 < logic_risingOccupancy $end
    $var wire  1 "8 resetn $end
    $var wire  1 2 when_Stream_l933 $end
   $upscope $end
  $upscope $end
 $upscope $end
$enddefinitions $end


#0
1#
0$
b00000000000000000000000000000000 %
1&
0'
b000000 (
b100000 )
0*
0+
1,
0-
1.
0/
00
01
02
03
b00000 4
05
b00000 6
07
b00000 8
09
b00000 :
0;
0<
b00000 =
b00000000000000000000000000000000 >
b00000000000000000000000000000000 ?
b00000000000000000000000000000000 @
b00000000000000000000000000000000 A
b00000000000000000000000000000000 B
b00000000000000000000000000000000 C
b00000000000000000000000000000000 D
b00000000000000000000000000000000 E
b00000000000000000000000000000000 F
b00000000000000000000000000000000 G
b00000000000000000000000000000000 H
b00000000000000000000000000000000 I
b00000000000000000000000000000000 J
b00000000000000000000000000000000 K
b00000000000000000000000000000000 L
b00000000000000000000000000000000 M
b00000000000000000000000000000000 N
b00000000000000000000000000000000 O
b00000000000000000000000000000000 P
b00000000000000000000000000000000 Q
b00000000000000000000000000000000 R
b00000000000000000000000000000000 S
b00000000000000000000000000000000 T
b00000000000000000000000000000000 U
b00000000000000000000000000000000 V
b00000000000000000000000000000000 W
b00000000000000000000000000000000 X
b00000000000000000000000000000000 Y
b00000000000000000000000000000000 Z
b00000000000000000000000000000000 [
b00000000000000000000000000000000 \
b00000000000000000000000000000000 ]
1^
b00000000000000000000000000000000 _
b00000010010100000011111101001111 `
b10100011011110001001000100000110 a
b10011110101000111010111110111111 b
b01000111001011000011110101100100 c
b00000011000101001010111000001001 d
b10011000001101010111110110101001 e
b10101000010100101111011010110111 f
b00101010000011011001010010000010 g
b11001100000100100100100101111111 h
b00100011100000110000000110011100 i
b01010010010101001001011000001000 j
b00110100001001100000111001011010 k
b00011111001011001111010111011101 l
b00000010010100000011111101001111 m
b00111111010011010001001101111110 n
b11101101011010010101110000101011 o
b10110001110000111011000010010001 p
b01011101111101110110000010110100 q
b01001100100001110001110100110110 r
b10011011111110100010100000101010 s
b01001100001101101001001001111000 t
b00111110000011100100010110000000 u
b00001011100101111000000111011111 v
b01110100010010010101101000111000 w
b11110000101111110000110000100010 x
b00111010001001101011100101101001 y
b00111101001101111111000011111001 z
b11000000010000001111100011100010 {
b00000110010000000110101000010001 |
b00101101011100110011001001101001 }
b11110111011100101000001100011001 ~
b11010011000010111101011100011100 "!
b10001110000111011010000011111001 ""
0"#
1"$
b00000000000000000000000000100000 "%
0"&
0"'
b00000000000000000000000000000000 "(
b0000 ")
b00011111 "*
b010 "+
b01 ",
b0000 "-
b0000 ".
b000 "/
0"0
0"1
b00000000000000000000000000000000 "2
b1111 "3
0"4
1"5
1"6
b00 "7
0"8
0"9
b00000000000000000000000000000000 ":
0";
b000000 "<
b000000 "=
1">
b00000000000000000000000000000000 "?
0"@
b00000000000000000000000000000100 "A
b00000000000000000000 "B
b000000000000 "C
b000000000100 "D
0"E
1"F
0"G
b0000 "H
b00011111 "I
b010 "J
b01 "K
b000 "L
b1111 "M
1"N
0"O
b10 "P
b100 "Q
b000000000011 "R
b101 "S
#160
1"8
#170
12
13
b00001 4
15
17
0^
b10100011011110001001000100000110 `
1"#
b00000000000000000000000001110101 "%
1"&
1"'
1"1
1"9
1"E
0"F
#175
0"9
#180
b000001 (
b011111 )
0,
0.
b00010 4
07
b00001 8
1<
b00001 =
b00000000000000000000000001110101 a
b00000000000000000000000011000001 "%
0"&
0"'
0"1
1"9
0"E
#185
0"9
#190
1'
b000010 (
b011110 )
1*
1-
10
02
b00011 4
b00001 6
b00010 8
b00010 =
b00000000000000000000000001110101 `
b00000000000000000000000011000001 b
b00000000000000000000000000100101 "%
1"'
1"1
1"9
#195
0"9
#200
1$
b00000000000000000000000001110101 %
12
03
05
b00010 6
b00011 8
b00001 :
b00000000000000000000000001110101 >
b00000000000000000000000011000001 `
b00000000000000000000000000100101 c
0"#
b00000000000000000000000010011010 "%
0"'
1"0
0"1
b00000000000000000000000001110101 "2
1"9
b000001 "=
1"G
#205
0"9
#210
b000001 (
b011111 )
b00011 6
b00010 :
0<
b00001 =
b00000000000000000000000011000001 ?
b00000000000000000000000000100101 `
b00000000000000000000000010100000 "%
1"9
b000010 "=
#215
0"9
#220
0'
b000000 (
b100000 )
0*
1,
0-
1.
00
02
b00011 :
b00000 =
b00000000000000000000000000100101 @
b00000011000101001010111000001001 `
b00000000000000000000000001001001 "%
1"9
b000011 "=
#225
0"9
#230
b00000000000000000000000010000110 "%
1"9
#235
0"9
#240
b00000000000000000000000010111000 "%
1"9
#245
0"9
#250
b00000000000000000000000001011111 "%
1"9
#255
0"9
#260
12
13
b00100 4
15
1"#
b00000000000000000000000010000010 "%
1"9
#265
0"9
#270
b000001 (
b011111 )
0,
0.
b00101 4
b00100 8
1<
b00001 =
b00000000000000000000000010000010 d
b00000000000000000000000000010001 "%
1"9
#275
0"9
#280
1'
b000010 (
b011110 )
1*
1-
10
03
05
b00100 6
b00101 8
b00010 =
b00000000000000000000000010000010 `
b00000000000000000000000000010001 e
0"#
b00000000000000000000000001101111 "%
1"'
1"1
1"9
1"@
#285
0"9
#290
b00000000000000000000000011000001 %
b000001 (
b011111 )
02
13
b00110 4
15
b00101 6
b00100 :
0<
b00001 =
b00000000000000000000000010000010 A
b00000000000000000000000000010001 `
1"#
b00000000000000000000000000101111 "%
0"'
0"1
b00000000000000000000000011000001 "2
1"9
b000001 "<
b000100 "=
b00000000000000000000000000000100 "?
0"@
b00000000000000000000000000001000 "A
b000000000100 "C
b000000001000 "D
#295
0"9
#300
0'
0*
0-
00
12
b00111 4
b00110 8
b00101 :
b00000000000000000000000000010001 B
b10101000010100101111011010110111 `
b00000000000000000000000000101111 f
b00000000000000000000000010011000 "%
1"'
1"1
1"9
b000101 "=
1"@
#305
0"9
#310
b00000000000000000000000000100101 %
1'
b000010 (
b011110 )
1*
1-
10
02
b01000 4
b00110 6
b00111 8
1<
b00010 =
b00000000000000000000000000101111 `
b00000000000000000000000010011000 g
b00000000000000000000000011001000 "%
0"'
0"1
b00000000000000000000000000100101 "2
1"9
b000010 "<
b00000000000000000000000000001000 "?
0"@
b00000000000000000000000000001100 "A
b000000001000 "C
b000000001100 "D
#315
0"9
#320
12
03
05
b00111 6
b01000 8
b00110 :
b00000000000000000000000000101111 C
b00000000000000000000000010011000 `
b00000000000000000000000011001000 h
0"#
b00000000000000000000000011001001 "%
1"'
1"1
1"9
b000110 "=
1"@
#325
0"9
#330
b00000000000000000000000010000010 %
b000001 (
b011111 )
b01000 6
b00111 :
0<
b00001 =
b00000000000000000000000010011000 D
b00000000000000000000000011001000 `
b00000000000000000000000000001000 "%
0"'
0"1
b00000000000000000000000010000010 "2
1"9
b000011 "<
b000111 "=
b00000000000000000000000000001100 "?
0"@
b00000000000000000000000000010000 "A
b000000001100 "C
b000000010000 "D
#335
0"9
#340
0'
b000000 (
b100000 )
0*
1,
0-
1.
00
02
b01000 :
b00000 =
b00000000000000000000000011001000 E
b00100011100000110000000110011100 `
b00000000000000000000000011111100 "%
1"9
b001000 "=
#345
0"9
#350
12
13
b01001 4
15
1"#
b00000000000000000000000001001011 "%
1"9
#355
0"9
#360
b000001 (
b011111 )
0,
0.
b01010 4
b01001 8
1<
b00001 =
b00000000000000000000000001001011 i
b00000000000000000000000000000001 "%
1"'
1"1
1"9
1"@
#365
0"9
#370
b00000000000000000000000000010001 %
1'
b000010 (
b011110 )
1*
1-
10
02
b01011 4
b01001 6
b01010 8
b00010 =
b00000000000000000000000001001011 `
b00000000000000000000000000000001 j
b00000000000000000000000000001110 "%
b00000000000000000000000000010001 "2
1"9
b000100 "<
b00000000000000000000000000010000 "?
b00000000000000000000000000010100 "A
b000000010000 "C
b000000010100 "D
#375
0"9
#380
b00000000000000000000000000101111 %
12
03
05
b01010 6
b01011 8
b01001 :
b00000000000000000000000001001011 F
b00000000000000000000000000000001 `
b00000000000000000000000000001110 k
0"#
b00000000000000000000000010110010 "%
0"'
0"1
b00000000000000000000000000101111 "2
1"9
b000101 "<
b001001 "=
b00000000000000000000000000010100 "?
0"@
b00000000000000000000000000011000 "A
b000000010100 "C
b000000011000 "D
#385
0"9
#390
b000001 (
b011111 )
b01011 6
b01010 :
0<
b00001 =
b00000000000000000000000000000001 G
b00000000000000000000000000001110 `
b00000000000000000000000000100110 "%
1"9
b001010 "=
#395
0"9
#400
0'
b000000 (
b100000 )
0*
1,
0-
1.
00
02
b01011 :
b00000 =
b00000000000000000000000000001110 H
b00011111001011001111010111011101 `
b00000000000000000000000001010111 "%
1"'
1"1
1"9
b001011 "=
1"@
#405
0"9
#410
b00000000000000000000000010011000 %
b00000000000000000000000011011100 "%
0"'
0"1
b00000000000000000000000010011000 "2
1"9
b000110 "<
b00000000000000000000000000011000 "?
0"@
b00000000000000000000000000011100 "A
b000000011000 "C
b000000011100 "D
#415
0"9
#420
12
13
b01100 4
15
1"#
b00000000000000000000000011100101 "%
1"'
1"1
1"9
1"@
#425
0"9
#430
b00000000000000000000000011001000 %
b000001 (
b011111 )
0,
0.
02
03
05
b01100 8
1<
b00001 =
b00000000000000000000000011100101 l
0"#
b00000000000000000000000010100100 "%
0"'
0"1
b00000000000000000000000011001000 "2
1"9
b000111 "<
b00000000000000000000000000011100 "?
0"@
b00000000000000000000000000100000 "A
b000000011100 "C
b000000100000 "D
#435
0"9
#440
1'
1*
1-
10
13
b01101 4
15
b01100 6
b00000000000000000000000011100101 `
1"#
b00000000000000000000000001110001 "%
1"'
1"1
1"9
1"@
#445
0"9
#450
b00000000000000000000000001001011 %
0'
0*
0-
00
03
05
b01101 8
b01100 :
b00000000000000000000000011100101 I
b00000010010100000011111101001111 `
b00000000000000000000000001110001 m
0"#
b00000000000000000000000000010100 "%
0"'
0"1
b00000000000000000000000001001011 "2
1"9
b001000 "<
b001100 "=
b00000000000000000000000000100000 "?
0"@
b00000000000000000000000000100100 "A
b000000100000 "C
b000000100100 "D
#455
0"9
#460
1'
1*
1-
10
12
b01101 6
b00000000000000000000000001110001 `
b00000000000000000000000010111001 "%
1"'
1"1
1"9
1"@
#465
0"9
#470
b00000000000000000000000000000001 %
0'
b000000 (
b100000 )
0*
1,
0-
1.
00
13
b01110 4
15
b01101 :
0<
b00000 =
b00000000000000000000000001110001 J
b00111111010011010001001101111110 `
1"#
b00000000000000000000000001101110 "%
0"'
0"1
b00000000000000000000000000000001 "2
1"9
b001001 "<
b001101 "=
b00000000000000000000000000100100 "?
0"@
b00000000000000000000000000101000 "A
b000000100100 "C
b000000101000 "D
#475
0"9
#480
b000001 (
b011111 )
0,
0.
b01111 4
b01110 8
1<
b00001 =
b00000000000000000000000001101110 n
b00000000000000000000000010111100 "%
1"'
1"1
1"9
1"@
#485
0"9
#490
b00000000000000000000000000001110 %
1'
b000010 (
b011110 )
1*
1-
10
03
05
b01110 6
b01111 8
b00010 =
b00000000000000000000000001101110 `
b00000000000000000000000010111100 o
0"#
b00000000000000000000000010001101 "%
0"'
0"1
b00000000000000000000000000001110 "2
1"9
b001010 "<
b00000000000000000000000000101000 "?
0"@
b00000000000000000000000000101100 "A
b000000101000 "C
b000000101100 "D
#495
0"9
#500
b000001 (
b011111 )
02
13
b10000 4
15
b01111 6
b01110 :
0<
b00001 =
b00000000000000000000000001101110 K
b00000000000000000000000010111100 `
1"#
1"'
1"1
1"9
b001110 "=
1"@
#505
0"9
#510
b00000000000000000000000011100101 %
0'
0*
0-
00
12
b10001 4
b10000 8
b01111 :
b00000000000000000000000010111100 L
b10110001110000111011000010010001 `
b00000000000000000000000010001101 p
b00000000000000000000000010010011 "%
0"'
0"1
b00000000000000000000000011100101 "2
1"9
b001011 "<
b001111 "=
b00000000000000000000000000101100 "?
0"@
b00000000000000000000000000110000 "A
b000000101100 "C
b000000110000 "D
#515
0"9
#520
1'
b000010 (
b011110 )
1*
1-
10
02
b10010 4
b10000 6
b10001 8
1<
b00010 =
b00000000000000000000000010001101 `
b00000000000000000000000010010011 q
b00000000000000000000000000010000 "%
1"9
#525
0"9
#530
12
03
05
b10001 6
b10010 8
b10000 :
b00000000000000000000000010001101 M
b00000000000000000000000010010011 `
b00000000000000000000000000010000 r
0"#
b00000000000000000000000001011111 "%
1"'
1"1
1"9
b010000 "=
1"@
#535
0"9
#540
b00000000000000000000000001110001 %
b000001 (
b011111 )
b10010 6
b10001 :
0<
b00001 =
b00000000000000000000000010010011 N
b00000000000000000000000000010000 `
b00000000000000000000000000011010 "%
b00000000000000000000000001110001 "2
1"9
b001100 "<
b010001 "=
b00000000000000000000000000110000 "?
b00000000000000000000000000110100 "A
b000000110000 "C
b000000110100 "D
#545
0"9
#550
b00000000000000000000000001101110 %
0'
b000000 (
b100000 )
0*
1,
0-
1.
00
13
b10011 4
15
b10010 :
b00000 =
b00000000000000000000000000010000 O
b10011011111110100010100000101010 `
1"#
b00000000000000000000000000110110 "%
b00000000000000000000000001101110 "2
1"9
b001101 "<
b010010 "=
b00000000000000000000000000110100 "?
b00000000000000000000000000111000 "A
b000000110100 "C
b000000111000 "D
#555
0"9
#560
b00000000000000000000000010111100 %
b000001 (
b011111 )
0,
0.
b10100 4
b10011 8
1<
b00001 =
b00000000000000000000000000110110 s
b00000000000000000000000000001100 "%
0"'
0"1
b00000000000000000000000010111100 "2
1"9
b001110 "<
b00000000000000000000000000111000 "?
0"@
b00000000000000000000000000111100 "A
b000000111000 "C
b000000111100 "D
#565
0"9
#570
1'
b000010 (
b011110 )
1*
1-
10
03
05
b10011 6
b10100 8
b00010 =
b00000000000000000000000000110110 `
b00000000000000000000000000001100 t
0"#
b00000000000000000000000011001101 "%
1"9
#575
0"9
#580
b000001 (
b011111 )
02
13
b10101 4
15
b10100 6
b10011 :
0<
b00001 =
b00000000000000000000000000110110 P
b00000000000000000000000000001100 `
1"#
b00000000000000000000000000001111 "%
1"9
b010011 "=
#585
0"9
#590
0'
0*
0-
00
03
05
b10101 8
b10100 :
b00000000000000000000000000001100 Q
b00111110000011100100010110000000 `
b00000000000000000000000000001111 u
0"#
b00000000000000000000000001100110 "%
1"9
b010100 "=
#595
0"9
#600
1'
1*
1-
10
12
b10101 6
b00000000000000000000000000001111 `
b00000000000000000000000001110111 "%
1"'
1"1
1"9
1"@
#605
0"9
#610
b00000000000000000000000010001101 %
0'
b000000 (
b100000 )
0*
1,
0-
1.
00
13
b10110 4
15
b10101 :
b00000 =
b00000000000000000000000000001111 R
b00001011100101111000000111011111 `
1"#
b00000000000000000000000010001101 "2
1"9
b001111 "<
b010101 "=
b00000000000000000000000000111100 "?
b00000000000000000000000001000000 "A
b000000111100 "C
b000001000000 "D
#615
0"9
#620
b00000000000000000000000010010011 %
b000001 (
b011111 )
0,
0.
b10111 4
b10110 8
1<
b00001 =
b00000000000000000000000001110111 v
b00000000000000000000000011011000 "%
0"'
0"1
b00000000000000000000000010010011 "2
1"9
b010000 "<
b00000000000000000000000001000000 "?
0"@
b00000000000000000000000001000100 "A
b000001000000 "C
b000001000100 "D
#625
0"9
#630
1'
b000010 (
b011110 )
1*
1-
10
02
b11000 4
b10110 6
b10111 8
b00010 =
b00000000000000000000000001110111 `
b00000000000000000000000011011000 w
b00000000000000000000000010110101 "%
1"'
1"1
1"9
1"@
#635
0"9
#640
b00000000000000000000000000010000 %
b11001 4
b10111 6
b11000 8
b10110 :
b00000000000000000000000001110111 S
b00000000000000000000000011011000 `
b00000000000000000000000010110101 x
b00000000000000000000000010111010 "%
0"'
0"1
b00000000000000000000000000010000 "2
1"9
b010001 "<
b010110 "=
b00000000000000000000000001000100 "?
0"@
b00000000000000000000000001001000 "A
b000001000100 "C
b000001001000 "D
#645
0"9
#650
12
03
05
b11000 6
b11001 8
b10111 :
b00000000000000000000000011011000 T
b00000000000000000000000010110101 `
b00000000000000000000000010111010 y
0"#
b00000000000000000000000010110111 "%
1"9
b010111 "=
#655
0"9
#660
b000001 (
b011111 )
02
13
b11010 4
15
b11001 6
b11000 :
0<
b00001 =
b00000000000000000000000010110101 U
b00000000000000000000000010111010 `
1"#
b00000000000000000000000000011011 "%
1"9
b011000 "=
#665
0"9
#670
0'
0*
0-
00
03
05
b11010 8
b11001 :
b00000000000000000000000010111010 V
b00111101001101111111000011111001 `
b00000000000000000000000000011011 z
0"#
b00000000000000000000000011110000 "%
1"9
b011001 "=
#675
0"9
#680
1'
1*
1-
10
13
b11011 4
15
b11010 6
b00000000000000000000000000011011 `
1"#
b00000000000000000000000010010101 "%
1"9
#685
0"9
#690
0'
0*
0-
00
12
b11100 4
b11011 8
b11010 :
b00000000000000000000000000011011 W
b11000000010000001111100011100010 `
b00000000000000000000000010010101 {
b00000000000000000000000010110101 "%
1"9
b011010 "=
#695
0"9
#700
1'
b000010 (
b011110 )
1*
1-
10
02
b11101 4
b11011 6
b11100 8
1<
b00010 =
b00000000000000000000000010010101 `
b00000000000000000000000010110101 |
b00000000000000000000000000010011 "%
1"'
1"1
1"9
1"@
#705
0"9
#710
b00000000000000000000000000110110 %
b11110 4
b11100 6
b11101 8
b11011 :
b00000000000000000000000010010101 X
b00000000000000000000000010110101 `
b00000000000000000000000000010011 }
b00000000000000000000000011111010 "%
0"'
0"1
b00000000000000000000000000110110 "2
1"9
b010010 "<
b011011 "=
b00000000000000000000000001001000 "?
0"@
b00000000000000000000000001001100 "A
b000001001000 "C
b000001001100 "D
#715
0"9
#720
b11111 4
b11101 6
b11110 8
b11100 :
b00000000000000000000000010110101 Y
b00000000000000000000000000010011 `
b00000000000000000000000011111010 ~
b00000000000000000000000000000011 "%
1"'
1"1
1"9
b011100 "=
1"@
#725
0"9
#730
b00000000000000000000000000001100 %
11
b00000 4
b11110 6
b11111 8
19
b11101 :
b00000000000000000000000000010011 Z
b00000000000000000000000011111010 `
b00000000000000000000000000000011 "!
b00000000000000000000000000011101 "%
b00000000000000000000000000001100 "2
1"9
b010011 "<
b011101 "=
b00000000000000000000000001001100 "?
b00000000000000000000000001010000 "A
b000001001100 "C
b000001010000 "D
#735
0"9
#740
b00000000000000000000000000001111 %
01
12
03
05
b11111 6
b00000 8
09
b11110 :
b00000000000000000000000011111010 [
b00000000000000000000000000000011 `
b00000000000000000000000000011101 ""
0"#
b00000000000000000000000001011101 "%
0"'
0"1
b00000000000000000000000000001111 "2
1"9
b010100 "<
b011110 "=
b00000000000000000000000001010000 "?
0"@
b00000000000000000000000001010100 "A
b000001010000 "C
b000001010100 "D
#745
0"9
#750
b000001 (
b011111 )
1+
b00000 6
b11111 :
1;
0<
b00001 =
b00000000000000000000000000000011 \
b00000000000000000000000000011101 `
b00000000000000000000000001001100 "%
1"'
1"1
1"9
b011111 "=
1"@
#755
0"9
#760
b00000000000000000000000001110111 %
0&
0'
b000000 (
b100000 )
0*
0+
1,
0-
1.
00
02
b00000 :
0;
b00000 =
b00000000000000000000000000011101 ]
b00000000000000000000000001110101 `
b00000000000000000000000010110110 "%
b00000000000000000000000001110111 "2
1"9
b010101 "<
b100000 "=
0">
b00000000000000000000000001010100 "?
b00000000000000000000000001011000 "A
b000001010100 "C
b000001011000 "D
#765
0"9
#770
b00000000000000000000000011011000 %
b00000000000000000000000001100000 "%
b00000000000000000000000011011000 "2
1"9
b010110 "<
b00000000000000000000000001011000 "?
b00000000000000000000000001011100 "A
b000001011000 "C
b000001011100 "D
#775
0"9
